<?xml version="1.0" encoding="UTF-8"?>
<svg width="1105px" height="499px" viewBox="0 0 1105 499" version="1.1" xmlns="http://www.w3.org/2000/svg" xmlns:xlink="http://www.w3.org/1999/xlink">
    <!-- Generator: Sketch 64 (93537) - https://sketch.com -->
    <title>Group 10</title>
    <desc>Created with Sketch.</desc>
    <defs>
        <rect id="path-1" x="0" y="0" width="1440" height="530"></rect>
        <polygon id="path-3" points="0.467 0.0715751466 21.876 0.0715751466 21.876 20.986 0.467 20.986"></polygon>
        <path d="M1.297,20.472 L8.245,22.497 L1.68,23.99 C1.84,25.234 2.027,26.498 2.245,27.779 L2.245,27.779 C4.324,39.994 8.577,50.314 13.251,58.62 L13.251,58.62 L18.074,58.868 L14.585,60.919 C18.503,67.473 22.594,72.644 25.869,76.361 L25.869,76.361 L31.245,76.361 C32.298,69.78 32.799,61.518 31.406,52.217 L31.406,52.217 C29.96,42.565 26.828,34.159 23.06,27.04 L23.06,27.04 L18.596,29.421 L21.755,24.67 C14.641,12.214 5.801,4.06 1.608,0.481 L1.608,0.481 C0.935,6.081 0.611,12.865 1.297,20.472 L1.297,20.472 Z" id="path-5"></path>
    </defs>
    <g id="ATC-ESCRITORIO-curva" stroke="none" stroke-width="1" fill="none" fill-rule="evenodd">
        <g id="Home_2" transform="translate(-159.000000, -2121.000000)">
            <g id="Group-10" transform="translate(0.000000, 2090.000000)">
                <mask id="mask-2" fill="white">
                    <use xlink:href="#path-1"></use>
                </mask>
                <g id="Rectangle"></g>
                <g id="Group-69" mask="url(#mask-2)">
                    <g transform="translate(216.500000, 329.000000) rotate(-38.000000) translate(-216.500000, -329.000000) translate(166.000000, 268.000000)">
                        <path d="M1.0712761,119.70251 C-1.1777239,93.99151 -5.8177239,-5.91448999 58.6872761,0.275510014 C58.6872761,0.275510014 72.0592761,3.55251001 72.6072761,21.02851 C72.6072761,21.02851 95.5422761,15.56751 100.457276,30.85651 C105.137276,45.41651 27.5382761,87.00351 4.6942761,120.64951 C3.6452761,122.19651 1.2352761,121.56451 1.0712761,119.70251" id="Fill-1" fill="#019DF4"></path>
                        <path d="M93.7783761,43.29261 C88.8813761,36.60261 82.2693761,30.01161 69.5193761,27.62761 C56.3963761,25.17361 30.9413761,26.70961 10.7453761,69.50461 C6.3963761,78.72061 2.7293761,88.28961 0.028376101,98.65161 C0.146376101,107.47861 0.651376101,114.89161 1.0703761,119.70161 C1.2343761,121.56561 3.6443761,122.19561 4.6943761,120.64861 C22.7383761,94.07461 74.9423761,62.54461 93.7783761,43.29261" id="Fill-36" fill-opacity="0.1" fill="#000000"></path>
                    </g>
                </g>
                <g id="Group-70" mask="url(#mask-2)">
                    <g transform="translate(1192.000000, 216.000000)">
                        <g id="Group-61" stroke-width="1" fill="none" transform="translate(0.000000, 98.365499)">
                            <path d="M2.48970899,0.196995455 C2.12370899,-0.221004545 1.43870899,0.0749954555 1.48770899,0.627995455 C2.23170899,8.72099546 5.01570899,42.8189955 1.06670899,61.2019955 C-5.54229101,91.9509955 20.241709,101.333995 32.170709,75.1179955 C32.170709,75.1179955 75.461709,88.7019955 43.767709,49.4109955 C43.767709,49.4109955 16.288709,15.8809955 2.48970899,0.196995455" id="Fill-5" fill="#E05D4F"></path>
                            <path d="M43.767009,49.4113955 C43.767009,49.4113955 41.828009,47.0463955 38.722009,43.2743955 C37.230009,65.0263955 29.712009,79.2383955 18.375009,80.5153955 C10.642009,81.3883955 4.93400899,77.8383955 0.00800898606,71.1223955 C0.326008986,93.6573955 21.645009,98.2553955 32.170009,75.1183955 C32.170009,75.1183955 75.460009,88.7033955 43.767009,49.4113955" id="Fill-7" fill-opacity="0.1" fill="#000000"></path>
                        </g>
                        <path d="M36.366609,34.0673941 C36.512609,34.3003941 36.259609,34.5793941 36.017609,34.4513941 C31.454609,32.0473941 10.763609,20.5683941 7.90660899,8.59139409 C4.69060899,-4.88760591 18.806609,11.4553941 18.806609,11.4553941 C18.806609,11.4553941 17.696609,-11.0026059 24.198609,6.97139409 C29.427609,21.4343941 30.683609,25.1543941 36.366609,34.0673941" id="Fill-24" fill="#0B2739"></path>
                        <g id="Group-60" stroke-width="1" fill="none" transform="translate(21.920106, 56.171434)">
                            <path d="M45.8059029,83.3224599 C45.7049029,83.7294599 45.1209029,83.7204599 45.0419029,83.3064599 C43.7739029,76.7464599 38.7889029,51.8324599 14.5719029,32.7284599 C-4.89609708,17.3674599 -8.60309708,-5.85854008 26.9659029,8.24345992 C26.9659029,8.24345992 38.6039029,-16.8165401 45.9939029,20.4504599 C52.3369029,52.4474599 47.3439029,77.0134599 45.8059029,83.3224599" id="Fill-26" fill="#5CB615"></path>
                            <path d="M45.9944029,20.4516599 C45.6174029,18.5526599 45.2284029,16.8196599 44.8304029,15.2346599 C40.7494029,12.9446599 35.8574029,10.8086599 28.6254029,12.8356599 C23.5584029,14.2526599 15.7334029,18.3626599 12.3734029,30.8976599 C13.0804029,31.5196599 13.8134029,32.1316599 14.5724029,32.7266599 C25.1814029,41.0976599 32.0954029,50.5776599 36.6304029,59.1456599 C39.6744029,58.5616599 43.1824029,61.3776599 46.7754029,64.9986599 C47.2974029,65.5196599 47.8624029,66.0946599 48.4584029,66.6996599 C49.5334029,55.2406599 49.6944029,39.1146599 45.9944029,20.4516599" id="Fill-28" fill-opacity="0.1" fill="#000000"></path>
                        </g>
                    </g>
                </g>
                <g id="Group-11" opacity="0.1" mask="url(#mask-2)">
                    <g transform="translate(323.675476, 113.225734)">
                        <mask id="mask-4" fill="white">
                            <use xlink:href="#path-3"></use>
                        </mask>
                        <g id="Clip-10" stroke="none" fill="none"></g>
                        <path d="M0.8304,0.1036 C0.6044,-0.0194 0.3604,0.2366 0.4934,0.4526 C1.8614,2.7056 5.5944,9.1256 7.0204,14.3826 C10.1124,25.7706 14.6854,20.1086 15.2164,14.6476 C15.2164,14.6476 27.5084,14.2356 18.7094,8.0596 C12.8264,3.9336 8.6044,4.3786 0.8304,0.1036" id="Fill-9" stroke="none" fill="#1B1B1B" fill-rule="evenodd" mask="url(#mask-4)"></path>
                    </g>
                </g>
                <g id="Group-66" mask="url(#mask-2)">
                    <g transform="translate(338.894992, 111.556358)">
                        <path d="M0.745583959,0.0639762659 C0.296583959,-0.180023734 -0.190416041,0.321976266 0.0755839594,0.759976266 C2.79358396,5.23497627 10.205584,17.9819763 13.041584,28.4259763 C19.184584,51.0469763 28.267584,39.7999763 29.319584,28.9519763 C29.319584,28.9519763 53.734584,28.1349763 36.256584,15.8689763 C24.574584,7.67297627 16.187584,8.55297627 0.745583959,0.0639762659" id="Fill-12" fill="#E05D4F"></path>
                        <path d="M13.042484,28.4245763 C11.203484,21.6575763 7.44348396,13.9225763 4.28348396,8.09557627 C4.40448396,8.19557627 4.52548396,8.28857627 4.64648396,8.39157627 C11.196484,13.9135763 15.953484,18.1275763 21.691484,21.8975763 C28.291484,26.2305763 34.022484,27.1565763 36.486484,24.2055763 C38.443484,21.8625763 37.945484,19.1325763 36.147484,15.7935763 L36.257484,15.8675763 C53.734484,28.1335763 29.319484,28.9525763 29.319484,28.9525763 C28.268484,39.8015763 19.186484,51.0485763 13.042484,28.4245763" id="Fill-14" fill-opacity="0.1" fill="#000000"></path>
                    </g>
                </g>
                <g id="Group-65" mask="url(#mask-2)">
                    <g transform="translate(268.196705, 93.061833)">
                        <path d="M49.902959,0.0636515235 C40.0235721,2.1265367 -26.482349,17.1530827 12.7526256,40.5155683 C12.7526256,40.5155683 27.8196236,69.4208362 38.0233473,50.8015651 C48.0653468,32.4781341 35.9538121,21.2379863 50.3881313,0.810803303 C50.6404919,0.455439793 50.3294841,-0.025189354 49.902959,0.0636515235" id="Fill-17" fill="#019DF4"></path>
                        <path d="M29.2105923,57.0529009 C29.2527867,56.3080507 29.2886969,55.6200864 29.317425,55.0263394 C29.7833591,45.7050453 30.0212637,34.3403017 32.3527296,27.0153485 C35.468832,17.2203012 39.77356,17.3296288 42.5296632,17.6869436 C42.7146005,17.7109424 42.8941512,17.7464961 43.0701108,17.7873828 C43.8897598,12.6952026 45.8280096,7.20304317 50.3876996,0.812263671 C50.6417638,0.454948879 50.3275501,-0.0259150585 49.8975262,0.063858061 C45.0774877,1.0602508 26.9105479,5.08315317 13.8823491,11.6090368 C12.385794,16.0879155 11.1450987,20.8681119 10.1997642,26.0358437 C9.4438558,30.1645184 8.88365761,34.1963092 8.47877078,38.0334434 C9.64046381,38.855623 10.9296378,39.6893575 12.3642479,40.5355358 C12.3642479,40.5355358 20.6989914,56.363159 29.2105923,57.0529009" id="Fill-19" fill-opacity="0.1" fill="#000000"></path>
                    </g>
                </g>
                <g id="Group-68" mask="url(#mask-2)">
                    <g transform="translate(159.562856, 118.576478)">
                        <path d="M83.4196204,0.115856481 C65.1046204,9.74085648 -57.5473796,76.7868565 32.9466204,100.777856 C32.9466204,100.777856 78.9156204,149.294856 88.5526204,106.841856 C98.0366204,65.0638565 67.8346204,49.7138565 84.7956204,1.31685648 C85.0936204,0.474856481 84.2106204,-0.30014352 83.4196204,0.115856481" id="Fill-22" fill="#0B2739"></path>
                        <path d="M75.1080204,123.950656 C74.7710204,122.458656 74.4540204,121.083656 74.1760204,119.897656 C69.8420204,101.266656 63.9160204,78.7376565 64.3440204,63.0016565 C64.9150204,41.9626565 73.3770204,39.7826565 78.9550204,38.9526565 C79.3290204,38.8966565 79.7000204,38.8656565 80.0670204,38.8476565 C78.8000204,28.3566565 79.4930204,16.4536565 84.7960204,1.31765648 C85.0910204,0.47465648 84.2100204,-0.30034352 83.4210204,0.11665648 C74.5740204,4.76465648 41.3900204,22.8106565 19.6370204,42.9256565 C19.2380204,52.5856565 19.5050204,62.6986565 20.5680204,73.4096565 C21.4150204,81.9666565 22.5900204,90.2236565 23.9580204,98.0116565 C26.6870204,98.9856565 29.6710204,99.9096565 32.9470204,100.779656 C32.9470204,100.779656 58.1120204,127.331656 75.1080204,123.950656" id="Fill-34" fill-opacity="0.1" fill="#000000"></path>
                    </g>
                </g>
                <g id="Group-67" mask="url(#mask-2)">
                    <g transform="translate(486.000000, 83.000000) rotate(39.000000) translate(-486.000000, -83.000000) translate(430.000000, 44.000000)">
                        <path d="M110.576878,0.439333995 C111.148878,0.489333995 111.259878,1.28133399 110.716878,1.47533399 C102.110878,4.57433399 69.4668785,16.573334 48.7368785,53.360334 C32.0688785,82.933334 1.43587849,92.848334 13.0048785,41.764334 C13.0048785,41.764334 -23.3461215,31.311334 25.5008785,13.451334 C67.4388785,-1.87966601 101.719878,-0.309666005 110.576878,0.439333995" id="Fill-30" fill="#E05D4F"></path>
                        <path d="M25.5016785,13.450934 C23.0136785,14.361934 20.7506785,15.252934 18.6906785,16.125934 C16.4546785,22.128934 14.5986785,29.195934 18.8656785,38.550934 C21.8516785,45.103934 29.0616785,54.820934 46.7256785,56.720934 C47.4166785,55.632934 48.0896785,54.512934 48.7346785,53.359934 C57.8176785,37.244934 69.1816785,25.893934 79.8136785,17.950934 C78.3806785,13.957934 81.4486785,8.61693399 85.5876785,2.99393399 C86.1836785,2.17893399 86.8416785,1.29193399 87.5336785,0.358933995 C71.8096785,1.32293399 49.9636785,4.50793399 25.5016785,13.450934" id="Fill-32" fill-opacity="0.1" fill="#000000"></path>
                    </g>
                </g>
                <g id="Group-58" mask="url(#mask-2)">
                    <g transform="translate(1036.000000, 134.000000) rotate(-14.000000) translate(-1036.000000, -134.000000) translate(961.000000, 13.000000)">
                        <path d="M108.520313,240.092767 C105.769313,240.929767 102.911313,241.603767 99.8823128,241.546767 C98.3773128,241.511767 96.8103128,241.256767 95.3453128,240.562767 C93.8823128,239.881767 92.5913128,238.718767 91.7503128,237.385767 C91.5233128,237.058767 91.3413128,236.722767 91.1483128,236.388767 C90.9743128,236.059767 90.7973128,235.737767 90.6413128,235.329767 C90.4763128,234.944767 90.3183128,234.555767 90.2423128,234.137767 L90.0993128,233.520767 C90.0673128,233.312767 90.0593128,233.102767 90.0413128,232.893767 C89.9053128,231.207767 90.3173128,229.585767 90.9163128,228.156767 C92.1493128,225.281767 94.0323128,222.967767 95.9463128,220.781767 C97.8743128,218.591767 99.9723128,216.626767 101.996313,214.666767 L108.105313,208.763767 L120.324313,196.957767 L126.433313,191.054767 L129.487313,188.103767 L131.005313,186.628767 L132.424313,185.156767 C136.128313,181.166767 139.253313,176.642767 141.350313,171.698767 C142.449313,169.245767 143.155313,166.653767 143.710313,164.051767 L144.038313,162.080767 C144.161313,161.425767 144.166313,160.756767 144.243313,160.095767 C144.413313,158.772767 144.358313,157.436767 144.383313,156.105767 C144.286313,150.767767 142.856313,145.514767 140.948313,140.350767 C139.068313,135.221767 136.410313,130.465767 132.917313,126.478767 C132.700313,126.228767 132.494313,125.968767 132.268313,125.726767 L131.558313,125.034767 L130.142313,123.646767 L128.600313,122.399767 C128.093313,121.974767 127.578313,121.561767 127.010313,121.216767 L125.357313,120.115767 C124.805313,119.748767 124.194313,119.473767 123.616313,119.146767 C123.023313,118.844767 122.463313,118.483767 121.843313,118.228767 L119.999313,117.439767 C115.039313,115.410767 109.642313,114.303767 104.165313,113.806767 C98.5843128,113.289767 92.8913128,112.924767 87.2463128,112.424767 C75.9343128,111.450767 64.5453128,110.280767 53.3453128,107.691767 C50.5283128,107.054767 47.7523128,106.201767 45.0343128,105.186767 C42.3113128,104.183767 39.6503128,102.965767 37.1423128,101.437767 C34.6443128,99.9127671 32.2603128,98.0827671 30.3803128,95.7147671 C28.4773128,93.3907671 27.3773128,90.2377671 27.6643128,87.1807671 L29.1993128,87.3007671 C29.1423128,89.9197671 30.1873128,92.4457671 31.9833128,94.4057671 C33.7313128,96.4077671 35.9833128,97.9927671 38.3743128,99.2997671 C40.7733128,100.611767 43.3423128,101.648767 45.9793128,102.479767 C47.2813128,102.936767 48.6373128,103.255767 49.9693128,103.627767 C51.3253128,103.929767 52.6653128,104.279767 54.0353128,104.526767 C59.5063128,105.604767 65.1063128,106.321767 70.6923128,106.892767 C76.2873128,107.476767 81.9163128,107.865767 87.5593128,108.219767 C93.2153128,108.581767 98.8373128,108.896767 104.550313,109.328767 C110.350313,109.773767 116.217313,110.841767 121.762313,113.100767 L123.829313,113.974767 C124.521313,114.258767 125.166313,114.658767 125.835313,114.997767 C126.492313,115.362767 127.177313,115.676767 127.809313,116.088767 L129.702313,117.330767 C130.346313,117.725767 130.940313,118.192767 131.524313,118.673767 L133.291313,120.094767 L134.921313,121.670767 L135.735313,122.460767 C135.993313,122.735767 136.231313,123.027767 136.480313,123.310767 C140.508313,127.823767 143.387313,133.179767 145.391313,138.683767 C145.896313,140.062767 146.396313,141.441767 146.792313,142.843767 C147.001313,143.544767 147.225313,144.234767 147.420313,144.943767 L147.938313,147.118767 C148.333313,148.556767 148.487313,150.052767 148.729313,151.526767 C148.870313,152.260767 148.864313,153.017767 148.934313,153.762767 C148.973313,154.510767 149.070313,155.256767 149.058313,156.007767 C149.086313,159.007767 148.849313,162.019767 148.233313,164.960767 C147.578313,167.883767 146.735313,170.779767 145.485313,173.492767 C143.081313,178.964767 139.595313,183.854767 135.543313,188.111767 L133.982313,189.669767 L132.416313,191.118767 L129.287313,194.000767 L123.027313,199.762767 L110.509313,211.285767 L104.250313,217.046767 C102.163313,218.985767 100.069313,220.844767 98.1603128,222.827767 C96.2673128,224.810767 94.4593128,226.918767 93.3683128,229.235767 C92.8293128,230.385767 92.4983128,231.583767 92.5443128,232.734767 C92.5523128,232.877767 92.5473128,233.023767 92.5633128,233.166767 L92.6473128,233.586767 C92.6793128,233.873767 92.7853128,234.143767 92.8883128,234.414767 C92.9663128,234.676767 93.1173128,234.984767 93.2623128,235.287767 C93.4143128,235.571767 93.5563128,235.866767 93.7253128,236.127767 C94.3593128,237.216767 95.2313128,238.046767 96.3113128,238.615767 C97.3893128,239.190767 98.6693128,239.451767 99.9833128,239.558767 C102.633313,239.757767 105.407313,239.283767 108.103313,238.610767 L108.520313,240.092767 Z" id="Fill-38" fill="#019AF1"></path>
                        <path d="M64.1648128,190.815367 C69.4418128,189.985367 74.5998128,188.628367 79.0168128,186.100367 C81.2208128,184.847367 83.2048128,183.296367 84.8788128,181.495367 C86.5438128,179.681367 87.8478128,177.580367 88.7918128,175.314367 C90.6818128,170.762367 91.0448128,165.565367 90.1758128,160.590367 C89.7678128,158.091367 89.0038128,155.643367 88.0018128,153.298367 C87.5378128,152.108367 86.9198128,150.985367 86.3518128,149.838367 C85.6888128,148.741367 85.0818128,147.609367 84.3178128,146.572367 C83.6208128,145.490367 82.7928128,144.501367 81.9948128,143.488367 C81.1408128,142.507367 80.3068128,141.570367 79.3648128,140.606367 C77.4888128,138.686367 75.5788128,136.793367 73.6648128,134.901367 C69.8268128,131.126367 65.8768128,127.454367 61.9408128,123.748367 L56.0178128,118.185367 C55.0328128,117.251367 54.0618128,116.292367 53.0928128,115.326367 C52.1158128,114.322367 51.1588128,113.285367 50.2978128,112.158367 C49.4388128,111.029367 48.6518128,109.836367 47.9878128,108.565367 C47.3398128,107.284367 46.8188128,105.928367 46.4808128,104.524367 C45.7558128,101.710367 45.9998128,98.7363671 46.7618128,96.0413671 L48.2538128,96.4193671 C47.7228128,98.9623671 47.7588128,101.571367 48.5018128,103.986367 C49.2118128,106.412367 50.5858128,108.612367 52.2638128,110.564367 C53.0998128,111.545367 54.0318128,112.450367 54.9908128,113.335367 L58.0148128,115.996367 L64.1378128,121.311367 C68.2418128,124.846367 72.2858128,128.468367 76.2788128,132.160367 C78.2718128,134.011367 80.2518128,135.879367 82.1828128,137.804367 C83.1468128,138.757367 84.1378128,139.823367 85.0728128,140.866367 C85.9708128,141.961367 86.8948128,143.037367 87.6888128,144.217367 C88.5478128,145.350367 89.2508128,146.590367 90.0028128,147.798367 C90.6588128,149.062367 91.3708128,150.302367 91.8958128,151.634367 C93.0318128,154.253367 93.9068128,157.005367 94.3908128,159.844367 C95.3768128,165.482367 95.1368128,171.548367 92.7388128,176.985367 C90.4928128,182.492367 85.8648128,186.882367 80.6598128,189.272367 C75.4318128,191.716367 69.7418128,192.543367 64.2488128,192.352367 L64.1648128,190.815367 Z" id="Fill-40" fill="#019AF1"></path>
                        <path d="M3.09841276,8.11746709 C1.15141276,12.9864671 -0.0835872383,19.3894671 0.00441276167,27.8184671 C0.121412762,39.0684671 1.94441276,50.3584671 7.52341276,62.9254671 C12.6694128,74.5164671 18.9694128,84.0454671 22.8874128,89.1814671 C24.2374128,90.9524671 26.0714128,92.6884671 27.4054128,93.7054671 C29.6854128,95.4424671 32.2934128,95.6284671 34.4074128,95.1744671 C31.6444128,90.6364671 28.7094128,85.2484671 26.0774128,79.3194671 C20.4974128,66.7524671 19.0884128,53.2984671 20.1534128,42.0994671 L24.4024128,39.3364671 L3.09841276,8.11746709 Z" id="Fill-42" fill="#019DF4"></path>
                        <path d="M54.5535128,84.0526671 C57.9835128,75.6836671 62.5175128,69.6806671 67.8075128,64.5056671 C70.9495128,61.4326671 73.8655128,59.3336671 76.5325128,57.9516671 C84.1695128,53.9956671 90.4445128,55.1146671 92.8145128,57.7596671 C100.329513,66.1456671 118.257513,36.4916671 106.900513,30.7246671 C101.197513,27.8286671 90.0605128,23.0906671 73.1365128,38.1766671 C65.7625128,44.7506671 59.3465128,52.4756671 54.2545128,63.4226671 C49.5585128,73.5206671 46.8945128,83.1906671 45.7575128,88.7476671 C45.3665128,90.6636671 45.2775128,92.8796671 45.3745128,94.3486671 C45.5825128,97.4746671 47.6745128,99.5456671 49.5705128,100.533667 C50.4275128,96.2536671 51.9995128,90.2816671 54.5535128,84.0526671" id="Fill-44" fill="#019DF4"></path>
                        <path d="M33.0291128,92.8607671 C30.6841128,88.8437671 28.2761128,84.2717671 26.0771128,79.3187671 C20.4981128,66.7517671 19.0891128,53.2987671 20.1531128,42.0997671 L24.4021128,39.3367671 L9.83311276,17.9867671 C7.12111276,22.9207671 5.50011276,30.2547671 6.84711276,41.1827671 C8.06711276,51.0697671 10.7921128,60.8247671 16.9481128,71.3287671 C22.6061128,80.9817671 29.0681128,88.7177671 33.0291128,92.8607671" id="Fill-46" fill-opacity="0.2" fill="#000000"></path>
                        <path d="M19.1287128,1.39296709 C19.1287128,1.39296709 13.3377128,-2.42303291 6.09971276,2.57696709 C-1.13828724,7.57796709 -1.66428724,27.1869671 11.4957128,38.5049671 C20.9207128,46.6109671 27.0387128,40.6069671 29.7517128,36.5469671 C30.8387128,34.9219671 31.0787128,32.8759671 30.3857128,31.0479671 L19.1287128,1.39296709 Z" id="Fill-48" fill="#019DF4"></path>
                        <path d="M24.1287128,36.9253671 C24.1287128,36.9253671 31.8867128,36.3683671 33.6047128,27.8443671 C35.3957128,18.9613671 30.7887128,0.998367088 16.2027128,0.998367088 C0.795712762,0.998367088 5.44171276,36.7933671 24.1287128,36.9253671" id="Fill-50" fill="#0B2739"></path>
                        <path d="M29.8006128,15.9397671 C32.6116128,24.6257671 30.7076128,33.0197671 25.5496128,34.6887671 C20.3916128,36.3577671 13.9316128,30.6697671 11.1206128,21.9837671 C8.31061276,13.2977671 10.2136128,4.90376709 15.3716128,3.23476709 C20.5296128,1.56576709 26.9896128,7.25376709 29.8006128,15.9397671" id="Fill-52" fill="#019DF4"></path>
                        <path d="M9.05551276,32.9279671 C-2.92248724,2.49896709 13.3435128,0.0809670882 13.9465128,0.00196708822 C11.7685128,-0.0360329118 9.05551276,0.535967088 6.09951276,2.57796709 C-1.13748724,7.57796709 -1.66448724,27.1869671 11.4955128,38.5049671 C12.4905128,39.3599671 13.4475128,40.0569671 14.3675128,40.6169671 C14.6195128,40.7709671 14.8635128,40.4069671 14.6265128,40.2289671 C12.1595128,38.3649671 10.2505128,35.9639671 9.05551276,32.9279671" id="Fill-54" fill-opacity="0.2" fill="#FFFFFF"></path>
                        <path d="M97.3563128,45.1595671 C92.1863128,42.3715671 81.3093128,39.6025671 67.1083128,54.8325671 C60.9203128,61.4685671 55.7073128,69.0765671 51.9763128,79.5195671 C49.4533128,86.5855671 47.9113128,93.3465671 47.0433128,98.4925671 C47.7933128,99.3985671 48.7023128,100.081567 49.5703128,100.533567 C50.4273128,96.2535671 52.0003128,90.2815671 54.5533128,84.0525671 C57.9833128,75.6835671 62.5173128,69.6805671 67.8073128,64.5055671 C70.9493128,61.4325671 73.8653128,59.3335671 76.5323128,57.9515671 C84.1693128,53.9955671 90.4443128,55.1145671 92.8143128,57.7595671 C95.9243128,61.2295671 100.816313,58.1835671 104.679313,53.0135671 C103.448313,50.1785671 101.436313,47.3595671 97.3563128,45.1595671" id="Fill-56" fill-opacity="0.2" fill="#000000"></path>
                        <path d="M30.1473128,17.1056671 C28.3873128,16.5256671 26.8543128,14.9816671 25.6463128,13.0006671 C24.2073128,10.6396671 21.3553128,6.14666709 19.8293128,4.63666709 C19.2883128,4.10166709 18.7173128,3.51666709 18.0343128,2.99666709 C17.1263128,2.88666709 16.2313128,2.95666709 15.3723128,3.23466709 C10.6263128,4.76966709 8.63931276,11.9976671 10.5393128,19.9066671 C10.8063128,19.7536671 11.0823128,19.6786671 11.3223128,19.6266671 C12.7193128,19.3186671 13.8923128,20.8536671 15.0053128,22.7776671 C16.3343128,25.0746671 18.6133128,29.1436671 20.4703128,32.2506671 C21.0023128,33.1416671 21.6793128,34.0526671 22.5123128,34.8736671 C23.5483128,35.0566671 24.5723128,35.0046671 25.5493128,34.6886671 C30.4763128,33.0946671 32.4303128,25.3646671 30.1473128,17.1056671" id="Fill-58" fill-opacity="0.2" fill="#000000"></path>
                        <path d="M97.5721128,57.8954671 C95.6211128,59.5244671 92.9261128,60.0634671 90.5611128,59.1334671 C88.1921128,58.2014671 86.1451128,55.7974671 87.4311128,49.9094671 C90.0051128,38.1334671 103.216113,22.3764671 109.758113,31.3314671 C116.300113,40.2874671 104.508113,52.1024671 104.508113,52.1024671 L97.5721128,57.8954671 Z" id="Fill-60" fill="#019DF4"></path>
                        <path d="M98.0135128,59.1810671 C95.4765128,59.7670671 92.9995128,57.9630671 92.6805128,55.3790671 C92.3295128,52.5440671 92.7675128,47.7110671 97.3755128,41.6730671 C104.889513,31.8270671 111.682513,32.7890671 111.914513,37.5440671 C112.148513,42.3000671 107.909513,53.2500671 99.0095128,58.8080671 C99.0095128,58.8080671 98.6485128,59.0340671 98.0135128,59.1810671" id="Fill-62" fill="#0B2739"></path>
                        <path d="M103.917813,37.4180671 C103.975813,38.5110671 104.025813,39.4530671 104.042813,40.1590671 C104.087813,42.0980671 103.518813,43.5690671 102.012813,44.4650671 C100.632813,45.2860671 98.9868128,45.1340671 97.3478128,44.4010671 C94.0178128,49.4110671 93.7028128,53.4190671 94.0058128,55.8660671 C94.3098128,58.3240671 96.6658128,60.0400671 99.0788128,59.4820671 C99.6838128,59.3430671 100.026813,59.1280671 100.026813,59.1280671 C106.608813,55.0170671 110.509813,47.8090671 111.817813,42.6760671 C111.779813,42.0340671 111.756813,41.3910671 111.752813,40.7370671 C111.744813,39.5770671 111.853813,38.5420671 112.058813,37.6620671 C111.164813,35.2870671 107.977813,34.6390671 103.917813,37.4180671" id="Fill-64" fill-opacity="0.3" fill="#1B1B1B"></path>
                    </g>
                </g>
                <g id="Group-57" mask="url(#mask-2)">
                    <g transform="translate(612.000000, 273.148588)">
                        <g id="Group-55" transform="translate(60.181100, 0.000000)">
                            <g id="Group-53" transform="translate(34.732559, 22.834279)" fill="#642A72">
                                <path d="M25.2335408,24.198 C25.2335408,24.198 24.2145408,9.275 34.0645408,1.70530257e-13 C34.0645408,1.70530257e-13 39.2845408,13.907 25.2335408,24.198" id="Fill-69"></path>
                                <path d="M21.9992408,32.9407 C21.9992408,32.9407 25.6182408,25.8407 36.8892408,20.5347 C36.8892408,20.5347 36.3122408,29.2277 20.2902408,36.7947 L21.9992408,32.9407 Z" id="Fill-71"></path>
                                <path d="M14.7589408,48.3006 C14.7589408,48.3006 22.5509408,39.5186 37.0679408,35.8336 C37.0679408,35.8336 36.9249408,43.5126 13.9479408,50.5026 L14.7589408,48.3006 Z" id="Fill-73"></path>
                                <path d="M7.60564082,61.0235 C7.60564082,61.0235 19.6576408,50.8205 35.8836408,50.2355 C35.8836408,50.2355 22.4716408,65.3365 7.60564082,61.0235" id="Fill-75"></path>
                                <path d="M18.5314408,13.7512 C18.5314408,13.7512 23.0814408,21.9342 20.8424408,35.2112 L19.2064408,38.4852 C19.2064408,38.4852 14.3834408,28.2722 18.5314408,13.7512" id="Fill-77"></path>
                                <path d="M14.6867408,49.1226 C14.6867408,49.1226 18.3707408,41.0626 9.74974082,24.9036 C9.74974082,24.9036 7.82474082,37.5506 13.5297408,50.6666 L14.6867408,49.1226 Z" id="Fill-79"></path>
                                <path d="M8.52164082,60.3823 C8.52164082,60.3823 12.2476408,51.2573 3.26964082,33.1333 C3.26964082,33.1333 0.39364082,46.0173 8.00664082,61.5643 L8.52164082,60.3823 Z" id="Fill-81"></path>
                                <path d="M26.3126408,23.8237 C25.0096408,27.9277 23.5766408,31.9567 22.0586408,35.9747 C20.5376408,39.9867 18.9156408,43.9657 17.1936408,47.9107 C15.4646408,51.8527 13.5986408,55.7437 11.6156408,59.5937 C9.59864082,63.4277 7.41464082,67.1957 5.01064082,70.8727 C4.18664082,72.1337 2.49664082,72.4877 1.23564082,71.6627 C-0.0253591804,70.8387 -0.37935918,69.1487 0.44464082,67.8877 C0.48064082,67.8337 0.51764082,67.7807 0.55664082,67.7287 L0.58664082,67.6897 C3.10664082,64.3937 5.47464082,60.9347 7.70464082,57.3647 C9.90464082,53.7747 12.0116408,50.1087 13.9956408,46.3647 C15.9716408,42.6167 17.8616408,38.8147 19.6586408,34.9627 C21.4486408,31.1127 23.1716408,27.2097 24.7496408,23.2787 L24.7536408,23.2647 C24.9246408,22.8407 25.4076408,22.6347 25.8326408,22.8047 C26.2366408,22.9667 26.4416408,23.4147 26.3126408,23.8237" id="Fill-83"></path>
                            </g>
                            <g id="Group-50" transform="translate(8.198609, 0.000000)">
                                <path d="M16.6962912,64.932679 C16.6962912,64.932679 16.9892912,53.288679 17.1322912,42.980679 C17.2752912,32.672679 12.3442912,26.200679 12.3442912,26.200679 C12.3442912,26.200679 2.55929121,4.01467899 2.13129121,0.470678994 C1.70329121,-3.07432101 -1.66570879,14.495679 1.04529121,16.749679 C3.75729121,19.003679 1.99829121,24.192679 1.25829121,27.050679 C0.516291207,29.908679 6.17629121,33.611679 9.96129121,35.843679 C13.7442912,38.075679 16.0362912,37.228679 15.8082912,64.950679 L16.6962912,64.932679 Z" id="Fill-85" fill="#0B2739"></path>
                                <path d="M2.20309121,0.879178994 C2.25709121,2.96017899 2.09509121,5.04617899 1.71609121,7.09317899 C1.38109121,8.90517899 0.888091207,10.830179 1.58309121,12.537179 C2.31809121,14.343179 4.18709121,15.403179 5.33109121,16.982179 C8.34209121,21.137179 5.74409121,27.773179 9.15309121,31.608179 C10.0920912,32.664179 11.3860912,33.354179 12.3320912,34.403179 C13.1880912,35.351179 13.7190912,36.546179 14.1590912,37.745179 C16.4830912,44.077179 16.6410912,50.966179 16.7710912,57.708179 C16.8090912,57.530179 16.8400912,57.350179 16.8750912,57.171179 C16.9630912,53.065179 17.0640912,47.873179 17.1320912,42.981179 C17.2750912,32.672179 12.3450912,26.200179 12.3450912,26.200179 C12.3450912,26.200179 3.19209121,5.44817899 2.20309121,0.879178994" id="Fill-87" fill-opacity="0.1" fill="#000000"></path>
                                <path d="M17.0487912,60.126079 C17.0487912,60.126079 17.3827912,43.100079 18.5897912,36.247079 C19.7967912,29.394079 21.7897912,28.247079 23.2707912,24.380079 C24.7517912,20.512079 26.9107912,11.688079 39.1047912,6.95007899 C39.1047912,6.95007899 40.2027912,12.910079 36.9567912,16.359079 C33.7117912,19.807079 31.0937912,15.829079 31.4437912,20.179079 C31.7927912,24.529079 33.4937912,25.026079 28.9307912,27.618079 C24.3657912,30.210079 24.4257912,29.949079 25.8197912,31.286079 C27.2127912,32.623079 25.5797912,35.453079 21.6187912,35.730079 C17.6567912,36.006079 17.9587912,60.107079 17.9587912,60.107079 L17.0487912,60.126079 Z" id="Fill-89" fill="#0B2739"></path>
                            </g>
                            <g id="Group-51" transform="translate(26.281939, 25.053979)">
                                <path d="M2.41276109,74.117 C2.41276109,74.117 -9.10823891,33.69 18.2007611,8.52651283e-14 C18.2007611,8.52651283e-14 33.3387611,33.69 5.96076109,72.484 L2.41276109,74.117 Z" id="Fill-91" fill="#3C7521"></path>
                                <path d="M18.3541611,0.3633 C20.0431611,16.9963 16.3311611,26.3153 14.7141611,29.7203 C11.7621611,35.9383 8.29116109,42.1803 4.70616109,46.5133 C3.65816109,47.7793 2.57516109,49.0493 1.89716109,50.5463 C0.79516109,52.9783 0.86816109,55.7573 0.96116109,58.4253 C1.11516109,62.8343 1.73316109,68.0403 5.60416109,70.1573 C6.09916109,70.4283 6.62116109,70.6203 7.15716109,70.7513 C31.3161611,35.0173 19.8461611,4.0183 18.3541611,0.3633" id="Fill-93" fill-opacity="0.1" fill="#000000"></path>
                            </g>
                            <g id="Group-104" transform="translate(0.000000, 26.962379)">
                                <path d="M8.2454,22.4969 L1.2974,20.4729 C0.6114,12.8649 0.9344,6.0809 1.6074,0.4809 C5.8014,4.0599 14.6414,12.2139 21.7554,24.6699 L18.5964,29.4209 L23.0594,27.0409 C26.8284,34.1599 29.9604,42.5659 31.4054,52.2169 C32.9664,62.6349 32.1494,71.7529 30.8444,78.6609 L27.8684,78.5689 C24.3734,74.8169 19.3494,68.8919 14.5844,60.9189 L18.0734,58.8679 L13.2514,58.6199 C8.5774,50.3129 4.3234,39.9939 2.2444,27.7789 C2.0264,26.4969 1.8404,25.2349 1.6804,23.9909 L8.2454,22.4969 Z" id="Fill-95" fill="#5CB615"></path>
                                <mask id="mask-6" fill="white">
                                    <use xlink:href="#path-5"></use>
                                </mask>
                                <g id="Clip-103"></g>
                                <path d="M10.9046,1.9134 C10.2836,3.0424 9.7056,4.2414 9.2476,5.4184 C8.7936,6.5824 8.4336,7.8224 8.4356,8.7414 L8.4356,8.7424 L7.6146,11.8834 L5.1996,10.1994 C4.5456,9.7434 3.7226,9.2574 2.9456,8.8264 C2.1536,8.3854 1.3396,7.9764 0.5106,7.5944 C-1.1454,6.8244 -2.8674,6.1904 -4.6504,5.7194 L-4.6674,5.7154 C-5.1074,5.5994 -5.3684,5.1484 -5.2524,4.7084 C-5.1554,4.3394 -4.8214,4.0954 -4.4554,4.0954 C-2.4954,4.0974 -0.5234,4.2864 1.4226,4.6364 C2.3956,4.8094 3.3666,5.0154 4.3306,5.2614 C5.3096,5.5134 6.2246,5.7654 7.2636,6.1404 L4.0276,7.5964 L4.0286,7.5944 C4.3806,6.7604 4.8056,6.0934 5.2446,5.4704 C5.6826,4.8494 6.1556,4.3004 6.6316,3.7654 C7.5936,2.7054 8.5896,1.7634 9.6596,0.8514 C10.0086,0.5564 10.5306,0.5984 10.8266,0.9464 C11.0546,1.2144 11.0826,1.5874 10.9236,1.8794 L10.9046,1.9134 Z" id="Fill-102" fill="#3C7521" mask="url(#mask-6)"></path>
                                <path d="M17.8236,10.5711 C17.3576,11.2531 16.8986,11.9991 16.4836,12.7361 C16.0646,13.4771 15.6796,14.2321 15.3306,14.9921 C14.6336,16.5111 14.0976,18.0731 13.8386,19.5621 L13.8386,19.5641 L13.2126,21.7121 L11.2116,21.0051 C10.0876,20.6081 8.8776,20.2241 7.6926,19.8681 C6.5006,19.5111 5.2996,19.1771 4.0916,18.8661 C1.6756,18.2441 -0.7674,17.7251 -3.2374,17.3721 L-3.2454,17.3711 C-3.6954,17.3071 -4.0064,16.8911 -3.9434,16.4431 C-3.8854,16.0441 -3.5504,15.7531 -3.1614,15.7381 C-0.5844,15.6381 1.9986,15.7121 4.5696,15.8961 C5.8556,15.9881 7.1396,16.1051 8.4246,16.2471 C9.7156,16.3921 10.9726,16.5501 12.3016,16.7621 L9.6756,18.2031 L9.6766,18.2001 C10.5326,16.3731 11.6146,14.8081 12.7916,13.3791 C13.3836,12.6661 13.9966,11.9851 14.6336,11.3331 C15.2746,10.6781 15.9186,10.0651 16.6286,9.4541 C16.9726,9.1581 17.4916,9.1961 17.7886,9.5411 C18.0366,9.8291 18.0496,10.2401 17.8446,10.5401 L17.8236,10.5711 Z" id="Fill-105" fill="#3C7521" mask="url(#mask-6)"></path>
                                <path d="M22.345,18.8602 C21.79,19.5432 21.241,20.3602 20.765,21.1612 C20.284,21.9742 19.845,22.8072 19.457,23.6612 C18.683,25.3692 18.09,27.1382 17.675,28.9262 L17.675,28.9272 L16.667,31.0022 L14.994,30.1982 C14.624,30.0202 13.991,29.8062 13.45,29.6452 C12.885,29.4732 12.299,29.3282 11.707,29.1992 C10.523,28.9402 9.305,28.7602 8.074,28.6332 C6.84,28.5262 5.593,28.4572 4.34,28.4712 C3.085,28.4712 1.827,28.5512 0.565,28.6592 L0.544,28.6602 C0.093,28.6992 -0.303,28.3642 -0.342,27.9132 C-0.377,27.5082 -0.11,27.1472 0.272,27.0492 C1.543,26.7252 2.829,26.4252 4.137,26.2072 C5.443,25.9752 6.767,25.8272 8.105,25.7232 C9.443,25.6382 10.794,25.6122 12.159,25.6792 C12.843,25.7142 13.528,25.7652 14.221,25.8552 C14.938,25.9522 15.559,26.0322 16.409,26.2582 L13.729,27.5292 C14.638,25.6212 15.721,23.8202 16.963,22.1602 C17.585,21.3302 18.252,20.5392 18.955,19.7852 C19.67,19.0282 20.383,18.3332 21.241,17.6532 C21.596,17.3722 22.111,17.4322 22.392,17.7862 C22.634,18.0922 22.622,18.5192 22.386,18.8112 L22.345,18.8602 Z" id="Fill-108" fill="#3C7521" mask="url(#mask-6)"></path>
                                <path d="M25.7337,27.8084 C25.2157,28.7184 24.7467,29.7964 24.3507,30.8384 C23.9517,31.8944 23.6127,32.9754 23.3137,34.0634 C23.0257,35.1564 22.7737,36.2574 22.5767,37.3674 C22.3707,38.4754 22.2227,39.5944 22.0937,40.7104 L22.0937,40.7114 L21.3937,43.3264 L19.3177,41.9784 C18.3187,41.3304 17.0027,40.6864 15.7507,40.1894 C14.4737,39.6774 13.1497,39.2624 11.7957,38.9624 C10.4447,38.6544 9.0627,38.4434 7.6687,38.3754 C6.2727,38.2684 4.8727,38.3584 3.4667,38.4874 L3.4217,38.4914 C2.9707,38.5324 2.5737,38.2014 2.5327,37.7514 C2.4947,37.3354 2.7757,36.9634 3.1737,36.8784 C4.6427,36.5604 6.1407,36.2854 7.6597,36.2184 C9.1757,36.1104 10.7067,36.1574 12.2257,36.3164 C13.7487,36.4674 15.2607,36.7474 16.7487,37.1464 C18.2597,37.5584 19.6547,38.0144 21.2077,38.7684 L18.4307,40.0364 L18.4307,40.0354 C18.7467,38.8624 19.0837,37.6984 19.4787,36.5534 C19.8667,35.4064 20.3087,34.2784 20.7877,33.1684 C21.2767,32.0624 21.8057,30.9754 22.3977,29.9204 C23.0017,28.8584 23.6127,27.8584 24.4127,26.8434 C24.6917,26.4894 25.2057,26.4284 25.5597,26.7074 C25.8817,26.9614 25.9617,27.4084 25.7647,27.7534 L25.7337,27.8084 Z" id="Fill-111" fill="#3C7521" mask="url(#mask-6)"></path>
                                <path d="M29.6751,39.1688 C29.0161,39.8268 28.3601,40.7538 27.8311,41.6518 C27.2911,42.5698 26.8391,43.5428 26.4451,44.5368 C26.0551,45.5348 25.7401,46.5628 25.4791,47.6038 C25.2161,48.6448 25.0291,49.7058 24.8701,50.7688 L24.8691,50.7688 L24.3591,52.8328 L22.6881,51.6908 C21.6211,50.9628 20.3151,50.2598 19.0391,49.6888 C17.7471,49.1028 16.4051,48.6208 15.0351,48.2408 C13.6671,47.8508 12.2661,47.5718 10.8501,47.4278 C9.4331,47.2438 8.0051,47.2688 6.5771,47.3318 L6.5291,47.3338 C6.0781,47.3528 5.6971,47.0028 5.6781,46.5528 C5.6581,46.1218 5.9801,45.7538 6.4021,45.7048 C7.9201,45.5318 9.4581,45.4048 10.9921,45.4978 C12.5281,45.5498 14.0581,45.7478 15.5621,46.0678 C17.0681,46.3778 18.5531,46.8008 19.9971,47.3398 C21.4591,47.8888 22.8221,48.4868 24.2631,49.3328 L22.0801,50.2548 C22.3561,49.1158 22.6611,47.9848 23.0491,46.8768 C23.4351,45.7698 23.8781,44.6808 24.4031,43.6268 C24.9311,42.5768 25.5231,41.5558 26.2101,40.5928 C26.9201,39.6248 27.6281,38.7428 28.6431,37.9008 C28.9881,37.6128 29.5031,37.6608 29.7901,38.0068 C30.0621,38.3328 30.0351,38.8078 29.7411,39.1028 L29.6751,39.1688 Z" id="Fill-114" fill="#3C7521" mask="url(#mask-6)"></path>
                                <path d="M31.3753,49.8119 C30.8273,50.4329 30.2973,51.2589 29.8773,52.0609 C29.4483,52.8769 29.0993,53.7329 28.8043,54.6019 C28.5203,55.4779 28.2883,56.3659 28.1223,57.2669 C27.9473,58.1659 27.8483,59.0779 27.7713,59.9859 L26.9513,62.7269 L24.8803,61.2899 C23.9193,60.6229 22.7213,59.9479 21.5673,59.3799 C20.3953,58.8039 19.1813,58.3029 17.9393,57.8799 C16.6993,57.4449 15.4233,57.1339 14.1303,56.9029 C12.8333,56.6599 11.5203,56.6009 10.1953,56.6029 L10.1533,56.6029 C9.7683,56.6039 9.45429709,56.2909 9.45429709,55.9049 C9.4533,55.5559 9.7103,55.2659 10.0463,55.2139 C11.4483,54.9979 12.8833,54.8499 14.3133,54.8989 C15.7423,54.9369 17.1783,55.0669 18.5863,55.3329 C19.9973,55.5879 21.3943,55.9329 22.7663,56.3669 C24.1543,56.8159 25.4493,57.2909 26.8663,57.9819 L23.9773,59.2859 C24.2803,58.2769 24.6123,57.2809 25.0223,56.3129 C25.4253,55.3439 25.8953,54.4039 26.4193,53.4999 C26.9553,52.5999 27.5443,51.7359 28.2113,50.9329 C28.8953,50.1239 29.5803,49.3979 30.4993,48.7249 C30.8093,48.4969 31.2453,48.5639 31.4733,48.8739 C31.6703,49.1429 31.6463,49.5069 31.4333,49.7469 L31.3753,49.8119 Z" id="Fill-117" fill="#3C7521" mask="url(#mask-6)"></path>
                                <path d="M33.7816,57.9232 C33.1876,58.5392 32.6016,59.2532 32.0876,59.9682 C31.5686,60.6912 31.1056,61.4442 30.7046,62.2112 C30.2946,62.9752 29.9856,63.7732 29.7336,64.5602 C29.4796,65.3512 29.3616,66.1492 29.2896,66.9202 L28.9986,70.0182 L26.4916,68.1482 C25.7186,67.5722 24.7416,66.9772 23.8066,66.4722 C22.8526,65.9592 21.8666,65.5062 20.8546,65.1172 C18.8316,64.3482 16.6896,63.8812 14.5216,63.9532 L14.4996,63.9542 C14.1126,63.9672 13.7896,63.6642 13.7766,63.2782 C13.7646,62.9322 14.0076,62.6362 14.3356,62.5692 C16.7096,62.0822 19.1806,62.1992 21.5446,62.6682 C22.7266,62.9062 23.8926,63.2212 25.0376,63.6082 C26.1966,64.0072 27.2716,64.4232 28.4556,65.0232 L25.6586,66.2512 C25.9746,65.2092 26.3646,64.2152 26.8766,63.3132 C27.3856,62.4122 27.9476,61.5632 28.5896,60.7982 C29.2226,60.0272 29.9016,59.3122 30.6206,58.6532 C31.3466,57.9912 32.0806,57.3942 32.9156,56.8272 C33.2346,56.6112 33.6706,56.6942 33.8866,57.0132 C34.0766,57.2922 34.0376,57.6582 33.8116,57.8922 L33.7816,57.9232 Z" id="Fill-120" fill="#3C7521" mask="url(#mask-6)"></path>
                                <path d="M2.1283,-0.317 C6.2083,5.652 9.5813,11.95 12.7173,18.394 C15.8223,24.846 18.5933,31.458 21.0583,38.186 C21.6693,39.87 22.2303,41.571 22.8173,43.263 L23.6893,45.806 L24.4763,48.375 L26.0493,53.517 L27.4443,58.71 C28.4343,62.16 29.1333,65.679 29.9683,69.169 C30.7383,72.672 31.3433,76.21 32.0393,79.732 C32.2633,80.864 31.5263,81.962 30.3953,82.186 C29.2633,82.41 28.1643,81.673 27.9403,80.541 C27.9383,80.525 27.9353,80.508 27.9323,80.491 L27.9133,80.379 C27.3313,76.899 26.8403,73.4 26.1853,69.931 C25.4653,66.475 24.8813,62.986 24.0073,59.562 L22.7843,54.404 L21.3853,49.291 L20.6853,46.733 L19.8993,44.201 C19.3693,42.515 18.8673,40.819 18.3143,39.14 C16.0783,32.43 13.5373,25.818 10.6583,19.352 C7.7623,12.912 4.5723,6.527 0.7893,0.622 L0.7653,0.585 C0.5223,0.205 0.6333,-0.3 1.0133,-0.544 C1.3853,-0.783 1.8803,-0.68 2.1283,-0.317" id="Fill-99" fill="#3C7521" mask="url(#mask-6)"></path>
                            </g>
                            <g id="Group-54" transform="translate(24.831746, 43.614048)">
                                <path d="M30.2994543,19.793231 L31.0454543,25.391231 L27.4074543,22.137231 C6.27045428,40.002231 0.997454276,61.356231 0.997454276,61.356231 L4.42245428,62.913231 C10.1544543,59.837231 15.4194543,56.812231 20.2594543,53.853231 L18.2784543,50.613231 L22.4424543,52.505231 C69.4764543,23.162231 74.4834543,0.637231042 74.4834543,0.637231042 C55.3384543,4.23323104 40.9864543,11.498231 30.2994543,19.793231" id="Fill-124" fill="#A13EA1"></path>
                                <path d="M0.484054276,60.680731 C5.54605428,54.275731 10.9480543,48.430731 16.6220543,42.750731 C22.2810543,37.082731 28.2090543,31.693731 34.3890543,26.618731 C35.9220543,25.333731 37.4620543,24.060731 39.0560543,22.853731 L43.7980543,19.186731 C47.0570543,16.870731 50.2320543,14.444731 53.6010543,12.291731 C60.1860543,7.76673104 67.1600543,3.84673104 74.1820543,0.075731042 C74.4920543,-0.090268958 74.8790543,0.025731042 75.0450543,0.334731042 C75.2080543,0.638731042 75.0990543,1.01473104 74.8040543,1.18673104 L74.7840543,1.19873104 C67.9330543,5.18273104 61.1580543,9.29673104 54.7860543,13.999731 C51.5240543,16.240731 48.4600543,18.753731 45.3160543,21.148731 L40.7500543,24.933731 C39.2140543,26.179731 37.7340543,27.489731 36.2630543,28.809731 C30.3280543,34.028731 24.6570543,39.544731 19.2720543,45.315731 C13.8980543,51.062731 8.69905428,57.105731 4.10705428,63.337731 L4.05605428,63.406731 C3.32005428,64.406731 1.91405428,64.618731 0.915054276,63.882731 C-0.0849457239,63.146731 -0.297945724,61.740731 0.438054276,60.741731 C0.451054276,60.722731 0.470054276,60.698731 0.484054276,60.680731" id="Fill-127" fill="#F28D15"></path>
                            </g>
                        </g>
                        <g id="Group-45" transform="translate(0.000000, 143.309279)">
                            <path d="M6.9676,272.01054 C6.8836,272.01054 6.7996,272.0036 6.7136,271.9916 C5.7116,271.8526 5.0116,270.9276 5.1506,269.9256 L42.2276,2.7306 C42.3546,1.8236 43.1286,1.1496 44.0426,1.1496 L44.0576,1.1496 C44.9786,1.1576 45.7496,1.8466 45.8616,2.7606 L78.5036,269.9556 C78.6266,270.9586 77.9116,271.8736 76.9066,271.9956 C75.8996,272.1246 74.9896,271.4036 74.8666,270.3986 L43.9266,17.1456 L8.7796,270.4286 C8.6536,271.3456 7.8676,272.01054 6.9676,272.01054" id="Fill-149" fill="#7E8080"></path>
                            <path d="M332.2322,272.01054 C332.1492,272.01054 332.0642,272.0036 331.9782,271.9916 C330.9762,271.8526 330.2762,270.9276 330.4162,269.9256 L367.4932,2.7306 C367.6192,1.8236 368.3932,1.1496 369.3072,1.1496 L369.3222,1.1496 C370.2432,1.1576 371.0152,1.8466 371.1262,2.7606 L403.7692,269.9556 C403.8922,270.9586 403.1772,271.8736 402.1722,271.9956 C401.1642,272.1246 400.2542,271.4036 400.1312,270.3986 L369.1922,17.1456 L334.0442,270.4286 C333.9182,271.3456 333.1322,272.01054 332.2322,272.01054" id="Fill-151" fill="#7E8080"></path>
                            <path d="M412.032,9.619 L4.809,9.619 C2.153,9.619 2.84217094e-13,7.466 2.84217094e-13,4.809 C2.84217094e-13,2.153 2.153,-1.42108547e-13 4.809,-1.42108547e-13 L412.032,-1.42108547e-13 C414.688,-1.42108547e-13 416.842,2.153 416.842,4.809 C416.842,7.466 414.688,9.619 412.032,9.619" id="Fill-153" fill="#909192"></path>
                        </g>
                        <g id="Group-49" transform="translate(67.856700, 95.625279)">
                            <g id="Group-47">
                                <path d="M85.4995,18.3218 L8.3195,18.3218 L8.3195,2.0018 L85.4995,2.0018 C87.8455,2.0018 89.7455,3.9028 89.7455,6.2478 L89.7455,14.0758 C89.7455,16.4208 87.8455,18.3218 85.4995,18.3218" id="Fill-179" fill="#FFFFFF"></path>
                                <path d="M83.896,20.323 L2.001,20.323 C0.897,20.323 -6.82121026e-13,19.427 -6.82121026e-13,18.322 C-6.82121026e-13,17.216 0.897,16.321 2.001,16.321 L83.896,16.321 C86.518,16.321 88.651,14.369 88.651,11.971 L88.651,8.353 C88.651,5.954 86.518,4.003 83.896,4.003 L2.001,4.003 C0.897,4.003 -6.82121026e-13,3.107 -6.82121026e-13,2.002 C-6.82121026e-13,0.896 0.897,1.70530257e-13 2.001,1.70530257e-13 L83.896,1.70530257e-13 C88.724,1.70530257e-13 92.654,3.748 92.654,8.353 L92.654,11.971 C92.654,16.576 88.724,20.323 83.896,20.323" id="Fill-181" fill="#5CB615"></path>
                                <path d="M51.2027,10.7622 L11.6187,10.7622 C11.2867,10.7622 11.0177,10.4932 11.0177,10.1612 C11.0177,9.8302 11.2867,9.5612 11.6187,9.5612 L51.2027,9.5612 C51.5347,9.5612 51.8037,9.8302 51.8037,10.1612 C51.8037,10.4932 51.5347,10.7622 51.2027,10.7622" id="Fill-183" fill="#E9E9E9"></path>
                            </g>
                            <g id="Group-48" transform="translate(16.698000, 20.004000)">
                                <path d="M83.4177,26.8649 L6.9017,26.8649 C4.7137,26.8649 2.9387,25.0909 2.9387,22.9019 L2.9387,5.5519 C2.9387,3.3639 4.7137,1.5889 6.9017,1.5889 L83.4177,1.5889 L83.4177,26.8649 Z" id="Fill-185" fill="#FFFFFF"></path>
                                <path d="M55.822,14.9745 L11.174,14.9745 C10.842,14.9745 10.573,14.7055 10.573,14.3745 C10.573,14.0425 10.842,13.7735 11.174,13.7735 L55.822,13.7735 C56.154,13.7735 56.423,14.0425 56.423,14.3745 C56.423,14.7055 56.154,14.9745 55.822,14.9745" id="Fill-187" fill="#E9E9E9"></path>
                                <path d="M87.074,28.83 L7.557,28.83 C3.39,28.83 3.69482223e-13,25.44 3.69482223e-13,21.273 L3.69482223e-13,7.557 C3.69482223e-13,3.39 3.39,-2.84217094e-14 7.557,-2.84217094e-14 L87.074,-2.84217094e-14 C88.179,-2.84217094e-14 89.075,0.896 89.075,2.001 C89.075,3.107 88.179,4.003 87.074,4.003 L7.557,4.003 C5.597,4.003 4.003,5.597 4.003,7.557 L4.003,21.273 C4.003,23.233 5.597,24.827 7.557,24.827 L87.074,24.827 C88.179,24.827 89.075,25.723 89.075,26.829 C89.075,27.934 88.179,28.83 87.074,28.83" id="Fill-189" fill="#A13EA1"></path>
                            </g>
                        </g>
                        <g id="Group-46" transform="translate(156.456580, 36.173484)">
                            <path d="M180.69652,98.8680948 L53.92852,98.8680948 C52.63552,98.8680948 51.58852,99.9170948 51.58852,101.210095 L51.58852,105.438095 C51.58852,106.731095 52.63552,107.779095 53.92852,107.779095 L180.69652,107.779095 C181.98952,107.779095 183.03752,106.731095 183.03752,105.438095 L183.03752,101.210095 C183.03752,99.9170948 181.98952,98.8680948 180.69652,98.8680948" id="Fill-191" fill="#676767"></path>
                            <path d="M0.11152,2.85269483 L51.23052,105.535695 C51.79952,107.246695 53.64952,108.171695 55.36052,107.602695 C57.09652,107.023695 58.01852,105.131695 57.40452,103.407695 L4.21052,1.44069483 C3.81352,0.329694828 2.60252,-0.261305172 1.48352,0.111694828 C0.34752,0.489694828 -0.26648,1.71669483 0.11152,2.85269483" id="Fill-193" fill="#969696"></path>
                        </g>
                    </g>
                </g>
                <g id="Group-59" mask="url(#mask-2)">
                    <g transform="translate(1152.000000, 61.667979)">
                        <path d="M104.984886,82.4244881 C119.510886,56.3244881 110.129886,23.3884881 84.0288856,8.86148808 L80.3908856,6.83648808 C54.2908856,-7.69051192 21.3548856,1.69248808 6.82888562,27.7934881 C-6.02511438,50.8864881 -0.133114382,79.3064881 19.4678856,95.6154881 L20.5468856,116.384488 L40.4218856,107.326488 C64.6778856,115.550488 92.0858856,105.601488 104.984886,82.4244881" id="Fill-135" fill="#CDCCCC"></path>
                        <path d="M49.2788856,61.7064881 L53.7928856,64.2184881 C54.5598856,64.6454881 55.5258856,64.3704881 55.9538856,63.6024881 L76.1208856,33.9044881 C76.5478856,33.1364881 76.2718856,32.1704881 75.5048856,31.7424881 L65.4368856,26.1394881 C64.6698856,25.7124881 63.7028856,25.9874881 63.2758856,26.7554881 L48.6638856,59.5454881 C48.2358856,60.3124881 48.5108856,61.2794881 49.2788856,61.7064881" id="Fill-137" fill="#FFFFFF"></path>
                        <path d="M48.8784856,67.7364881 C45.1404856,65.6554881 40.4214856,66.9994881 38.3414856,70.7374881 C36.2604856,74.4764881 37.6054856,79.1944881 41.3434856,81.2754881 C45.0814856,83.3554881 49.7994856,82.0114881 51.8804856,78.2734881 C53.9604856,74.5354881 52.6164856,69.8174881 48.8784856,67.7364881" id="Fill-139" fill="#FFFFFF"></path>
                    </g>
                </g>
                <g id="Group-63" mask="url(#mask-2)">
                    <g transform="translate(339.000000, 38.000000)">
                        <path d="M45,22.5 C45,34.9263657 34.9240726,45 22.4977069,45 C10.0736343,45 0,34.9263657 0,22.5 C0,10.0736343 10.0736343,0 22.4977069,0 C34.9240726,0 45,10.0736343 45,22.5" id="Fill-141" fill="#019DF4"></path>
                        <path d="M22.173,19.4807884 C20.607,19.4807884 19.337,18.2117884 19.337,16.6457884 C19.337,15.0797884 20.607,13.8107884 22.173,13.8107884 C23.738,13.8107884 25.007,15.0797884 25.007,16.6457884 C25.007,18.2117884 23.738,19.4807884 22.173,19.4807884 M31.324,16.5477884 C31.022,11.9927884 27.307,8.29678841 22.751,8.01778841 C17.423,7.69078841 13,11.9147884 13,17.1717884 C13,18.4517884 13.264,19.6707884 13.736,20.7767884 L13.742,20.7897884 C13.858,21.0577884 13.985,21.3197884 14.124,21.5737884 L21.626,36.9777884 C21.733,37.1967884 22.043,37.2017884 22.156,36.9857884 L30.195,21.6167884 C30.272,21.4797884 30.345,21.3407884 30.414,21.1987884 L30.425,21.1787884 C31.099,19.7937884 31.435,18.2147884 31.324,16.5477884" id="Fill-147" fill="#FFFFFF"></path>
                    </g>
                </g>
                <g id="Group-41" mask="url(#mask-2)">
                    <g transform="translate(982.591200, 359.581856)">
                        <path d="M177.4174,0.0321112795 C174.9264,0.292111279 172.9344,2.23111128 172.4074,4.68111128 C167.9044,25.6521113 148.3564,132.412111 148.3564,132.412111 C146.7494,140.397111 142.7644,146.394111 138.6304,150.430111 C132.5214,156.396111 123.8364,159.288111 115.3004,159.478111 L17.4084,162.686111 C13.7924,162.812111 10.9264,165.779111 10.9264,169.397111 C10.9264,173.138111 13.9814,176.157111 17.7224,176.113586 L127.7844,174.849111 C140.0434,174.576111 151.6944,168.984111 159.1794,159.271111 C169.3334,146.094111 169.9894,130.001111 169.9894,130.001111 L183.6984,6.41411128 C184.1464,2.79711128 181.1264,-0.353888721 177.4174,0.0321112795" id="Fill-175" fill="#000000"></path>
                        <path d="M65.975,156.067811 C70.006,144.030811 81.441,135.941811 94.425,135.941811 C107.505,135.941811 118.964,144.106811 122.936,156.248811 L183.621,336.087811 L188.405,336.087811 L127.287,154.905811 C122.704,140.901811 109.498,131.491811 94.425,131.491811 C79.46,131.491811 66.285,140.812811 61.63,154.705811 L-5.68434189e-13,336.087811 L4.787,336.087811 L65.975,156.067811 Z" id="Fill-177" fill="#EFEEEE"></path>
                    </g>
                </g>
                <g id="Group-44" mask="url(#mask-2)">
                    <g transform="translate(716.000000, 152.536410)">
                        <g id="Group-43" transform="translate(0.000000, 307.286642)">
                            <path d="M206.256816,73.2575153 C206.256816,73.2575153 352.318816,74.5735153 398.305816,49.0795153 C446.862816,22.1605153 207.164816,26.2625153 207.164816,26.2625153 L206.256816,73.2575153 Z" id="Fill-155" fill="#0D232F"></path>
                            <path d="M201.281216,29.8456153 C201.281216,29.8456153 246.072216,56.8516153 159.672216,127.946615 C119.714216,160.827615 79.0912162,198.648615 79.0912162,198.648615 L63.6142162,181.913615 L184.394216,36.1086153 C184.394216,36.1086153 193.358216,32.6556153 201.281216,29.8456153" id="Fill-169" fill="#0D232F"></path>
                            <path d="M402.533116,2.75671534 L341.935116,1.34871534 C341.935116,1.34871534 298.388116,-2.47628466 199.521116,2.75671534 C199.521116,2.75671534 186.586116,4.86671534 179.703116,15.3337153 C172.820116,25.8007153 181.539116,33.6897153 199.389116,39.6547153 C229.948116,56.9967153 333.074116,59.2857153 380.179116,62.8837153 C411.339116,65.2637153 416.323116,28.7127153 411.031116,10.9137153 C409.378116,5.35571534 406.954116,2.75671534 402.533116,2.75671534" id="Fill-171" fill="#0B2739"></path>
                            <path d="M179.817316,15.3339153 C179.817316,15.3339153 246.426316,7.17091534 200.681316,109.282915 C179.524316,156.507915 171.597316,183.226915 171.597316,183.226915 L144.789316,184.641915 L173.321316,33.4529153 C173.321316,33.4529153 173.971316,21.3759153 179.817316,15.3339153" id="Fill-173" fill="#0B2739"></path>
                        </g>
                        <g id="Group-40" transform="translate(193.569620, 0.000000)">
                            <path d="M3.24969578,206.612257 C4.05269578,206.114257 4.82869578,205.622257 5.59069578,205.141257 C5.34369578,205.078257 5.43169578,204.783257 6.10169578,204.060257 C8.25169578,201.742257 12.9336958,197.596257 15.7416958,197.581257 C16.3746958,197.580257 17.4866958,197.591257 18.9366958,197.620257 C17.5916958,197.109257 16.5406958,196.604257 16.0606958,196.144257 C13.7186958,193.905257 14.5926958,192.051257 18.7026958,193.721257 C22.8086958,195.388257 41.0746958,198.759257 43.6856958,198.746257 C53.4216958,197.364257 60.8746958,200.285257 62.6256958,204.708257 C64.3766958,209.130257 55.2786958,208.260257 49.1986958,214.210257 C42.1716958,221.090257 35.6256958,221.477257 29.5146958,226.120257 C21.4016958,232.284257 19.7346958,230.094257 21.3386958,226.950257 C22.9466958,223.810257 29.6256958,219.346257 27.1266958,216.765257 C24.6296958,214.184257 17.8086958,216.270257 9.61769578,216.416257 C1.35269578,216.564257 -1.50830422,213.899257 0.737695779,212.893257 C3.05869578,211.855257 7.26869578,211.132257 11.8036958,209.922257 C13.0196958,209.597257 14.9316958,208.770257 17.3126958,207.709257 C16.2436958,207.733257 15.3296958,207.695257 14.6576958,207.585257 C11.9976958,207.141257 5.60569578,211.056257 2.94269578,210.611257 C0.284695779,210.169257 -1.49330422,209.552257 3.24969578,206.612257" id="Fill-195" fill="#D6564D"></path>
                            <path d="M202.397096,146.090057 L48.5370958,196.841057 L48.3610958,200.373057 C47.7300958,213.115057 58.6230958,223.412057 71.3090958,222.066057 L126.682096,216.191057 L202.397096,146.090057 Z" id="Fill-197" fill="#DCB598"></path>
                            <path d="M151.622696,329.051657 C151.622696,329.051657 100.740696,333.042657 103.934696,321.398657 C120.462696,261.149657 136.696696,176.371657 136.696696,176.371657 L151.622696,329.051657 Z" id="Fill-199" fill="#EFC9AA"></path>
                            <path d="M126.609096,225.844457 C132.665096,197.422457 136.675096,176.486457 136.696096,176.376457 L136.697096,176.372457 L146.983096,281.586457 L151.623096,329.051457 L151.622096,329.052457 C151.609096,329.052457 127.829096,330.914457 113.808096,328.371457 L126.609096,225.844457 Z" id="Fill-201" fill-opacity="0.1" fill="#000000"></path>
                            <path d="M127.422496,70.6166572 C135.844496,51.8266572 129.365496,32.3906572 142.972496,12.9536572 C156.189496,-5.92734276 184.068496,-1.88134276 189.518496,10.5356572 C198.820496,10.2676572 210.660496,14.9016572 215.862496,34.1716572 C221.370496,54.5816572 215.539496,69.8066572 239.187496,82.1166572 C261.759496,93.8666572 256.357496,110.300657 253.765496,115.808657 C251.174496,121.314657 252.145496,120.344657 259.272496,132.654657 C266.400496,144.963657 255.731496,153.997657 249.229496,154.358657 C243.398496,154.683657 237.892496,148.203657 215.213496,151.442657 C192.993496,154.617657 193.301496,141.077657 164.138496,137.026657 C148.588496,134.866657 150.949496,122.344657 138.762496,120.181657 C128.027496,118.276657 120.604496,109.318657 119.648496,98.8006572 C118.817496,89.6376572 123.500496,79.3656572 127.422496,70.6166572" id="Fill-203" fill="#0B2739"></path>
                            <path d="M143.199739,30.0590415 C141.599114,33.8231835 133.161464,54.7013617 143.312134,77.8370396 C152.004679,97.648054 168.705366,106.293756 173.239298,108.463557 C177.289531,105.136923 181.339763,101.811274 185.389996,98.4846394 L157.936524,27.4635572 L143.199739,30.0590415 Z" id="Fill-72" fill-opacity="0.2" fill="#000000"></path>
                            <path d="M163.058296,8.68055724 C177.991296,3.06955724 197.293296,8.73055724 203.224296,29.1065572 C204.995296,35.1825572 205.479296,41.9725572 204.358296,48.2235572 C203.344296,53.8965572 200.295296,58.7555572 197.535296,63.7195572 C193.766296,70.4885572 191.878296,77.2055572 192.181296,84.9065572 C192.362296,89.4085572 193.297296,100.524557 193.831296,104.996557 C193.831296,104.996557 192.756296,104.141557 188.941296,107.153557 C181.310296,113.378557 172.366296,109.629557 172.366296,109.629557 C172.366296,109.629557 171.100296,109.381557 171.300296,103.156557 C171.703296,96.9315572 172.329296,82.4015572 165.954296,82.7475572 C162.920296,82.9125572 159.390296,83.6675572 156.510296,82.3265572 C149.662296,79.2195572 146.628296,72.2015572 145.410296,65.0745572 C143.552296,55.4095572 143.277296,45.4765572 144.490296,35.8975572 C145.611296,26.9455572 147.287296,17.6945572 155.349296,12.4435572 C157.721296,10.8155572 160.390296,9.74855724 163.058296,8.68055724" id="Fill-205" fill="#E05D4F"></path>
                            <path d="M178.178896,20.1240572 C177.123165,23.8881992 174.07128,44.8278793 180.766403,67.9635572 C186.499784,87.7745716 197.352585,99.8439239 200.343051,102.013725 C203.014481,98.6870907 205.718566,91.8112738 208.389996,88.4846394 L190.282387,17.4635572 L178.178896,20.1240572 Z" id="Fill-72-Copy" fill-opacity="0.2" fill="#000000"></path>
                            <path d="M188.884396,38.2508572 L188.910396,38.1378572 C191.642396,37.0218572 194.820396,36.8608572 196.740396,39.5988572 C198.816396,42.5548572 197.571396,46.4078572 195.013396,48.9958572 C194.078396,49.9428572 192.568396,51.1158572 191.378396,51.9648572 L188.884396,38.2508572 Z" id="Fill-207" fill="#E05D4F"></path>
                            <path d="M188.908896,38.1378572 L187.658896,42.5828572 C187.658896,42.5828572 190.171896,44.2788572 190.171896,44.0378572 C190.171896,43.7968572 190.592896,38.9198572 190.592896,38.9198572 L188.908896,38.1378572 Z" id="Fill-209" fill="#E05D4F"></path>
                            <path d="M172.892296,100.279757 L171.448296,100.456757 C171.672296,95.2817572 171.590296,87.8507572 169.239296,84.5067572 C169.138296,84.3517572 169.033296,84.2047572 168.920296,84.0677572 C168.870296,84.0087572 168.817296,83.9517572 168.763296,83.8957572 C168.552296,83.6657572 168.322296,83.4687572 168.072296,83.3047572 C168.047296,83.2897572 168.025296,83.2717572 168.000296,83.2567572 C167.737296,83.0937572 167.454296,82.9677572 167.144296,82.8837572 C167.109296,82.8737572 167.076296,82.8577572 167.040296,82.8487572 C166.711296,82.7717572 166.364296,82.7287572 165.980296,82.7487572 C165.971296,82.7497572 165.963296,82.7477572 165.955296,82.7477572 C165.955296,82.7477572 170.056296,82.4887572 184.071296,70.8627572 L172.892296,100.279757 Z" id="Fill-211" fill-opacity="0.1" fill="#000000"></path>
                            <path d="M183.821896,66.6100572 C181.824896,57.0690572 180.122896,42.4740572 179.202896,32.1200572 C178.838896,28.0110572 178.501896,24.0380572 178.178896,20.1240572 L202.214896,13.6980572 C207.786896,17.1140572 212.900896,23.5960572 215.862896,35.0260572 C218.479896,45.1280572 218.540896,54.0090572 220.416896,61.9260572 C221.844896,72.5210572 224.298896,81.6660572 233.912896,89.7620572 C230.526896,98.7870572 225.227896,105.493057 217.357896,107.263057 C201.558896,110.818057 188.883896,90.8020572 183.821896,66.6100572" id="Fill-215" fill="#0B2739"></path>
                            <path d="M197.347296,14.9474572 L189.518296,10.5354572 L178.915296,4.91745724 L150.891296,9.06145724 L143.754296,24.9824572 C143.754296,24.9824572 161.795296,29.3444572 162.122296,29.3444572 C162.450296,29.3444572 183.060296,24.6554572 183.060296,24.6554572 L197.347296,14.9474572 Z" id="Fill-217" fill="#0B2739"></path>
                            <path d="M132.823896,310.550457 L223.981896,310.550457 C223.981896,310.550457 245.577896,180.189457 200.317896,109.261457 C191.646896,95.6724572 171.988896,94.0664572 163.382896,107.734457 C139.761896,145.246457 130.195896,159.761457 132.823896,310.550457" id="Fill-219" fill="#019DF4"></path>
                            <path d="M204.185196,282.029757 C216.280196,239.403757 216.967196,202.555757 212.234196,166.611757 C208.258196,136.430757 200.133196,115.148757 190.297196,100.113757 C194.671196,101.969757 198.642196,105.221757 201.477196,109.812757 C247.496196,184.368757 225.538196,321.398757 225.538196,321.398757 L190.931196,321.398757 C195.626196,309.314757 200.202196,296.069757 204.185196,282.029757" id="Fill-221" fill="#FFFFFF"></path>
                            <path d="M198.991896,106.497257 C249.175896,184.572257 230.772896,352.333257 230.772896,352.333257 C230.772896,352.333257 147.821896,419.598257 139.600896,340.606257 C133.247896,279.550257 153.648896,148.164257 168.704896,107.064257 C170.418896,102.388257 174.557896,98.9292572 179.513896,98.4412572 C186.484896,97.7542572 193.826896,100.554257 198.991896,106.497257" id="Fill-223" fill="#EFC9AA"></path>
                            <path d="M143.487996,231.575657 L204.785996,166.034657 C204.264996,186.861657 202.756996,232.218657 201.836996,255.736657 C200.861996,280.696657 193.911996,311.840657 168.484996,315.825657 C158.493996,317.391657 149.201996,312.083657 140.230996,304.586657 C140.553996,277.803657 141.699996,253.461657 143.487996,231.575657" id="Fill-225" fill-opacity="0.1" fill="#000000"></path>
                            <path d="M233.349296,315.015357 C233.205296,318.379357 233.047296,321.564357 232.882296,324.553357 C232.870296,324.783357 232.858296,325.011357 232.844296,325.238357 C232.678296,328.211357 232.506296,330.983357 232.334296,333.530357 C231.540296,345.331357 230.773296,352.333357 230.773296,352.333357 C230.773296,352.333357 206.675296,371.865357 183.169296,377.514357 C190.853296,356.596357 201.725296,328.312357 202.650296,324.960357 C217.669296,270.520357 218.522296,223.461357 212.644296,177.556357 C208.300296,143.641357 199.964296,118.531357 189.704296,99.9073572 C190.516296,100.225357 191.312296,100.600357 192.093296,101.013357 C192.170296,101.054357 192.247296,101.092357 192.324296,101.134357 C193.113296,101.563357 193.886296,102.035357 194.634296,102.561357 C194.653296,102.575357 194.670296,102.589357 194.689296,102.602357 C195.365296,103.080357 196.016296,103.612357 196.652296,104.169357 C196.808296,104.307357 196.964296,104.445357 197.118296,104.588357 C197.762296,105.183357 198.390296,105.807357 198.981296,106.486357 C198.985296,106.490357 198.988296,106.493357 198.992296,106.497357 C199.476296,107.251357 199.943296,108.029357 200.414296,108.799357 C201.470296,110.522357 202.505296,112.270357 203.497296,114.071357 C206.576296,119.656357 209.350296,125.616357 211.864296,131.855357 C212.712296,133.961357 213.531296,136.099357 214.319296,138.268357 C214.605296,139.057357 214.888296,139.849357 215.167296,140.645357 C217.153296,146.315357 218.950296,152.171357 220.559296,158.176357 C222.280296,164.592357 223.795296,171.170357 225.128296,177.847357 C226.128296,182.854357 227.025296,187.918357 227.828296,193.010357 C228.630296,198.102357 229.339296,203.224357 229.963296,208.348357 C233.083296,233.968357 234.078296,259.654357 234.067386,282.090357 C234.062296,294.183357 233.763296,305.328357 233.349296,315.015357" id="Fill-227" fill-opacity="0.2" fill="#FFFFFF"></path>
                            <path d="M14.6539958,233.583657 C15.2299958,232.835657 15.7839958,232.102657 16.3319958,231.385657 C16.0769958,231.413657 16.0539958,231.105657 16.4279958,230.193657 C17.6329958,227.270657 20.5649958,221.746657 23.1899958,220.748657 C23.7819958,220.525657 24.8269958,220.145657 26.1929958,219.664657 C24.7579958,219.657657 23.5939958,219.553657 22.9859958,219.290657 C20.0079958,218.013657 20.1749958,215.970657 24.6079958,216.094657 C29.0399958,216.217657 47.3259958,212.973657 49.7699958,212.046657 C58.4019958,207.340657 66.4099958,207.464657 69.5989958,210.994657 C72.7889958,214.521657 63.9609958,216.898657 60.3529958,224.598657 C56.1799958,233.504657 50.1839958,236.160657 46.0909958,242.651657 C40.6509958,251.266657 38.3209958,249.799657 38.7239958,246.293657 C39.1269958,242.788657 43.8199958,236.267657 40.5759958,234.725657 C37.3319958,233.184657 31.6749958,237.527657 24.0549958,240.534657 C16.3639958,243.569657 12.7499958,242.075657 14.5029958,240.346657 C16.3119958,238.561657 20.0029958,236.408657 23.8229958,233.686657 C24.8499958,232.956657 26.3509958,231.511657 28.2109958,229.683657 C27.2159958,230.079657 26.3479958,230.365657 25.6769958,230.496657 C23.0319958,231.013657 18.4159958,236.920657 15.7679958,237.436657 C13.1219958,237.953657 11.2439958,237.999657 14.6539958,233.583657" id="Fill-229" fill="#E05D4F"></path>
                            <path d="M192.633496,166.034657 L176.712496,254.048657 C173.109496,273.970657 153.202496,285.160657 135.847496,277.034657 C118.770496,269.038657 97.2254958,258.149657 75.9414958,245.220657 C66.4134958,239.433657 61.2554958,227.897657 62.8844958,216.294657 L64.1014958,207.620657 L136.248496,221.399657" id="Fill-231" fill="#EFC9AA"></path>
                            <path d="M160.373696,26.6146572 L178.757696,21.0546572 L179.855696,31.1776572 C179.855696,31.1776572 162.363696,37.8826572 158.450696,32.4346572 C158.450696,32.4346572 137.970696,33.6786572 140.140696,21.8846572 C140.140696,21.8846572 156.615696,25.6546572 160.373696,26.6146572" id="Fill-213" fill="#0B2739"></path>
                        </g>
                    </g>
                </g>
            </g>
        </g>
    </g>
</svg>