<?xml version="1.0" encoding="UTF-8"?>
<svg width="208px" height="139px" viewBox="0 0 208 139" version="1.1" xmlns="http://www.w3.org/2000/svg" xmlns:xlink="http://www.w3.org/1999/xlink">
    <!-- Generator: Sketch 64 (93537) - https://sketch.com -->
    <title>Group Copy</title>
    <desc>Created with Sketch.</desc>
    <defs>
        <rect id="path-1" x="0.87962963" y="0" width="233" height="143"></rect>
    </defs>
    <g id="ATC-ESCRITORIO-curva" stroke="none" stroke-width="1" fill="none" fill-rule="evenodd">
        <g id="Home_2" transform="translate(-958.000000, -837.000000)">
            <g id="Group-9" transform="translate(240.000000, 833.000000)">
                <g id="Group-2-Copy" transform="translate(656.000000, 0.000000)">
                    <g id="Group-Copy" transform="translate(36.000000, 0.000000)">
                        <mask id="mask-2" fill="white">
                            <use xlink:href="#path-1"></use>
                        </mask>
                        <g id="Rectangle"></g>
                        <g id="Group-74" mask="url(#mask-2)">
                            <g transform="translate(158.500000, 133.000000) scale(-1, 1) translate(-158.500000, -133.000000) translate(25.000000, 4.000000)">
                                <g id="Group-45" transform="translate(0.000000, 125.000000)">
                                    <path d="M157.750541,129.528829 C157.711131,129.528829 157.670771,129.525524 157.629937,129.51981 C157.154167,129.453619 156.821793,129.013143 156.888268,128.536 L174.493174,1.30028571 C174.553001,0.868380952 174.920512,0.547428571 175.354498,0.547428571 L175.36162,0.547428571 C175.798929,0.551238095 176.165491,0.879333333 176.218196,1.31457143 L191.71775,128.550286 C191.776153,129.027905 191.436656,129.463619 190.959462,129.521714 C190.480843,129.583143 190.048757,129.23981 189.990354,128.761238 L175.299894,8.16457143 L158.610915,128.775524 C158.551088,129.21219 158.177879,129.528829 157.750541,129.528829" id="Fill-151" fill="#7E8080"></path>
                                    <path d="M195.641094,4.58047619 L2.28341007,4.58047619 C1.02228777,4.58047619 1.34952002e-13,3.5552381 1.34952002e-13,2.29 C1.34952002e-13,1.0252381 1.02228777,-6.76707367e-14 2.28341007,-6.76707367e-14 L195.641094,-6.76707367e-14 C196.902216,-6.76707367e-14 197.924978,1.0252381 197.924978,2.29 C197.924978,3.5552381 196.902216,4.58047619 195.641094,4.58047619" id="Fill-153" fill="#909192"></path>
                                </g>
                                <g id="Group-46" transform="translate(75.000000, 75.000000)">
                                    <path d="M85.4380285,46.6877114 L25.4988111,46.6877114 C24.887447,46.6877114 24.392398,47.1830726 24.392398,47.7936559 L24.392398,49.7902114 C24.392398,50.4007948 24.887447,50.8956837 25.4988111,50.8956837 L85.4380285,50.8956837 C86.0493926,50.8956837 86.5449143,50.4007948 86.5449143,49.7902114 L86.5449143,47.7936559 C86.5449143,47.1830726 86.0493926,46.6877114 85.4380285,46.6877114" id="Fill-191" fill="#676767"></path>
                                    <path d="M0.0527295652,1.34710589 L24.2231263,49.8363003 C24.4921643,50.6442726 25.3668926,51.0810781 26.175898,50.8123837 C26.9967241,50.538967 27.4326698,49.6455226 27.1423546,48.8314114 L1.9908437,0.680328113 C1.80313174,0.155689224 1.23053935,-0.123394109 0.701446957,0.0527447799 C0.164316522,0.23124478 -0.125998696,0.810661447 0.0527295652,1.34710589" id="Fill-193" fill="#969696"></path>
                                </g>
                                <g id="Group-41" transform="translate(176.000000, 98.000000)">
                                    <path d="M84.4844762,0.0152457113 C83.2982857,0.138687848 82.3497143,1.05928132 82.0987619,2.22248607 C79.9544762,12.1790439 70.6459048,62.8662843 70.6459048,62.8662843 C69.8806667,66.6573822 67.9830476,69.5046226 66.0144762,71.4208243 C63.1054286,74.2533466 58.9697143,75.626403 54.9049524,75.7166107 L8.28971429,77.2396967 C6.56780952,77.2995187 5.20304762,78.7081834 5.20304762,80.4259282 C5.20304762,82.2020706 6.65780952,83.6354238 8.4392381,83.614759 L60.8497143,83.0144149 C66.6873333,82.8848006 72.2354286,80.2298451 75.7997143,75.6183318 C80.6349524,69.3621893 80.9473333,61.7215959 80.9473333,61.7215959 L87.4754286,3.04527538 C87.6887619,1.32800536 86.2506667,-0.168018384 84.4844762,0.0152457113" id="Fill-175" fill="#000000"></path>
                                </g>
                                <g id="Group-44" transform="translate(49.000000, 0.000000)">
                                    <g id="Group-40" transform="translate(92.115368, 0.000000)">
                                        <path d="M1.54645611,98.3321298 C1.92858549,98.0951187 2.29786619,97.8609632 2.66048461,97.6320428 C2.54294295,97.6020595 2.58482014,97.4616613 2.90365786,97.1175669 C3.92679382,96.0143706 6.15485084,94.0411817 7.491114,94.0340428 C7.79234426,94.0335669 8.3215197,94.0388021 9.01154163,94.0526039 C8.37148681,93.8094058 7.87133988,93.5690632 7.64291882,93.3501372 C6.52841444,92.2845391 6.94433111,91.4021724 8.90018637,92.1969687 C10.8541381,92.9903372 19.5465109,94.5946835 20.7890263,94.5884965 C25.4221666,93.9307669 28.9688794,95.3209465 29.8021403,97.4259669 C30.6354013,99.5305113 26.3058706,99.1164558 23.4125372,101.948215 C20.0685482,105.222585 16.9534561,105.406769 14.0453706,107.616493 C10.1845789,110.5501 9.39129163,109.507822 10.1545986,108.011511 C10.9198092,106.517104 14.0981929,104.392571 12.9089758,103.164206 C11.7207105,101.935841 8.47475216,102.928622 4.57684207,102.998108 C0.64371707,103.068545 -0.717767579,101.800202 0.351052597,101.321421 C1.45556356,100.827409 3.45900654,100.483315 5.61710961,99.9074446 C6.19577628,99.7527687 7.10565347,99.359178 8.23871707,98.8542206 C7.73000435,98.8656428 7.2950526,98.8475576 6.97526312,98.7952058 C5.70942979,98.5838946 2.66762277,100.447145 1.40036181,100.235358 C0.135480228,100.024998 -0.710629421,99.7313521 1.54645611,98.3321298" id="Fill-195" fill="#D6564D"></path>
                                        <path d="M96.3161618,69.5280458 L23.0976969,93.6817624 L23.0139425,95.3627328 C22.713664,101.426981 27.8973943,106.32759 33.9343723,105.686994 L60.2851201,102.890929 L96.3161618,69.5280458 Z" id="Fill-197" fill="#DCB598"></path>
                                        <path d="M72.1537829,156.604215 C72.1537829,156.604215 47.9401995,158.503635 49.4601513,152.961954 C57.3254495,124.287892 65.0508399,83.9398443 65.0508399,83.9398443 L72.1537829,156.604215 Z" id="Fill-199" fill="#EFC9AA"></path>
                                        <path d="M60.2503811,107.485232 C63.1322934,93.9584658 65.0405609,83.9944806 65.0505544,83.9421287 L65.0510302,83.940225 L69.945903,134.014295 L72.1539732,156.604119 L72.1534973,156.604595 C72.1473109,156.604595 60.8309513,157.490769 54.1586772,156.28049 L60.2503811,107.485232 Z" id="Fill-201" fill-opacity="0.1" fill="#000000"></path>
                                        <path d="M60.6374596,33.608298 C64.6452973,24.6656498 61.562089,15.4155535 68.03735,6.16498131 C74.3270188,-2.82097609 87.5939991,-0.895379797 90.1875298,5.01419243 C94.6141394,4.88664428 100.248525,7.09208502 102.724039,16.2631776 C105.34517,25.9768258 102.57033,33.222798 113.823874,39.0814461 C124.565374,44.6735758 121.994685,52.4949424 120.761212,55.1163424 C119.528214,57.7367906 119.990291,57.2751424 123.381868,63.1337906 C126.77392,68.9919628 121.696786,73.2914776 118.602633,73.4632869 C115.827793,73.6179628 113.207613,70.5339628 102.415194,72.0754869 C91.841203,73.5865517 91.9877732,67.1425146 78.1097666,65.2145387 C70.7098763,64.1865387 71.8334223,58.2269943 66.033907,57.1975665 C60.9253653,56.2909276 57.3929289,52.0275832 56.9379903,47.0217943 C56.5425364,42.660885 58.7710693,37.7721739 60.6374596,33.608298" id="Fill-203" fill="#0B2739"></path>
                                        <path d="M68.1454897,14.3058772 C67.3837889,16.0973299 63.3685037,26.0337962 68.1989759,37.0446652 C72.3355601,46.4732405 80.2830359,50.5879543 82.4406309,51.6206189 C84.3680442,50.0373874 86.2954575,48.4546248 88.2228708,46.8713932 L75.1583897,13.0706189 L68.1454897,14.3058772 Z" id="Fill-72" fill-opacity="0.2" fill="#000000"></path>
                                        <path d="M77.5957241,4.13130224 C84.7019982,1.46088187 93.8873798,4.15509854 96.7098074,13.8525652 C97.5525859,16.7442911 97.7829105,19.9758282 97.2494522,22.9508411 C96.7669127,25.6507689 95.3159631,27.963293 94.0025421,30.3257893 C92.2089609,33.5473319 91.3105048,36.7441263 91.4546956,40.4092319 C91.5408294,42.5518504 91.9857745,47.842243 92.2398929,49.9705837 C92.2398929,49.9705837 91.728325,49.5636671 89.9128535,50.9971559 C86.2814346,53.9597948 82.025189,52.1755485 82.025189,52.1755485 C82.025189,52.1755485 81.4227285,52.0575189 81.5179039,49.09488 C81.7096824,46.1322411 82.0075815,39.2170374 78.9738644,39.3817078 C77.530053,39.4602356 75.8502065,39.8195596 74.4796802,39.181343 C71.2208732,37.7026411 69.7770618,34.362593 69.1974434,30.9706689 C68.3132636,26.3708448 68.1823973,21.6434726 68.7596364,17.0845782 C69.2930947,12.8240893 70.0906649,8.42129854 73.9271868,5.9222115 C75.0559675,5.14740409 76.3260837,4.63959113 77.5957241,4.13130224" id="Fill-205" fill="#E05D4F"></path>
                                        <path d="M84.7912728,9.57756057 C84.2888744,11.3690133 82.8365521,21.3347499 86.0226082,32.3456189 C88.7509936,41.7741942 93.915594,47.5183119 95.3386886,48.5509766 C96.6099612,46.967745 97.8967736,43.6953655 99.1680462,42.112134 L90.5510481,8.31135965 L84.7912728,9.57756057 Z" id="Fill-72-Copy" fill-opacity="0.2" fill="#000000"></path>
                                        <path d="M89.8857761,18.2045746 L89.8981489,18.150795 C91.1982454,17.6196617 92.7105831,17.5430376 93.6242673,18.8461228 C94.6121883,20.2529598 94.0197212,22.0867024 92.8024274,23.3183987 C92.3574822,23.7691006 91.6389076,24.3273617 91.0726138,24.7314228 L89.8857761,18.2045746 Z" id="Fill-207" fill="#E05D4F"></path>
                                        <path d="M89.8974351,18.150795 L89.3025886,20.2662858 C89.3025886,20.2662858 90.4984679,21.0734561 90.4984679,20.958758 C90.4984679,20.8440598 90.6988122,18.5229691 90.6988122,18.5229691 L89.8974351,18.150795 Z" id="Fill-209" fill="#E05D4F"></path>
                                        <path d="M82.2755004,47.7257363 L81.5883337,47.8099752 C81.6949302,45.3470585 81.6559083,41.810453 80.537121,40.2189567 C80.4890574,40.1451882 80.4390903,40.0752271 80.3853162,40.0100252 C80.3615223,39.9819456 80.3363008,39.9548178 80.3106035,39.9281659 C80.2101934,39.818703 80.1007416,39.7249456 79.9817723,39.6468937 C79.9698754,39.6397548 79.9594061,39.6311882 79.9475092,39.6240493 C79.8223535,39.5464734 79.6876802,39.4865067 79.5401583,39.4465289 C79.5235026,39.4417696 79.5077986,39.4341548 79.4906671,39.4298715 C79.3341035,39.3932252 79.1689741,39.3727604 78.9862372,39.3822789 C78.9819544,39.3827548 78.9781473,39.381803 78.9743403,39.381803 C78.9743403,39.381803 80.9259127,39.2585382 87.5953315,33.7254234 L82.2755004,47.7257363 Z" id="Fill-211" fill-opacity="0.1" fill="#000000"></path>
                                        <path d="M87.4766478,31.7014532 C86.526321,27.1606439 85.716378,20.214505 85.278571,15.286768 C85.1053517,13.3311884 84.9449811,11.4403346 84.7912728,9.57756057 L96.229457,6.51926057 C98.8810447,8.14502354 101.314681,11.2299754 102.724229,16.6698087 C103.9696,21.4776124 103.998628,25.7043106 104.891374,29.4722161 C105.570926,34.5146513 106.738729,38.8669939 111.313812,42.7200902 C109.702492,47.0153217 107.180819,50.2068809 103.435665,51.0492698 C95.9172815,52.7411865 89.8855381,43.2150532 87.4766478,31.7014532" id="Fill-215" fill="#0B2739"></path>
                                        <path d="M93.9130772,7.11388243 L90.1874346,5.01409724 L85.1417087,2.34034539 L71.8057263,4.31258243 L68.4093908,11.8897991 C68.4093908,11.8897991 76.9946912,13.965788 77.150303,13.965788 C77.3063908,13.965788 87.1142197,11.7341713 87.1142197,11.7341713 L93.9130772,7.11388243 Z" id="Fill-217" fill="#0B2739"></path>
                                        <path d="M63.2078627,147.799014 L106.587876,147.799014 C106.587876,147.799014 116.86492,85.7568343 95.3267179,52.0003602 C91.2003868,45.5330028 81.8455929,44.7686658 77.7501938,51.2736213 C66.5094986,69.1265546 61.9572574,76.0346195 63.2078627,147.799014" id="Fill-219" fill="#019DF4"></path>
                                        <path d="M97.1670778,134.225273 C102.922812,113.938455 103.24974,96.4015363 100.997413,79.2948548 C99.1053256,64.9309345 95.2388234,54.8022789 90.5580954,47.6467326 C92.6395822,48.5300511 94.5292905,50.0777622 95.8784024,52.2627382 C117.777795,87.7458715 107.328484,152.962001 107.328484,152.962001 L90.8598015,152.962001 C93.0940449,147.210912 95.271659,140.907273 97.1670778,134.225273" id="Fill-221" fill="#FFFFFF"></path>
                                        <path d="M94.6957048,50.6848058 C118.577126,87.8427224 109.819558,167.684532 109.819558,167.684532 C109.819558,167.684532 70.3450688,199.697689 66.4328824,162.103348 C63.4096346,133.045215 73.1180052,70.5152113 80.2828122,50.9546558 C81.0984658,48.7292261 83.0681215,47.0829984 85.4265688,46.8507465 C88.7439087,46.5237854 92.2377991,47.856378 94.6957048,50.6848058" id="Fill-223" fill="#EFC9AA"></path>
                                        <path d="M68.2826647,110.212859 L97.4529848,79.020198 C97.2050528,88.9323072 96.48743,110.518879 96.049623,121.711705 C95.5856427,133.590816 92.2782962,148.413054 80.1781669,150.309618 C75.4236778,151.054918 71.0018269,148.528704 66.7327326,144.960687 C66.886441,132.213963 67.4317962,120.628974 68.2826647,110.212859" id="Fill-225" fill-opacity="0.1" fill="#000000"></path>
                                        <path d="M111.045608,149.923976 C110.977082,151.52499 110.901893,153.040814 110.823373,154.463357 C110.817663,154.57282 110.811952,154.681331 110.80529,154.789366 C110.726294,156.204294 110.644443,157.523561 110.562593,158.735744 C110.184746,164.352146 109.819748,167.684579 109.819748,167.684579 C109.819748,167.684579 98.3520596,176.980364 87.1660903,179.66887 C90.8227307,169.713451 95.9964675,156.252363 96.4366539,154.657059 C103.583853,128.747651 103.989777,106.351053 101.192571,84.5036737 C99.1253601,68.3626459 95.1584478,56.4121459 90.2759478,47.5485015 C90.6623601,47.6998459 91.0411583,47.8783182 91.4128184,48.0748756 C91.4494609,48.0943885 91.4861035,48.1124737 91.522746,48.1324626 C91.8982131,48.3366348 92.2660662,48.5612719 92.6220223,48.8116089 C92.631064,48.8182719 92.6391539,48.8249348 92.6481956,48.8311219 C92.9698886,49.0586145 93.2796846,49.3118071 93.5823425,49.5768978 C93.6565794,49.6425756 93.7308162,49.7082534 93.8041013,49.7763108 C94.1105662,50.0594867 94.4094171,50.3564645 94.6906605,50.6796182 C94.692564,50.6815219 94.6939916,50.6829496 94.6958951,50.6848534 C94.9262197,51.0437015 95.1484544,51.4139719 95.3725925,51.7804348 C95.8751188,52.6004552 96.3676517,53.4323737 96.8397219,54.2895163 C98.3049478,56.9475626 99.6250311,59.7840811 100.821386,62.753383 C101.22493,63.755683 101.614674,64.7732126 101.989665,65.8054959 C102.125766,66.1810015 102.260439,66.5579348 102.393209,66.9367719 C103.338301,69.6352719 104.193452,72.4222941 104.959139,75.2802293 C105.778123,78.33377 106.499077,81.4644108 107.133421,84.6421682 C107.609299,87.0251293 108.03616,89.4352182 108.41829,91.858633 C108.799943,94.2820478 109.13734,96.7197404 109.434288,99.1583848 C110.919025,111.351607 111.392522,123.57624 111.387331,134.254114 C111.384908,140.009487 111.242621,145.313681 111.045608,149.923976" id="Fill-227" fill-opacity="0.2" fill="#FFFFFF"></path>
                                        <path d="M6.97350238,111.168518 C7.24760764,110.812526 7.51124361,110.463672 7.77202431,110.122433 C7.65067562,110.135759 7.63973045,109.989174 7.81770852,109.555129 C8.39114054,108.163998 9.78641246,105.534983 11.0355901,105.060009 C11.3173094,104.953878 11.8146011,104.773026 12.4646493,104.544105 C11.7817655,104.540774 11.2278445,104.491278 10.9385111,104.366109 C9.52134887,103.758352 9.60082036,102.786035 11.710384,102.84505 C13.8194717,102.903589 22.521362,101.359685 23.6844059,100.918502 C27.7921778,98.6787943 31.6030024,98.7378091 33.1205747,100.417828 C34.638623,102.096418 30.4375791,103.227694 28.7206142,106.892324 C26.7347787,111.13092 23.881419,112.394979 21.9336537,115.484215 C19.3448818,119.584316 18.2360879,118.886133 18.4278664,117.217537 C18.6196449,115.549416 20.8529366,112.445904 19.309191,111.712026 C17.7654454,110.978624 15.0734081,113.04557 11.4472239,114.476679 C7.78725238,115.921115 6.0674322,115.210081 6.90164492,114.387205 C7.76250676,113.537678 9.51896948,112.513009 11.3368204,111.217539 C11.8255462,110.870113 12.5398379,110.1824 13.4249695,109.312407 C12.9514717,109.500874 12.5384103,109.636989 12.2190967,109.699335 C10.9604015,109.945389 8.76375238,112.756683 7.50362957,113.002261 C6.24445852,113.248315 5.35076115,113.270207 6.97350238,111.168518" id="Fill-229" fill="#E05D4F"></path>
                                        <path d="M91.6698872,79.020198 L84.0934465,120.908342 C82.3788609,130.389739 72.9055736,135.71535 64.646725,131.847976 C56.5201701,128.042472 46.267396,122.860115 36.1388258,116.706868 C31.6046679,113.952685 29.1500934,108.462404 29.9252973,102.940235 L30.5044399,98.8120535 L64.8375517,105.369837" id="Fill-231" fill="#EFC9AA"></path>
                                        <path d="M76.3181842,12.6666054 L85.0667105,10.0204572 L85.5892236,14.8382554 C85.5892236,14.8382554 77.2651798,18.0293387 75.4030723,15.4364943 C75.4030723,15.4364943 65.6571074,16.0285461 66.6897609,10.4154758 C66.6897609,10.4154758 74.5298377,12.2097165 76.3181842,12.6666054" id="Fill-213" fill="#0B2739"></path>
                                    </g>
                                </g>
                            </g>
                        </g>
                    </g>
                </g>
            </g>
        </g>
    </g>
</svg>