<?xml version="1.0" encoding="UTF-8"?>
<svg width="62px" height="63px" viewBox="0 0 62 63" version="1.1" xmlns="http://www.w3.org/2000/svg" xmlns:xlink="http://www.w3.org/1999/xlink">
    <!-- Generator: Sketch 64 (93537) - https://sketch.com -->
    <title>Group 26</title>
    <desc>Created with Sketch.</desc>
    <g id="ATC-ESCRITORIO-curva" stroke="none" stroke-width="1" fill="none" fill-rule="evenodd">
        <g id="Manejo-de-datos" transform="translate(-272.000000, -1727.000000)" fill="#49A0DF">
            <g id="Group-14" transform="translate(239.000000, 617.000000)">
                <g id="Group-13" transform="translate(0.000000, 1081.000000)">
                    <g id="Group-26" transform="translate(33.000000, 29.000000)">
                        <path d="M30.9897577,2.44955252 C15.2225469,2.44955252 2.39492597,15.4589316 2.39492597,31.4496897 C2.39492597,47.4403106 15.2225469,60.4495525 30.9897577,60.4495525 C46.7571037,60.4495525 59.5847246,47.4403106 59.5847246,31.4496897 C59.5847246,15.4589316 46.7571037,2.44955252 30.9897577,2.44955252 M30.9897553,62.8784389 C22.7119856,62.8784389 14.9299359,59.6093249 9.07674402,53.6731974 C3.22341219,47.73707 -2.79909707e-05,39.8446124 -2.79909707e-05,31.4496945 C-2.79909707e-05,23.0546346 3.22341219,15.162177 9.07674402,9.2259076 C14.9299359,3.28978018 22.7119856,0.0206661602 30.9897553,0.0206661602 C39.2673851,0.0206661602 47.0497147,3.28978018 52.9029065,9.2259076 C58.7560984,15.162177 61.9796786,23.0546346 61.9796786,31.4496945 C61.9796786,39.8446124 58.7560984,47.73707 52.9029065,53.6731974 C47.0497147,59.6093249 39.2673851,62.8784389 30.9897553,62.8784389" id="Fill-17"></path>
                        <path d="M30.504994,32 L30.495006,32 C30.2216007,32 30,31.7668975 30,31.4794896 L30,19.5206522 C30,19.2331025 30.2216007,19 30.495006,19 L30.504994,19 C30.7783993,19 31,19.2331025 31,19.5206522 L31,31.4794896 C31,31.7668975 30.7783993,32 30.504994,32" id="Fill-20"></path>
                        <path d="M31.0936903,32.168633 L31.100889,32.1596337 C31.2978453,31.9124537 31.740853,31.9573001 32.0904217,32.2596756 L46.6299151,44.8363081 C46.9794837,45.1388336 47.1033013,45.5842975 46.906345,45.8313276 L46.8990023,45.8404768 C46.702046,46.0875068 46.2588943,46.0426605 45.9094696,45.7404349 L31.3699762,33.1636525 C31.0204076,32.861277 30.896734,32.415663 31.0936903,32.168633" id="Fill-22"></path>
                        <path d="M32,32.5 C32,33.3283873 31.3284952,34 30.4999304,34 C29.6715048,34 29,33.3283873 29,32.5 C29,31.6716127 29.6715048,31 30.4999304,31 C31.3284952,31 32,31.6716127 32,32.5" id="Fill-24"></path>
                    </g>
                </g>
            </g>
        </g>
    </g>
</svg>