<?xml version="1.0" encoding="utf-8"?>
<!-- Generator: Adobe Illustrator 24.1.0, SVG Export Plug-In . SVG Version: 6.00 Build 0)  -->
<svg version="1.1" id="Capa_1" xmlns="http://www.w3.org/2000/svg" xmlns:xlink="http://www.w3.org/1999/xlink" x="0px" y="0px"
	 viewBox="0 0 44 26" style="enable-background:new 0 0 44 26;" xml:space="preserve">
<style type="text/css">
	.st0{filter:url(#filter-1);}
	.st1{fill:#86888C;}
</style>
<filter  filterUnits="objectBoundingBox" height="154.7%" id="filter-1" width="110.9%" x="-5.5%" y="-24.2%">
	<feOffset  dx="0" dy="2" in="SourceAlpha" result="shadowOffsetOuter1"></feOffset>
	<feGaussianBlur  in="shadowOffsetOuter1" result="shadowBlurOuter1" stdDeviation="2.5"></feGaussianBlur>
	
		<feColorMatrix  in="shadowBlurOuter1" result="shadowMatrixOuter1" type="matrix" values="0 0 0 0 0   0 0 0 0 0   0 0 0 0 0  0 0 0 0.2 0">
		</feColorMatrix>
	<feMerge>
		<feMergeNode  in="shadowMatrixOuter1"></feMergeNode>
		<feMergeNode  in="SourceGraphic"></feMergeNode>
	</feMerge>
</filter>
<desc>Created with Sketch.</desc>
<g id="Symbols">
	<g id="Movistar_x2F_Header_x2F_Responsive" transform="translate(-266.000000, -17.000000)">
		<g id="Cabecera" class="st0">
		</g>
	</g>
</g>
<g id="Menu-ICON" transform="translate(272.000000, 20.000000)">
	<g id="Group">
		<g id="Path-3">
			<path class="st1" d="M-234-1h-32c-0.6,0-1-0.4-1-1s0.4-1,1-1h32c0.6,0,1,0.4,1,1S-233.4-1-234-1z"/>
		</g>
		<g id="Path-3_8_">
			<path class="st1" d="M-234-15h-32c-0.6,0-1-0.4-1-1c0-0.6,0.4-1,1-1h32c0.6,0,1,0.4,1,1C-233-15.4-233.4-15-234-15z"/>
		</g>
		<g id="Path-3_7_">
			<path class="st1" d="M-234-8h-32c-0.6,0-1-0.4-1-1s0.4-1,1-1h32c0.6,0,1,0.4,1,1S-233.4-8-234-8z"/>
		</g>
	</g>
</g>
</svg>
