<?xml version="1.0" encoding="UTF-8"?>
<svg width="155px" height="155px" viewBox="0 0 155 155" version="1.1" xmlns="http://www.w3.org/2000/svg" xmlns:xlink="http://www.w3.org/1999/xlink">
    <!-- Generator: Sketch 64 (93537) - https://sketch.com -->
    <title>Fill 1</title>
    <desc>Created with Sketch.</desc>
    <g id="ATC-ESCRITORIO-curva" stroke="none" stroke-width="1" fill="none" fill-rule="evenodd">
        <g id="Politica-de-Privacidad" transform="translate(-279.000000, -640.000000)" fill="#019DF4">
            <g id="Group-2-Copy-6" transform="translate(240.000000, 618.000000)">
                <path d="M189.9768,74.9209613 C203.551739,115.501372 181.659323,159.402183 141.079235,172.9768 C100.498824,186.551739 56.5973666,164.659323 43.0230733,124.079235 C29.4484569,83.498824 51.3405504,39.5973666 91.9209613,26.0230733 C132.501049,12.4484569 176.40186,34.3405504 189.9768,74.9209613" id="Fill-1"></path>
            </g>
        </g>
    </g>
</svg>