<?xml version="1.0" encoding="UTF-8"?>
<svg width="62px" height="60px" viewBox="0 0 62 60" version="1.1" xmlns="http://www.w3.org/2000/svg" xmlns:xlink="http://www.w3.org/1999/xlink">
    <!-- Generator: Sketch 64 (93537) - https://sketch.com -->
    <title>Group</title>
    <desc>Created with Sketch.</desc>
    <g id="ATC-ESCRITORIO-curva" stroke="none" stroke-width="1" fill="none" fill-rule="evenodd">
        <g id="T&amp;C" transform="translate(-275.000000, -1077.000000)">
            <g id="Group-13" transform="translate(240.000000, 511.000000)">
                <g id="Group-12" transform="translate(0.000000, 534.000000)">
                    <g id="Group" transform="translate(35.000000, 32.000000)">
                        <g id="Group-3" transform="translate(12.976744, 0.000000)">
                            <polygon id="Clip-2" points="0.6696 0.639941176 48.3936434 0.639941176 48.3936434 46.4960756 0.6696 46.4960756"></polygon>
                            <path d="M3.08135194,31.9178403 L26.9479876,8.96666387 C27.721786,8.22162185 27.721786,7.00884874 26.9479876,6.26380672 L23.3279566,2.78170588 L46.1641426,2.78170588 L46.1641426,24.7428824 L42.5085457,21.2284286 C42.1403907,20.8716218 41.6299721,20.6673361 41.1080186,20.6673361 L41.1003287,20.6673361 C40.577414,20.6673361 40.0660341,20.8716218 39.6988403,21.2275042 L15.8331659,44.1777563 C15.5851659,44.4125462 15.1824062,44.4116218 14.9363287,44.1786807 L3.08135194,32.7784286 C2.9611969,32.6638067 2.89583256,32.5103613 2.89583256,32.3476723 C2.89583256,32.1859076 2.9611969,32.0324622 3.08135194,31.9178403 M46.4063752,0.639941176 L22.7464062,0.639941176 C22.2158016,0.639941176 21.7169178,0.838680672 21.3410729,1.20010924 C20.9652279,1.56061345 20.7585612,2.04128571 20.7585612,2.55061345 C20.7585612,3.06086555 20.9652279,3.54153782 21.3410729,3.90204202 L25.2023752,7.61338655 L1.50587907,30.4009496 C0.39084031,31.4750672 0.39084031,33.2193529 1.50587907,34.2916218 L13.3618171,45.6946471 C13.8904992,46.2048992 14.6239256,46.4960756 15.3746543,46.4960756 L15.3948403,46.4960756 C16.1446078,46.4960756 16.8780341,46.2048992 17.4067163,45.6946471 L41.1041736,22.9052353 L45.0010419,26.6535546 C45.3768868,27.0140588 45.8757705,27.2127983 46.4063752,27.2127983 C47.5021891,27.2127983 48.3942202,26.3549832 48.3942202,25.3021261 L48.3942202,2.55061345 C48.3942202,1.4977563 47.5021891,0.639941176 46.4063752,0.639941176" id="Fill-1" fill="#49A0DF"></path>
                        </g>
                        <g id="Group-6" transform="translate(0.000000, 42.857143)">
                            <polygon id="Clip-5" points="0 0.660016108 18.0135081 0.660016108 18.0135081 17.1346466 0 17.1346466"></polygon>
                            <path d="M17.6901709,0.98156391 C17.4780656,0.780360902 17.1939432,0.666676692 16.888117,0.662165414 C16.5990619,0.642315789 16.2932357,0.761413534 16.0702786,0.959007519 L0.336014198,15.3490827 C0.121935863,15.5439699 -0.000394614443,15.8137444 -0.000394614443,16.0898346 C0.000591921665,16.6663759 0.513590698,17.1346466 1.14398727,17.1346466 C1.44981346,17.1346466 1.73689547,17.0254737 1.95196034,16.8278797 L17.6901709,2.43419549 C18.1212871,2.02637594 18.1212871,1.3884812 17.6901709,0.98156391" id="Fill-4" fill="#49A0DF"></path>
                        </g>
                        <g id="Group-9" transform="translate(15.860465, 50.000000)">
                            <polygon id="Clip-8" points="0.329032558 0.10267279 10.6169931 0.10267279 10.6169931 10 0.329032558 10"></polygon>
                            <path d="M9.4415907,0.103 C9.1436062,0.118454545 8.87157519,0.242090909 8.64087752,0.483 C7.82574574,1.28209091 3.6087845,5.40845455 0.654893023,8.20209091 C0.447265116,8.39754545 0.329032558,8.66936364 0.329032558,8.94663636 C0.329032558,9.52754545 0.828877519,10.0002727 1.44214884,10.0002727 C1.73917209,10.0002727 2.01793178,9.89118182 2.22940465,9.69209091 C5.49666047,6.59936364 10.2374977,1.95118182 10.2730636,1.91572727 C10.2932496,1.89845455 10.3124744,1.87845455 10.3326605,1.85845455 C10.5316372,1.64754545 10.6316062,1.37754545 10.6152651,1.09663636 C10.598924,0.814818182 10.4672341,0.557545455 10.2461488,0.370272727 C10.0241023,0.183 9.74053643,0.0966363636 9.4415907,0.103" id="Fill-7" fill="#49A0DF"></path>
                        </g>
                        <path d="M1.09937664,45.7142857 L1.10032519,45.7142857 C1.39248051,45.7133619 1.66661325,45.6015788 1.87244994,45.4001846 C5.12789483,42.2296105 9.78530578,37.5264075 9.82799081,37.48114 C10.1903393,37.070037 10.1799052,36.4584635 9.80427691,36.0602941 C9.6050801,35.8496616 9.33474159,35.7267926 9.04163772,35.7147828 C8.73715118,35.7064684 8.46681266,35.8025464 8.25054185,35.9956262 L8.20311404,36.0427414 C7.39873838,36.8547853 3.23742232,41.047112 0.321560553,43.8860322 C0.1147753,44.0892741 0,44.3581078 0,44.6435703 C0,45.2338957 0.493249225,45.7142857 1.09937664,45.7142857" id="Fill-10" fill="#49A0DF"></path>
                    </g>
                </g>
            </g>
        </g>
    </g>
</svg>