<?xml version="1.0" encoding="UTF-8"?>
<svg width="32px" height="25px" viewBox="0 0 32 25" version="1.1" xmlns="http://www.w3.org/2000/svg" xmlns:xlink="http://www.w3.org/1999/xlink">
    <!-- Generator: Sketch 64 (93537) - https://sketch.com -->
    <title>Fill 1</title>
    <desc>Created with Sketch.</desc>
    <g id="ATC-ESCRITORIO-curva" stroke="none" stroke-width="1" fill="none" fill-rule="evenodd">
        <g id="T&amp;C" transform="translate(-255.000000, -460.000000)" fill="#FFFFFF">
            <g id="Group-12" transform="translate(240.000000, 447.000000)">
                <g id="movistar" transform="translate(15.000000, 13.000000)">
                    <path d="M32,12.7298545 C31.9758852,14.4236012 31.862404,16.2022511 31.4708937,17.9506812 C31.3531569,18.4759297 31.1063352,18.9364216 30.7531249,19.3249616 C30.2921073,19.8243075 29.7161901,20.0559925 29.0452322,19.8876251 C28.3799485,19.7178187 28.0409233,19.2155948 27.9004902,18.5709062 C27.7047351,17.6945326 27.8664459,16.8124028 27.9572308,15.9374683 C28.0919898,14.609237 28.2054711,13.2824448 28.1487304,11.9470184 C28.1189416,11.2462073 28.0338307,10.5338839 27.5217466,10.0100744 C26.8351851,9.30926334 25.8847797,9.39560556 25.0549482,10.1841979 C24.3002979,10.8965213 23.7924694,11.7815291 23.3697517,12.7298545 C22.5158054,14.6509691 21.9398881,16.6713772 21.3256709,18.6730778 C20.9937383,19.7552337 20.6178317,20.8172431 19.867437,21.6792263 C17.2460204,24.6695454 12.3946974,24.3472011 10.2257872,20.9712201 C9.01295645,19.0860814 7.9831142,17.090137 6.86532399,15.1459978 C6.62133933,14.727238 6.36033248,14.3171125 6.02839985,13.9573532 C5.66525989,13.5745693 5.26382,13.3975678 4.73613224,13.5342763 C4.17865565,13.67818 3.98290051,14.1113302 3.89069701,14.6063589 C3.75168249,15.3560973 3.84956006,16.0986404 3.99566715,16.8397445 C4.31341462,18.4644174 4.93046886,20.0027481 5.32056062,21.6015183 C5.44255296,22.0965471 5.51915279,22.5930149 5.48652694,23.1053121 C5.4468085,23.6895612 5.20707938,24.1730776 4.66236944,24.4033236 C4.03964113,24.6695454 3.4225869,24.6062278 2.88638804,24.1644434 C2.36721137,23.7370494 2.08208975,23.1297757 1.85370876,22.521063 C0.684851995,19.4127429 -0.149235114,16.2295928 0.0224052603,12.862246 C0.134467984,10.653324 0.521722714,8.49620737 1.53737981,6.50889713 C2.36295582,4.88998038 3.5417422,3.67831113 5.42269374,3.39338179 C6.7007762,3.19911178 7.83984414,3.51282187 8.83138647,4.37048798 C9.98889511,5.37205781 10.7974489,6.64992276 11.625862,7.91627542 C12.2514273,8.86316183 12.7564188,9.89926855 13.4912099,10.768447 C14.1990491,11.6088446 15.0430658,12.2391429 16.1934819,12.1988499 C17.4729828,12.1542397 18.2588404,11.3742816 18.7496468,10.2532717 C19.6021746,8.29905929 20.3015027,6.28009023 21.1951675,4.33739013 C21.8831475,2.84223057 22.8775269,1.62624422 24.3939199,0.972921372 C26.6692188,-0.00274578757 28.7487625,0.78440751 29.9729414,3.04369577 C30.9715763,4.89429749 31.4595456,6.91470559 31.7432487,8.99123614 C31.906378,10.2043444 31.9673741,11.4188917 32,12.7298545" id="Fill-1"></path>
                </g>
            </g>
        </g>
    </g>
</svg>