<?xml version="1.0" encoding="UTF-8"?>
<svg width="535px" height="254px" viewBox="0 0 535 254" version="1.1" xmlns="http://www.w3.org/2000/svg" xmlns:xlink="http://www.w3.org/1999/xlink">
    <!-- Generator: Sketch 64 (93537) - https://sketch.com -->
    <title>Group 6</title>
    <desc>Created with Sketch.</desc>
    <defs>
        <polygon id="path-1" points="0.0909905192 0 70.3356714 0 70.3356714 3 0.0909905192 3"></polygon>
    </defs>
    <g id="ATC-ESCRITORIO-curva" stroke="none" stroke-width="1" fill="none" fill-rule="evenodd">
        <g id="TC_info" transform="translate(-453.000000, -198.000000)">
            <g id="Group-6" transform="translate(455.000000, 198.000000)">
                <path d="M30.2926913,129.710439 C22.0237022,163.282067 18.8248669,198.268074 25.9022899,239.928677 C26.6437054,244.287408 27.4499974,248.578505 28.3082767,252.787885 C28.3930707,253.203752 85.444095,253.46559 85.1599015,252.359101 C82.4518297,241.815398 80.4694595,231.73222 80.1145504,223.154782 C79.0189493,196.782182 89.4791406,193.333641 96.4286102,191.815965 C108.112356,189.265316 117.908789,202.010616 127.217399,217.98197 C132.552717,227.141708 139.716377,239.698272 147.441178,253.134344 C148.111677,254.300572 338.445407,252 350.729518,253.415166 C359.442881,225.799378 366.815732,203.034778 377.398305,179.82553 C392.576778,146.547902 412.825405,128.733087 429.875197,134.168116 C445.701434,139.221738 449.651996,154.589201 449.843926,177.187476 C450.011865,197.17948 447.684712,219.221538 445.87737,235.407433 C445.41838,239.517491 444.696894,246.543251 444.472512,252.640157 C444.376319,255.253924 497,252.640157 501.18643,253.156533 C502.080651,248.981122 502.819666,244.633534 503.320454,241.088786 C507.894789,208.788509 509.086355,187.072234 507.023106,154.017093 C504.607986,115.37595 496.994758,80.1277263 483.719591,49.6311797 C471.012218,20.4616062 450.603649,1.76479166 424.437177,0.119980518 C395.463727,-1.70758742 362.227828,17.3865245 344.778182,54.4384779 C328.704035,88.5981064 315.844717,123.655627 308.047556,141.549901 C300.130439,159.698445 288.502673,170.886339 270.629181,172.753637 C248.765142,175.034124 229.939997,159.269364 216.137022,136.798224 C204.109402,117.195572 180.278079,79.881402 167.522724,67.3426967 C155.543086,55.5747484 141.860068,40.8270698 113.366443,41.2799888 C90.8466427,41.6296105 49.2777785,52.6665316 30.2926913,129.710439 Z" id="Fill-1" fill="#019DF4" opacity="0.133975074"></path>
                <g id="Group-292" transform="translate(4.861314, 51.000000)">
                    <path d="M181.196494,108 C172.213558,125.911485 160.953912,174.857319 157.881363,177.539055 C154.808814,180.220791 137.065101,190.613657 133.992552,195.641442 C130.923278,200.6703 132.28843,198.994014 133.653583,199.3297 C135.018736,199.66485 212.138686,200 212.138686,200 C212.138686,200 203.267103,148.037817 202.243647,147.702667 C201.220738,147.36698 181.196494,108 181.196494,108" id="Fill-40" fill="#019DF4"></path>
                    <path d="M169.138686,199.786508 C183.176153,199.884135 197.985456,199.960306 206.138686,200 L194.974916,133.792828 C189.02361,122.344726 181.795826,108 181.795826,108 C180.671877,110.25883 179.514934,113.01116 178.342306,116.101965 C177.184822,165.828955 184.406656,179.767081 178.980544,188.627532 C174.748156,195.541881 170.885189,198.634832 169.138686,199.786508" id="Fill-42" fill-opacity="0.1" fill="#000000"></path>
                    <path d="M228.477144,85 C241.264935,96.9298227 269.73566,108.243355 269.73566,108.243355 C269.73566,108.243355 274.058754,148.62774 271.108019,171.494381 C268.157284,194.360472 269.797247,199 269.797247,199 L211.095385,199 C211.095385,199 203.215494,187.952481 188.793735,153.599372 C179.612337,131.726837 181.252301,107.202986 181.252301,107.202986 L216.9974,90.964636 L228.477144,85" id="Fill-44" fill="#019DF4"></path>
                    <path d="M211.222248,199 L269.801955,199 C269.801955,199 268.165404,194.391996 271.109999,171.681278 C273.535728,152.980136 271.036031,122.482745 270.080968,112.295797 L264.750349,110 C251.378929,113.875559 243.668268,133.9393 241.402442,153.546837 C239.885546,166.6663 218.275352,179.581182 204.138686,186.691751 C208.78401,195.595416 211.222248,199 211.222248,199" id="Fill-46" fill-opacity="0.1" fill="#000000"></path>
                    <path d="M269.393741,109.2726 C281.312229,111.93334 283.526162,135.865401 287.401093,161.105393 C287.848473,164.010525 290.136788,188.599525 290.136788,188.599525 C290.136788,188.599525 290.365401,193.107265 285.804632,195.360324 C281.911106,197.285725 280.333241,198.741265 257.765668,198.966192 C236.093403,199.182468 208.146868,198.290328 208.146868,198.290328 C208.146868,198.290328 207.89966,190.3173 210.122891,186.421082 C213.466762,180.562155 247.73679,172.147923 250.929711,171.697528 C251.383108,165.387665 247.779997,142.556451 252.750955,127.07647 C256.172489,116.427562 259.8467,110.850336 264.45341,109.392633 C265.988068,108.906011 267.627735,108.878436 269.393741,109.2726" id="Fill-48" fill="#019DF4"></path>
                    <path d="M221.138686,198.764793 C231.79354,198.924371 246.4171,199.077413 258.399038,198.956504 C280.906557,198.729936 282.47964,197.263779 286.363256,195.324334 C290.911233,193.054841 291.138686,189.195558 291.138686,189.195558 C291.138686,189.195558 288.841789,162.840132 288.410337,159.91163 C285.910531,142.886344 283.206182,123.40421 276.918215,114 C282.830911,131.300871 283.782179,145.89872 283.887451,152.1337 C283.942542,155.291493 283.649634,159.614804 282.726184,162.635894 C281.704008,165.984309 279.089658,168.083877 274.997134,166.948858 C266.812085,164.678819 256.582138,169.446008 256.582138,169.446008 C256.582138,169.446008 264.311189,166.721745 271.584788,169.218896 C278.861659,171.716047 293.867036,188.287652 277.497484,194.416428 C272.48751,196.29215 242.484939,197.821485 221.138686,198.764793" id="Fill-50" fill="#000000" opacity="0.1"></path>
                    <path d="M212.843923,187.16047 C212.843923,187.16047 215.805448,182 221.879371,182 C227.953295,182 227.510799,192.169628 226.619943,195.508338 C225.731752,198.848141 222.17739,199 222.17739,199 L209.138686,198.392565 L212.843923,187.16047" id="Fill-52" fill="#000000" opacity="0.1"></path>
                    <path d="M196.826529,43 C190.085769,58.8857088 198.17842,73.6012908 197.931724,72.9810686 C197.688664,72.360297 208.138686,46.159892 208.138686,46.159892 L196.826529,43" id="Fill-54" fill="#0B2739"></path>
                    <path d="M223.118191,56 L232.035608,89.1464201 C232.286322,90.0821156 232.07243,91.0783917 231.47299,91.8312438 C229.379011,94.451081 226.401304,99.8405548 220.394448,101.569857 C219.226433,101.905804 217.789835,101.996124 216.625069,102 C215.399114,102.004936 214.344272,101.127618 214.111969,99.9055413 L208.138686,68.4669444 L223.118191,56" id="Fill-56" fill="#F09959"></path>
                    <path d="M221.026312,58 L217.863143,59.3380682 L208.138686,67.5492619 L213.358598,95 C222.213157,89.3038539 223.504074,85.4599587 221.026312,58" id="Fill-58" fill="#E38540"></path>
                    <path d="M223.846393,69.5659694 C221.814107,80.268275 213.5449,87.5062099 205.382274,85.7326726 C197.216859,83.9596758 193.323038,77.032556 194.281148,63.1431806 C195.033909,52.2473589 200.578334,40.4039569 208.74375,42.1774942 C216.909165,43.9504909 225.881469,58.8636638 223.846393,69.5659694" id="Fill-60" fill="#F09959"></path>
                    <path d="M194.192722,70.3799804 C193.858409,83.4713663 198.38288,85.6853666 201.547045,87.4627348 C204.714503,89.2406442 218.350495,86.3043344 220.352527,83.0661155 C225.472062,74.7830924 221.161683,67.0584389 222.308446,67.1747659 C223.455209,67.292175 224.502611,70.5168675 227.48672,74.701393 C227.766137,75.0914942 229.705587,77.6782819 229.808242,76.8180032 C231.19325,65.0944064 237.388733,61.454183 235.913148,49.5969454 C234.825672,40.8561891 229.197806,41.5492816 229.197806,41.5492816 C229.197806,41.5492816 225.565384,34.2347484 214.259698,35.0658101 C206.685244,35.6220154 199.932574,38.5307313 192.125914,40.5115366 C184.31596,42.4923418 201.36095,59.9354394 211.489132,53.5628843 C221.617314,47.1903292 216.618549,61.2274807 218.214355,62.316626 C219.813455,63.4046892 218.982889,62.4605468 219.717388,69.6441445 C220.448593,76.8272012 211.194893,81.5170728 208.541803,82.1322532 C200.059382,84.0979089 198.640339,82.7192987 196.78378,79.5708951 C195.172054,76.8391044 194.192722,70.3799804 194.192722,70.3799804" id="Fill-62" fill="#0B2739"></path>
                    <path d="M229.703493,65.196537 C228.680558,68.4420152 226.177486,70.5380865 224.117763,69.8787739 C222.054575,69.2199935 221.995693,66.5827431 222.236995,62.8099212 C222.455205,59.408528 225.760115,57.4689038 227.823302,58.1276842 C229.883026,58.7864647 230.727005,61.9510587 229.703493,65.196537" id="Fill-64" fill="#F09959"></path>
                    <path d="M199.823977,200 L115.453395,200 C114.180278,200 113.138686,199.213074 113.138686,198.251138 L113.138686,197.748862 C113.138686,196.786512 114.180278,196 115.453395,196 L199.823977,196 C201.097094,196 202.138686,196.786512 202.138686,197.748862 L202.138686,198.251138 C202.138686,199.213074 201.097094,200 199.823977,200" id="Fill-66" fill="#DEBCE4"></path>
                    <path d="M139.920749,185 L55.3809287,185 C50.9336421,185 47.122771,181.761433 46.3175884,177.301354 L35.2927382,116.092708 C34.2540036,110.320777 38.6000299,105 44.356623,105 L128.895899,105 C133.343186,105 137.154601,108.238567 137.957062,112.698099 L148.984634,173.906744 C150.023369,179.679223 145.677342,185 139.920749,185" id="Fill-68" fill="#A13EA1"></path>
                    <path d="M143.981188,174.183974 L132.717799,114.506132 C131.895988,110.157809 128.001106,107 123.456622,107 L37.4585693,107 C35.652547,109.097029 34.7484459,111.966476 35.2988631,114.956936 L46.722472,177.174434 C47.5562723,181.708095 51.5067417,185 56.1155319,185 L134.723825,185 C140.602934,185 145.042784,179.811665 143.981188,174.183974" id="Fill-70" fill="#DEBCE4"></path>
                    <path d="M123.184043,190.053335 L107.157323,190.053335 C104.300011,190.053335 101.983065,187.506943 101.983065,184.366104 L101.983065,155.053232 C101.983065,150.052907 98.2939998,146 93.7454579,146 L85.3762929,146 C80.8244892,146 77.1386861,150.052907 77.1386861,155.053232 L77.1386861,187.880581 C77.1386861,193.493846 81.2941845,198.035146 86.4042949,198 L130.138686,197.69958 C130.138686,193.476442 127.023693,190.053335 123.184043,190.053335" id="Fill-72" fill="#A13EA1"></path>
                    <path d="M78.1386861,155.057391 L78.1386861,187.904732 C78.1386861,193.251073 82.2238326,197.623092 87.3908378,198 L130.138686,197.728649 C130.135419,197.018493 126.766793,195.722527 122.60161,195.722527 L105.24069,195.722527 C102.145387,195.722527 99.6337545,193.174808 99.6337545,190.031884 L99.6337545,155.057391 C99.6337545,150.05535 95.6379008,146 90.7104617,146 L87.0652457,146 C82.1345398,146 78.1386861,150.05535 78.1386861,155.057391" id="Fill-74" fill="#DEBCE4"></path>
                    <path d="M210.942649,188.524334 C197.74221,183.84397 194.277074,185.605695 191.29583,184.74983 C183.926961,182.635977 182.083639,184.447695 177.32757,197.282422 C176.379671,199.839695 179.16813,200 181.930628,200 C184.693677,200 188.071536,194.715912 189.144275,194.1111 C190.219777,193.507375 193.135838,193.205241 193.135838,193.205241 C193.135838,193.205241 192.21611,193.205241 190.834586,195.923362 C189.453061,198.640939 187.76275,199.697866 189.914306,199.697866 C192.063099,199.697866 192.36857,196.224952 196.360685,196.980288 C200.348933,197.73508 198.814397,199.697866 208.790542,199.547342 C218.770001,199.396275 226.29851,199.546799 226.136108,193.657898 C225.983649,188.071676 226.613372,185.277478 221.224265,184.297172 C217.079691,183.541836 210.942649,188.524334 210.942649,188.524334" id="Fill-76" fill="#F09959"></path>
                    <path d="M212.281522,188.303374 C220.549946,187.36989 218.122258,197.657334 217.260069,198.518971 C216.398397,199.380609 221.864966,198.821863 221.864966,198.821863 C221.864966,198.821863 224.432902,194.694583 222.276394,189.955319 C220.117817,185.215539 215.805319,185 215.805319,185 L212.138686,187.010659 L212.281522,188.303374" id="Fill-78" fill="#A86B48"></path>
                    <path d="M220.134427,186.914819 C220.018262,188.275794 217.689966,189.193598 214.932028,188.965113 C212.170199,188.736076 210.027544,187.446846 210.143153,186.085319 C210.256538,184.724343 212.584834,183.805988 215.346108,184.035024 C218.104602,184.264061 220.247257,185.552739 220.134427,186.914819" id="Fill-80" fill="#0B2739"></path>
                    <path d="M220.134908,185.914627 C220.030218,187.275632 217.935285,188.193677 215.450701,187.965092 C212.969476,187.73589 211.038577,186.44655 211.142708,185.084927 C211.244039,183.723922 213.342891,182.805877 215.823556,183.03508 C218.30814,183.263664 220.23568,184.553005 220.134908,185.914627" id="Fill-82" fill="#E7F3FE"></path>
                    <path d="M218.136189,185.748807 C218.068789,186.565564 216.669453,187.116077 215.015551,186.979092 C213.359057,186.841593 212.074301,186.068094 212.141183,185.250822 C212.208584,184.434064 213.60792,183.883551 215.264414,184.021051 C216.918316,184.15752 218.203071,184.931534 218.136189,185.748807" id="Fill-84" fill="#FFFFFF"></path>
                    <path d="M139.877802,189.245339 C146.344524,185.526753 154.248236,186.766094 157.121669,190.48468 C159.995102,194.203266 160.474643,196.682512 154.00792,196.682512 C147.541198,196.682512 134.611022,197.178361 132.454176,196.930719 C130.3006,196.682512 139.877802,189.245339 139.877802,189.245339" id="Fill-86" fill="#F09959"></path>
                    <path d="M149.138686,187.372809 C156.174276,185.768999 160.98412,189.635663 166.853554,193.330267 C171.947206,196.538409 172.973115,199.656872 167.336692,196.996716 C159.089116,193.100853 154.235099,192.643068 154.235099,192.643068 L149.138686,187.372809" id="Fill-88" fill="#F09959"></path>
                    <path d="M143.138686,188.910238 C139.680434,188.910238 136.662256,187.824208 134.220094,188.024697 C131.777932,188.225187 124.048987,196.035825 125.268187,196.636236 C125.356309,196.680143 125.450342,196.719288 125.552971,196.756318 C127.388488,197.421267 129.46043,196.683846 130.494789,195.049775 C131.589867,193.321542 133.367352,191.310296 135.439294,192.029732 C138.897546,193.232142 142.528817,193.115762 142.528817,193.115762 L143.138686,188.910238" id="Fill-90" fill="#F09959"></path>
                    <path d="M140.267735,197.569197 C136.76009,196.114685 142.375091,184 144.247646,184 C146.1202,184 153.138686,189.815291 153.138686,189.815291 C153.138686,189.815291 151.488687,190.780187 145.885399,188.845984 C144.481915,188.361331 143.3127,196.599338 141.674414,197.569197 C140.036128,198.538504 140.267735,197.569197 140.267735,197.569197" id="Fill-92" fill="#F7A96F"></path>
                    <path d="M118.138686,72.0002809 C118.138686,77.5229667 113.659405,82 108.137281,82 C102.614596,82 98.1386861,77.5229667 98.1386861,72.0002809 C98.1386861,66.4770333 102.614596,62 108.137281,62 C113.659405,62 118.138686,66.4770333 118.138686,72.0002809" id="Fill-94" fill="#5CB615"></path>
                    <path d="M106.601039,76 L106.572504,76 C106.367161,75.9923538 106.17133,75.9016918 106.03257,75.7493142 L103.328422,72.7492769 C103.050342,72.4417908 103.081675,71.9748271 103.397802,71.7044797 C103.710573,71.4352245 104.190639,71.464717 104.465921,71.7716569 L106.641884,74.1856683 L111.850991,69.2107294 C112.148094,68.9250896 112.627601,68.9305511 112.921347,69.2227448 C113.215654,69.5143924 113.209499,69.9824484 112.912395,70.2691806 L107.131462,75.7891836 C106.989344,75.9246304 106.799668,76 106.601039,76" id="Fill-96" fill="#BDE4A4"></path>
                    <g id="Group-120" opacity="0.4" transform="translate(0.138686, 22.000000)">
                        <path d="M73.1007609,33.8583333 L1.41434783,33.8583333 C0.632282609,33.8583333 0.000217391304,33.2301429 0.000217391304,32.4551587 L0.000217391304,1.8222381 C0.000217391304,1.04725397 0.632282609,0.419063492 1.41434783,0.419063492 L73.1007609,0.419063492 C73.8828261,0.419063492 74.5154348,1.04725397 74.5154348,1.8222381 L74.5154348,32.4551587 C74.5154348,33.2301429 73.8828261,33.8583333 73.1007609,33.8583333" id="Fill-98" fill="#49A0DF"></path>
                        <path d="M71.3363587,32.2893683 L3.17875,32.2893683 C2.54994565,32.2893683 2.03744565,31.7820667 2.03744565,31.1554952 L2.03744565,10.3372413 C2.03744565,9.71174921 2.54994565,9.20444762 3.17875,9.20444762 L71.3363587,9.20444762 C71.9657065,9.20444762 72.477663,9.71174921 72.477663,10.3372413 L72.477663,31.1554952 C72.477663,31.7820667 71.9657065,32.2893683 71.3363587,32.2893683" id="Fill-100" fill="#FFFFFF"></path>
                        <path d="M5.36027174,5.48867937 L3.70646739,5.48867937 C3.35646739,5.48867937 3.0711413,5.20750476 3.0711413,4.86048889 L3.0711413,3.50804444 C3.0711413,3.16156825 3.35646739,2.87985397 3.70646739,2.87985397 L5.36027174,2.87985397 C5.70701087,2.87985397 5.99233696,3.16156825 5.99233696,3.50804444 L5.99233696,4.86048889 C5.99233696,5.20750476 5.70701087,5.48867937 5.36027174,5.48867937" id="Fill-102" fill="#FFFFFF"></path>
                        <path d="M10.6652717,5.48867937 L9.01146739,5.48867937 C8.66472826,5.48867937 8.37940217,5.20750476 8.37940217,4.86048889 L8.37940217,3.50804444 C8.37940217,3.16156825 8.66472826,2.87985397 9.01146739,2.87985397 L10.6652717,2.87985397 C11.0152717,2.87985397 11.3000543,3.16156825 11.3000543,3.50804444 L11.3000543,4.86048889 C11.3000543,5.20750476 11.0152717,5.48867937 10.6652717,5.48867937" id="Fill-104" fill="#FFFFFF"></path>
                        <path d="M15.9732065,5.48867937 L14.3194022,5.48867937 C13.9694022,5.48867937 13.687337,5.20750476 13.687337,4.86048889 L13.687337,3.50804444 C13.687337,3.16156825 13.9694022,2.87985397 14.3194022,2.87985397 L15.9732065,2.87985397 C16.3232065,2.87985397 16.6079891,3.16156825 16.6079891,3.50804444 L16.6079891,4.86048889 C16.6079891,5.20750476 16.3232065,5.48867937 15.9732065,5.48867937" id="Fill-106" fill="#FFFFFF"></path>
                        <path d="M69.6119565,14.2637556 L32.351087,14.2637556 C31.7407609,14.2637556 31.2380435,13.7661683 31.2380435,13.1574063 C31.2380435,12.5486444 31.7407609,12.0499778 32.351087,12.0499778 L69.6119565,12.0499778 C70.2255435,12.0499778 70.726087,12.5486444 70.726087,13.1574063 C70.726087,13.7661683 70.2255435,14.2637556 69.6119565,14.2637556" id="Fill-108" fill="#00598C"></path>
                        <path d="M41.5867391,31.3401746 L4.32913043,31.3401746 C3.71554348,31.3401746 3.21228261,30.8420476 3.21228261,30.2332857 C3.21228261,29.6245238 3.71554348,29.1263968 4.32913043,29.1263968 L41.5867391,29.1263968 C42.2003261,29.1263968 42.7003261,29.6245238 42.7003261,30.2332857 C42.7003261,30.8420476 42.2003261,31.3401746 41.5867391,31.3401746" id="Fill-110" fill="#00598C"></path>
                        <path d="M48.4505435,31.3401746 L44.5967391,31.3401746 C44.3853261,31.3401746 44.2163043,31.1701746 44.2163043,30.9618571 L44.2163043,29.505254 C44.2163043,29.2974762 44.3853261,29.1263968 44.5967391,29.1263968 L48.4505435,29.1263968 C48.6625,29.1263968 48.8309783,29.2974762 48.8309783,29.505254 L48.8309783,30.9618571 C48.8309783,31.1701746 48.6625,31.3401746 48.4505435,31.3401746" id="Fill-112" fill="#642A72"></path>
                        <path d="M54.2616304,31.3401746 L50.4078261,31.3401746 C50.1991304,31.3401746 50.0273913,31.1701746 50.0273913,30.9618571 L50.0273913,29.505254 C50.0273913,29.2974762 50.1991304,29.1263968 50.4078261,29.1263968 L54.2616304,29.1263968 C54.473587,29.1263968 54.6453261,29.2974762 54.6453261,29.505254 L54.6453261,30.9618571 C54.6453261,31.1701746 54.473587,31.3401746 54.2616304,31.3401746" id="Fill-114" fill="#642A72"></path>
                        <path d="M69.9680978,19.0866825 L8.26918478,19.0866825 C7.85451087,19.0866825 7.51375,18.7488413 7.51375,18.3354444 C7.51375,17.9225873 7.85451087,17.584746 8.26918478,17.584746 L69.9680978,17.584746 C70.3854891,17.584746 70.72625,17.9225873 70.72625,18.3354444 C70.72625,18.7488413 70.3854891,19.0866825 69.9680978,19.0866825" id="Fill-116" fill="#00598C"></path>
                        <path d="M69.9680978,22.3279079 L8.26918478,22.3279079 C7.85451087,22.3279079 7.51375,21.989527 7.51375,21.5766698 C7.51375,21.1638127 7.85451087,20.8259714 8.26918478,20.8259714 L69.9680978,20.8259714 C70.3854891,20.8259714 70.72625,21.1638127 70.72625,21.5766698 C70.72625,21.989527 70.3854891,22.3279079 69.9680978,22.3279079" id="Fill-118" fill="#00598C"></path>
                    </g>
                    <g id="Group" opacity="0.6" transform="translate(115.138686, 0.000000)">
                        <path d="M64.9465806,0 L2.89164516,0 C1.30022581,0 4.67582962e-13,1.285375 4.67582962e-13,2.85620833 L4.67582962e-13,24.7563333 C4.67582962e-13,26.3271667 1.30022581,27.6130833 2.89164516,27.6130833 L8.19180645,27.6130833 L8.19180645,38.6820417 L19.3980968,27.6130833 L64.9465806,27.6130833 C66.538,27.6130833 67.8382258,26.3271667 67.8382258,24.7563333 L67.8382258,2.85620833 C67.8382258,1.285375 66.538,0 64.9465806,0" id="Fill-121" fill="#49A0DF"></path>
                        <path d="M61.8784645,24.8753917 L5.95943226,24.8753917 C4.60930323,24.8753917 3.50759355,23.7855583 3.50759355,22.4536 L3.50759355,5.15926667 C3.50759355,3.82730833 4.60930323,2.737475 5.95943226,2.737475 L61.8784645,2.737475 C63.2280452,2.737475 64.3303032,3.82730833 64.3303032,5.15926667 L64.3303032,22.4536 C64.3303032,23.7855583 63.2280452,24.8753917 61.8784645,24.8753917" id="Fill-123" fill="#FFFFFF"></path>
                        <path d="M36.6309968,8.2122625 L9.15735161,8.2122625 C8.4949,8.2122625 7.95035161,7.67709583 7.95035161,7.02222083 C7.95035161,6.36734583 8.4949,5.8316375 9.15735161,5.8316375 L36.6309968,5.8316375 C37.2934484,5.8316375 37.8352548,6.36734583 37.8352548,7.02222083 C37.8352548,7.67709583 37.2934484,8.2122625 36.6309968,8.2122625" id="Fill-125" fill="#00598C"></path>
                        <path d="M59.5780903,12.7630208 L8.62196129,12.7630208 C8.25344516,12.7630208 7.9501871,12.4651042 7.9501871,12.1011042 L7.9501871,12.0875625 C7.9501871,11.7241042 8.25344516,11.4256458 8.62196129,11.4256458 L59.5780903,11.4256458 C59.9466065,11.4256458 60.2471226,11.7241042 60.2471226,12.0875625 L60.2471226,12.1011042 C60.2471226,12.4651042 59.9466065,12.7630208 59.5780903,12.7630208" id="Fill-127" fill="#00598C"></path>
                        <path d="M59.5780903,15.3539208 L8.62196129,15.3539208 C8.25344516,15.3539208 7.9501871,15.0560042 7.9501871,14.6920042 L7.9501871,14.6784625 C7.9501871,14.3144625 8.25344516,14.0165458 8.62196129,14.0165458 L59.5780903,14.0165458 C59.9466065,14.0165458 60.2471226,14.3144625 60.2471226,14.6784625 L60.2471226,14.6920042 C60.2471226,15.0560042 59.9466065,15.3539208 59.5780903,15.3539208" id="Fill-129" fill="#00598C"></path>
                        <path d="M49.0457677,23.92325 L47.3770258,23.92325 C47.0238645,23.92325 46.7392516,23.6410417 46.7392516,23.29275 L46.7392516,21.9353333 C46.7392516,21.5870417 47.0238645,21.3048333 47.3770258,21.3048333 L49.0457677,21.3048333 C49.398929,21.3048333 49.6835419,21.5870417 49.6835419,21.9353333 L49.6835419,23.29275 C49.6835419,23.6410417 49.398929,23.92325 49.0457677,23.92325" id="Fill-131" fill="#00598C"></path>
                        <path d="M54.4016452,23.92325 L52.7334516,23.92325 C52.3797419,23.92325 52.095129,23.6410417 52.095129,23.29275 L52.095129,21.9353333 C52.095129,21.5870417 52.3797419,21.3048333 52.7334516,21.3048333 L54.4016452,21.3048333 C54.7548065,21.3048333 55.0394194,21.5870417 55.0394194,21.9353333 L55.0394194,23.29275 C55.0394194,23.6410417 54.7548065,23.92325 54.4016452,23.92325" id="Fill-133" fill="#00598C"></path>
                        <path d="M59.7577968,23.92325 L58.0890548,23.92325 C57.7358935,23.92325 57.4485387,23.6410417 57.4485387,23.29275 L57.4485387,21.9353333 C57.4485387,21.5870417 57.7358935,21.3048333 58.0890548,21.3048333 L59.7577968,21.3048333 C60.1109581,21.3048333 60.395571,21.5870417 60.395571,21.9353333 L60.395571,23.29275 C60.395571,23.6410417 60.1109581,23.92325 59.7577968,23.92325" id="Fill-135" fill="#00598C"></path>
                    </g>
                    <path d="M89.7337936,82 L18.5403403,82 C17.7663811,82 17.1386861,81.3425002 17.1386861,80.5319228 L17.1386861,48.4692069 C17.1386861,47.6574998 17.7663811,47 18.5403403,47 L89.7337936,47 C90.5077529,47 91.1386861,47.6574998 91.1386861,48.4692069 L91.1386861,80.5319228 C91.1386861,81.3425002 90.5077529,82 89.7337936,82" id="Fill-137" fill="#49A0DF"></path>
                    <path d="M87.9883119,80 L19.2890603,80 C18.6519721,80 18.1386861,79.4731256 18.1386861,78.8216866 L18.1386861,57.1777523 C18.1386861,56.5268744 18.6519721,56 19.2890603,56 L87.9883119,56 C88.6221133,56 89.1386861,56.5268744 89.1386861,57.1777523 L89.1386861,78.8216866 C89.1386861,79.4731256 88.6221133,80 87.9883119,80" id="Fill-139" fill="#FFFFFF"></path>
                    <path d="M86.0356569,61 L49.2390316,61 C48.6330365,61 48.1386861,60.5499756 48.1386861,60 C48.1386861,59.4500244 48.6330365,59 49.2390316,59 L86.0356569,59 C86.641652,59 87.1386861,59.4500244 87.1386861,60 C87.1386861,60.5499756 86.641652,61 86.0356569,61" id="Fill-141" fill="#00598C"></path>
                    <path d="M58.0388623,78 L21.23851,78 C20.6357271,78 20.1386861,77.5499756 20.1386861,77 C20.1386861,76.4500244 20.6357271,76 21.23851,76 L58.0388623,76 C58.6448658,76 59.1386861,76.4500244 59.1386861,77 C59.1386861,77.5499756 58.6448658,78 58.0388623,78" id="Fill-143" fill="#00598C"></path>
                    <path d="M65.726776,78 L61.5505962,78 C61.3252226,78 61.1386861,77.8469039 61.1386861,77.6582155 L61.1386861,76.3422721 C61.1386861,76.1540712 61.3252226,76 61.5505962,76 L65.726776,76 C65.9527381,76 66.1386861,76.1540712 66.1386861,76.3422721 L66.1386861,77.6582155 C66.1386861,77.8469039 65.9527381,78 65.726776,78" id="Fill-145" fill="#00598C"></path>
                    <path d="M70.7267276,78 L66.5535873,78 C66.324656,78 66.1386861,77.8469039 66.1386861,77.6582155 L66.1386861,76.3422721 C66.1386861,76.1540712 66.324656,76 66.5535873,76 L70.7267276,76 C70.9527163,76 71.1386861,76.1540712 71.1386861,76.3422721 L71.1386861,77.6582155 C71.1386861,77.8469039 70.9527163,78 70.7267276,78" id="Fill-147" fill="#00598C"></path>
                    <path d="M87.3831086,66 L25.893722,66 C25.4777482,66 25.1386861,65.5494071 25.1386861,64.9996407 C25.1386861,64.4498742 25.4777482,64 25.893722,64 L87.3831086,64 C87.7990825,64 88.1386861,64.4498742 88.1386861,64.9996407 C88.1386861,65.5494071 87.7990825,66 87.3831086,66" id="Fill-149" fill="#00598C"></path>
                    <path d="M87.3831086,69 L25.893722,69 C25.4777482,69 25.1386861,68.5501258 25.1386861,67.9996407 C25.1386861,67.4498742 25.4777482,67 25.893722,67 L87.3831086,67 C87.7990825,67 88.1386861,67.4498742 88.1386861,67.9996407 C88.1386861,68.5501258 87.7990825,69 87.3831086,69" id="Fill-151" fill="#00598C"></path>
                    <path d="M21.4888444,52 L19.7885278,52 C19.4286843,52 19.1386861,51.7844435 19.1386861,51.518825 L19.1386861,50.4815887 C19.1386861,50.2155565 19.4286843,50 19.7885278,50 L21.4888444,50 C21.848688,50 22.1386861,50.2155565 22.1386861,50.4815887 L22.1386861,51.518825 C22.1386861,51.7844435 21.848688,52 21.4888444,52" id="Fill-153" fill="#FFFFFF"></path>
                    <path d="M27.4888444,52 L25.7885278,52 C25.4286843,52 25.1386861,51.7844435 25.1386861,51.518825 L25.1386861,50.4815887 C25.1386861,50.2155565 25.4286843,50 25.7885278,50 L27.4888444,50 C27.848688,50 28.1386861,50.2155565 28.1386861,50.4815887 L28.1386861,51.518825 C28.1386861,51.7844435 27.848688,52 27.4888444,52" id="Fill-155" fill="#FFFFFF"></path>
                    <path d="M32.4888444,52 L30.7885278,52 C30.4286843,52 30.1386861,51.7844435 30.1386861,51.518825 L30.1386861,50.4815887 C30.1386861,50.2155565 30.4286843,50 30.7885278,50 L32.4888444,50 C32.848688,50 33.1386861,50.2155565 33.1386861,50.4815887 L33.1386861,51.518825 C33.1386861,51.7844435 32.848688,52 32.4888444,52" id="Fill-157" fill="#FFFFFF"></path>
                    <g id="Group-5" transform="translate(260.138686, 35.000000)">
                        <path d="M62.7794369,6.23926287 C75.9439913,-5.48413921 85.6137006,1.50816347 92.8143386,9.32376486 C98.5530985,15.5539563 99.3553554,16.9355903 104.097306,23.3875861 C104.800647,24.3469176 105.340585,25.4111418 105.365178,26.5988335 C105.497976,33.7353636 109.148026,63.9024049 105.090836,74.3119163 C100.358176,86.4450556 42,92 42,92 L62.7794369,6.23926287" id="Fill-159" fill="#0B2739"></path>
                        <path d="M99.6178243,81 C99.2899679,81 99.0167541,80.7523475 99.0009809,80.4337049 C98.9818278,80.1036822 99.245465,79.8251409 99.5890947,79.806716 C101.373152,79.7210943 102.826537,78.9504995 104.029241,77.4477853 C110.774522,69.0411481 106.983329,40.977297 103.678851,25.7165923 C103.608998,25.3957821 103.821936,25.0809329 104.159369,25.0137361 C104.493422,24.9432879 104.820715,25.1508392 104.890568,25.4754428 C105.612754,28.8071004 108.026611,40.6348104 108.780343,52.9545738 C109.553228,65.6114048 108.284052,74.0949931 105.011683,78.1761112 C103.593225,79.9443609 101.790014,80.8959534 99.649934,81 L99.6178243,81" id="Fill-161" fill="#0B2739"></path>
                        <path d="M67.3378466,3 C41.9945814,17.050241 57.4488333,64.563027 25.3010554,81.5036566 C16.397878,86.1967652 -10.9635867,110.012426 6.96319218,141.412132 C18.6903162,161.952166 53.7375795,157.525212 65.2764039,139.345452 C76.8157757,121.168986 67.3378466,3 67.3378466,3" id="Fill-163" fill="#0B2739"></path>
                        <path d="M0.595062043,111 L0.51586316,110.99398 C0.190447344,110.950744 -0.0374514806,110.647546 0.00511118413,110.317531 C0.02935574,110.150608 0.570817487,106.164704 3.05884768,100.875158 C5.35238267,96.0026463 9.80206681,89.0843691 17.9870289,83.7948233 C32.6264304,74.3311061 42.344726,65.4108467 53.8361067,21.4471411 C53.9179994,21.1253353 54.2434152,20.9343315 54.559672,21.0208031 C54.8759287,21.103991 55.0650363,21.4345534 54.9793722,21.7563592 C49.4284464,43.0010141 43.9233159,57.361871 37.6574452,66.9531064 C31.8355192,75.8607782 25.8498077,80.1394817 18.6260076,84.8084021 C3.41766711,94.6398973 1.20333101,110.320815 1.18178029,110.477887 C1.14245024,110.781084 0.887074249,111 0.595062043,111" id="Fill-165" fill="#0B2739"></path>
                        <path d="M1.59312273,98 C1.48674474,98 1.37388688,97.9721674 1.27614873,97.9077702 C0.998593985,97.7320425 0.91651554,97.3593033 1.0930922,97.0815226 C4.71804354,91.2803253 9.33657607,86.523671 14.8180123,82.9398081 C35.422942,69.4731719 38.8340574,61.7307837 55.8507551,17.3824589 C55.9700929,17.0746626 56.3146063,16.9207644 56.6191606,17.0408268 C56.9274947,17.1608892 57.0765319,17.5090702 56.9609741,17.8168665 C48.4491153,39.9880274 43.3640316,52.9804172 37.8037569,62.1897496 C31.8287701,72.0796176 25.0880778,77.6565164 15.46384,83.9477866 C10.1260411,87.4355996 5.62954628,92.0694628 2.09639319,97.722765 C1.98353533,97.9012214 1.79129897,98 1.59312273,98" id="Fill-167" fill="#0B2739"></path>
                        <path d="M66.4248176,32 C57.7389986,50.3155185 59.0737698,66.9361185 59.0737698,66.9361185 C59.0737698,66.9361185 60.076755,73.3789105 64.0870613,74.7375005 C68.0946435,76.0927714 73.7725966,72.0236396 73.4402658,66.5959178 C73.105211,61.1681961 74.7755818,47.9424114 76.7804625,43.1923251 C78.783164,38.4455579 66.4248176,32 66.4248176,32" id="Fill-169" fill="#F09959"></path>
                        <path d="M21,158.704426 C21.5523116,163.467004 20.3113966,163.071045 24.7232946,163.862435 C29.1384901,164.657516 37,161.746613 37,161.746613 L28.1734561,146 L21,158.704426" id="Fill-171" fill="#019DF4"></path>
                        <path d="M21,158.704426 C21.5523116,163.467004 20.3113966,163.071045 24.7232946,163.862435 C29.1384901,164.657516 37,161.746613 37,161.746613 L28.1734561,146 L21,158.704426" id="Fill-173" fill="#000000" opacity="0.1"></path>
                        <path d="M59.5143187,57 C57.0589024,65.0585279 38.6424646,58.8587738 32.1981519,60.7175475 C25.7538391,62.5768701 20.2265703,89.847666 19.3057213,114.326734 C18.3848722,138.805802 19.6128521,158.328689 22.0677249,161.426645 C24.5225976,164.52515 65.0410439,165.764333 68.7238966,164.52515 C72.4067493,163.285419 38.02929,147.793991 38.02929,147.793991 C38.02929,147.793991 35.8804609,119.284013 38.6424646,104.718954 C41.4050118,90.1577361 66.2690239,70.9449192 66.2690239,70.9449192 L59.5143187,57" id="Fill-175" fill="#F09959"></path>
                        <path d="M68.8480881,61 C75.3172151,70.824021 92.262661,69.5964941 98.1157586,77.5759628 C103.968311,85.5559752 116.293263,129.453383 116.293263,129.453383 L129.234245,84.9422118 C129.234245,84.9422118 139.726388,83.1868156 136.319402,90.4693448 C130.256778,103.417634 127.998913,145.20139 121.425023,151.136793 C114.115062,157.734886 106.842205,152.364319 102.736252,140.809366 C98.7656177,129.631151 88.8742266,105.507909 81.7857964,96.3009133 C74.7011857,87.0901121 67,72.3587015 67,72.3587015 L68.8480881,61" id="Fill-177" fill="#F09959"></path>
                        <path d="M40.8006277,62.2681324 C53.6928961,77.3109943 78.8604608,76.6971885 84.3843985,74.8552276 L89.9115978,73.0138104 C89.9115978,73.0138104 94.2081146,71.4790242 97.8903773,75.7762081 C101.573184,80.0733919 110.476062,107.089543 112.01061,113.228144 C113.544615,119.366745 116,129.498618 116,129.498618 C116,129.498618 109.414436,137.401978 109.414436,145.385802 C109.414436,153.365821 112.210107,153.43378 112.210107,153.43378 C112.210107,153.43378 104.028026,151.600517 102.186894,146.690071 C100.345763,141.77582 83.7706881,97.264302 83.7706881,97.264302 L38.0386588,98.1852825 L38.6523693,148.531489 C38.6523693,148.531489 34.6629795,144.845392 29.1390418,148.531489 C23.6118425,152.214867 21.7707111,160.808691 22.6915486,162.036846 C23.6118425,163.264457 20.8498737,163.264457 20.8498737,162.343477 C20.8498737,161.42304 15.6330629,139.013422 19.3158693,102.175292 C22.9986756,65.3377048 30.0598793,61.3476956 34.049269,61.0405209 C38.0386588,60.7338899 40.8006277,62.2681324 40.8006277,62.2681324" id="Fill-179" fill="#019DF4"></path>
                        <path d="M110.373,151.4715 C110.531,151.5285 110.627,151.5285 110.627,151.5285 C110.627,151.5285 110.531,151.5105 110.373,151.4715" id="Stroke-181" stroke="#F8D2B3"></path>
                        <path d="M113.198983,130.220339 C110.528874,131.044286 106.011236,140.511208 106.011236,140.511208 C106.011236,140.511208 95.7442739,118.077091 92.6645124,87 L89,108.082559 C94.0598418,121.697649 101.99871,143.060689 103.242942,146.38819 C104.933374,150.903773 111.751833,152.790049 112.684598,153 C112.429315,152.913614 111.865838,152.570804 111.397273,151.212685 C111.129444,150.968835 109.586836,150.246583 109.297188,149.981411 C106.833815,147.715145 107.858766,142.36632 109.503924,136.396391 C111.144717,130.427009 115.869091,129.399125 113.198983,130.220339" id="Fill-183" fill="#000000" opacity="0.1"></path>
                        <path d="M40,97.3281075 L35.0180478,74 C29.5929944,81.8214138 28.9897362,108.578566 31.2025729,126.893773 C33.0139492,141.916617 35.7264759,145.81475 37.5885686,147.38275 C38.1405766,147.712971 38.4416718,148 38.4416718,148 L37.8389474,97.3712985 L40,97.3281075" id="Fill-185" fill="#000000" opacity="0.1"></path>
                        <path d="M26,74 C35.4158731,99.5237588 30.7079365,104.66974 43.0953547,134.62918 C50.0159127,151.360863 63.3547038,163.959248 63.3547038,163.959248 C63.3547038,163.959248 74.0997806,166.737563 87.6038387,165.810729 C101.111702,164.884988 111,163.952686 111,163.952686 C111,163.952686 96.8147589,155.315356 96.2004439,149.44978 C95.5866725,143.58147 92.9228285,120.314375 96.400504,103.845158 C99.1192558,90.9875876 87.9142581,78.1272833 87.9142581,78.1272833 L69.1890658,77.2009958 L26,74" id="Fill-187" fill="#019DF4"></path>
                        <path d="M87.4604358,153 C86.7748982,153 85.3860936,152.831993 83.0506454,152.461825 C71.3186044,150.596116 58.7796061,136.496157 53.3200191,127.371974 C47.8604322,118.24779 42.5582609,113.573877 42.1972255,112.233122 C41.760437,110.61309 42.0580764,110 43.0014964,110 C45.5550702,110 52.8343405,114.491033 63.0287572,115.551959 C67.0839592,115.974456 71.275624,116.080218 74.9945042,116.080218 C76.893164,116.080218 78.6677178,116.052125 80.2386519,116.024032 C81.809586,115.995939 83.1747513,115.967846 84.2514107,115.967846 C87.2541298,115.967846 88.0401341,116.182675 84.8703286,117.208898 C77.1843563,119.697061 56.1497421,115.965092 59.9927283,123.845469 C64.5153422,133.118931 69.8561958,142.093836 77.5905212,147.48605 C81.6403506,150.309677 90.2294489,153 87.4604358,153" id="Fill-189" fill="#000000" opacity="0.1"></path>
                        <path d="M73.3495495,64.3435097 C73.4742147,58.2378564 74.9583244,47.8166888 76.6950026,43.7482399 C78.1175892,40.4171939 72.2345784,36.2327977 68.7855075,34.1256998 L65.8696368,34 C65.4249435,34.9725484 65.0072341,35.9423877 64.6175879,36.8997654 C61.5371158,57.2040835 70.7569448,65.5945483 75.1531475,67.2828273 C77.054427,68.0110195 79.181291,68.0933746 81,67.9281226 C78.2821904,66.9582833 75.6377768,65.857326 73.3495495,64.3435097" id="Fill-191" fill="#E38540"></path>
                        <path d="M67.3850675,74 C66.3185118,74 65.2089454,73.8749518 64.1113567,73.6142581 C61.544872,73.0070325 55.4286459,70.6947005 54.0054828,62.3848238 C53.9717275,62.2051995 54.0974929,62.0345828 54.2820577,62.0043805 C54.4666225,61.9752379 54.6419318,62.0944576 54.6724203,62.2740819 C56.0313397,70.1950376 61.8372356,72.3939784 64.2714217,72.9741809 C68.0552717,73.8717726 72.0661528,73.0398842 73.6063703,71.0417623 C74.841702,69.43839 74.1007208,66.0249981 74.0920097,65.9894971 C74.0517213,65.813052 74.1687756,65.6366068 74.3527959,65.5973968 C74.5340941,65.5581868 74.7159367,65.6721078 74.7556807,65.8485529 C74.7894359,66.0011541 75.5701612,69.5941704 74.1502647,71.4365119 C72.8898887,73.0727358 70.2929154,74 67.3850675,74" id="Fill-193" fill="#FBC7DE"></path>
                        <path d="M96.2694614,40.3827496 C94.2279097,51.5114105 89.5101546,60.4868468 81.5252767,58.7940845 C73.5430654,57.1018723 65.1485973,45.3488093 67.3592117,34.2581077 C69.5660928,23.1641052 77.8309641,15.5425487 85.8153086,17.235311 C93.7975199,18.9280734 98.9915304,25.5588386 96.2694614,40.3827496" id="Fill-195" fill="#F09959"></path>
                        <path d="M126,95 C126,95 110.915724,135.834467 110.198827,140.072965 C109.478659,144.311462 110.915724,147 111.325146,147 C111.737294,147 124.56239,124.878744 124.56239,124.878744 L126,95" id="Fill-197" fill="#F09959"></path>
                        <path d="M126.624128,94 C127.748854,90.0315833 126,85 126,85 L131,85.6634244 L126.624128,94" id="Fill-199" fill="#E38540"></path>
                        <path d="M132.246863,87 L117.350803,87 C116.447383,87 115.799196,86.1061192 116.057088,85.2225692 L125.459249,52.9852263 C125.630468,52.4023551 126.155824,52 126.752964,52 L141.649024,52 C142.552444,52 143.201162,52.8906184 142.942739,53.7774308 L133.540577,86.0115114 C133.369358,86.5976449 132.844003,87 132.246863,87" id="Fill-201" fill="#A13EA1"></path>
                        <path d="M134.244956,87 L119.353887,87 C118.450012,87 117.798691,86.1061192 118.057093,85.2225692 L127.457921,52.9852263 C127.629125,52.4023551 128.157626,52 128.754715,52 L143.646317,52 C144.54966,52 145.200981,52.8906184 144.943111,53.7774308 L135.541751,86.0115114 C135.370546,86.5976449 134.842577,87 134.244956,87" id="Fill-203" fill="#642A72"></path>
                        <path d="M123.498088,63.3631169 C121.864617,69.1620528 120.76506,73.9230971 121.042958,73.9990798 C121.320856,74.0750625 122.867894,69.4358061 124.501912,63.6374091 C126.135383,57.8384732 127.23494,53.0774289 126.957042,53.0009073 C126.682427,52.9254634 125.131559,57.5647199 123.498088,63.3631169" id="Fill-205" fill="#DEBCE4"></path>
                        <path d="M134.406303,96 C134.855212,90.6641266 139.435166,85.66386 141.178339,84.0682275 C141.706754,83.5809157 142.006387,82.893877 142,82.1730048 C141.975558,79.514345 141.85657,73.2360444 141.313012,72.5026211 C140.619637,71.5689251 138.882413,59.5482032 138.073295,60.0131412 C137.264177,60.4813535 138.305322,70.9839326 138.305322,70.9839326 C138.305322,70.9839326 136.338776,70.0502366 135.297631,69.5852986 C134.256487,69.1165407 129.975626,73.9012551 129.975626,73.9012551 C129.975626,73.9012551 127.969597,79.0188477 133.456563,76.8278545 C139.972775,74.2248563 135.083994,81.4832375 130.742016,86.1386206 C127.163184,89.9770879 130.207652,90.824563 130.207652,90.824563 L133.099059,90.7072371 L134.406303,96" id="Fill-207" fill="#F09959"></path>
                        <path d="M132.285543,101 C131.790838,101 131.230321,100.926879 130.663669,100.756981 C129.212461,100.322558 126.67424,98.911222 126.00385,94.3825792 C125.975406,94.2008528 126.107588,94.0304172 126.300004,94.0029969 C126.488516,93.9788026 126.664758,94.1035378 126.693203,94.2890278 C127.266547,98.1617351 129.215807,99.5736093 130.749002,100.076852 C132.002217,100.489768 133.037918,100.298364 133.299493,100.159112 C133.315109,100.044055 133.393749,99.9402879 133.516449,99.8945875 C133.692691,99.8246927 133.897935,99.9069535 133.967093,100.080077 C134.036252,100.249975 133.99498,100.438154 133.856663,100.584395 C133.614051,100.838704 133.022302,101 132.285543,101" id="Fill-209" fill="#E63780"></path>
                        <path d="M131.780144,99 C131.358367,99 130.921941,98.9596697 130.50269,98.879009 C128.05891,98.4236666 126.418779,96.8260653 126.008115,94.4979647 C125.968716,94.2774489 126.076812,94.060836 126.245017,94.0094473 C126.416254,93.9619616 126.584459,94.0979139 126.621333,94.3177792 C127.014823,96.5398501 128.583227,97.4837098 129.829868,97.8837606 C131.57759,98.4451328 133.220246,98.1003735 133.414213,97.8063524 C133.499579,97.6118562 133.687989,97.5500597 133.842051,97.6593419 C133.993083,97.769925 134.0441,98.0236158 133.958735,98.2181121 C133.724863,98.7541151 132.806551,99 131.780144,99" id="Fill-211" fill="#E63780"></path>
                        <path d="M91.6824631,39.6407558 C91.205623,42.7106612 89.2226258,45.0692998 87.3536317,44.7855497 C85.4813492,44.5012592 84.3056916,41.6697038 84.7819837,38.6003389 C85.0236923,37.0410648 85.6391997,35.6406906 86.5117623,34.6608071 C87.2204454,33.8619831 88.0250446,33.4344664 88.7984025,33.4344664 C88.9036362,33.4344664 89.0088699,33.4404116 89.1113631,33.4560854 C90.9830976,33.739295 92.1587551,36.5708504 91.6824631,39.6407558 M89.2938777,32.2810899 C88.0031209,32.0854375 86.6915365,32.6529376 85.6019294,33.8771165 C85.3739231,34.1338427 85.1634558,34.4165118 84.9677869,34.7159357 L64.768401,29.0225583 C64.4494114,28.9333797 64.1156233,29.1166012 64.0224476,29.4311584 C63.9331086,29.748418 64.1183638,30.0781085 64.4373533,30.1667466 L84.3774917,35.7839169 C84.0064334,36.5881456 83.7351278,37.479391 83.587691,38.4203603 C82.9935592,42.2555802 84.5654873,45.566538 87.1711171,45.9600048 C87.3377371,45.9843262 87.5081937,46 87.6753618,46 C90.0918998,46 92.3166056,43.4094971 92.8734672,39.8207344 C93.4708876,35.9849741 91.8989595,32.6745567 89.2938777,32.2810899" id="Fill-213" fill="#FFFFFF"></path>
                        <path d="M99.0134541,40.3197504 C98.5707729,43.3251422 97.207645,45.2455667 96.2495343,45.0969337 C95.2965831,44.9456177 94.5453665,42.6855373 94.984952,39.6806821 C95.4131867,36.7874357 96.6978909,34.8943769 97.6446508,34.8943769 C97.6797351,34.8943769 97.7173991,34.8975964 97.7524834,34.9034988 C98.2183822,34.9759372 98.6347501,35.551689 98.8880794,36.4821209 C99.1764929,37.5386495 99.2234439,38.9047855 99.0134541,40.3197504 M99.7125602,36.2363667 C99.3570738,34.9399863 98.7074985,34.1522849 97.8804379,34.0192128 C96.2815229,33.7578977 94.6325613,36.1912939 94.1372536,39.5443904 C93.6450417,42.8980235 94.5159576,45.7241972 96.1210639,45.9817562 C96.1969079,45.993561 96.2753316,46 96.3542712,46 C97.8804379,46 99.3921581,43.6460178 99.8611525,40.456042 C100.088168,38.914444 100.035542,37.4146992 99.7125602,36.2363667" id="Fill-215" fill="#FFFFFF"></path>
                        <path d="M99,23.1941286 C67.7198001,41.0532243 66,29.0583013 66,29.0583013 L67.8556747,12 L86.4173529,13.001524 L99,23.1941286" id="Fill-217" fill="#0B2739"></path>
                        <path d="M68.7476933,33.7013627 C69.5177162,36.7068047 68.4662606,39.4997621 66.3958447,39.9416456 C64.3248486,40.3798292 62.025805,38.3030824 61.2523004,35.2981689 C60.4822774,32.2932555 61.533733,29.500298 63.6047292,29.0584145 C65.675145,28.6197025 67.9747689,30.6996206 68.7476933,33.7013627" id="Fill-219" fill="#F09959"></path>
                        <path d="M66,37 C66,37.552737 65.5506667,38 64.9986667,38 C64.4493333,38 64,37.552737 64,37 C64,36.447263 64.4493333,36 64.9986667,36 C65.5506667,36 66,36.447263 66,37" id="Fill-221" fill="#FBC7DE"></path>
                        <g id="Group-225" transform="translate(58.000000, 163.000000)">
                            <mask id="mask-2" fill="white">
                                <use xlink:href="#path-1"></use>
                            </mask>
                            <g id="Clip-224"></g>
                            <path d="M12.0137262,0 C12.0137262,0 0.262098043,0.105575789 0.110876218,0.833513203 C-0.0370700443,1.56336322 0.557990567,1.87626538 4.7245067,2.39878903 C8.8882932,2.9197826 55.7545027,3.12902157 56.2010711,2.9197826 C56.6481854,2.71245623 70.3356714,0.416565341 70.3356714,0.416565341 L37.4561159,0 L12.0137262,0" id="Fill-223" fill="#FFFFFF" mask="url(#mask-2)"></path>
                        </g>
                        <path d="M76,154.578705 C76,154.578705 84.2273927,150.727341 86.634578,152.438111 C89.0422963,154.14888 96,162 96,162 L76,154.578705" id="Fill-226" fill="#E38540"></path>
                        <path d="M94.8601344,162.78205 C94.7006246,162.974279 94.4619026,163.055163 94.3300629,162.960099 L77.0975857,150.541837 C76.169825,149.871659 75.7287317,148.849059 76.175793,148.308609 C76.6228543,147.76921 77.7502735,147.961965 78.626492,148.691493 L94.9214425,162.24265 C95.0467716,162.34927 95.0191015,162.589294 94.8601344,162.78205" id="Fill-228" fill="#0B2739"></path>
                        <path d="M50.7003606,154 C50.7003606,154 64.6841734,159.56567 66.327625,159.56567 C67.9738076,159.56567 77.1567098,153.381653 80.2398884,154.20429 C83.3236133,155.029665 98.4019682,162.657952 97.991788,163.276298 C97.5816078,163.894645 93.2613344,165.338368 80.5146163,164.927597 C67.7673521,164.512992 47,162.657952 47,162.657952 L50.7003606,154" id="Fill-230" fill="#F09959"></path>
                    </g>
                    <g id="Group-4" transform="translate(385.138686, 180.000000)">
                        <path d="M59.1593716,20 L2.28852851,20 C1.44856139,20 0.759036145,19.2946801 0.759036145,18.4354723 L0.759036145,9.25627783 C0.759036145,8.39707 1.44856139,7.69230769 2.28852851,7.69230769 L59.1593716,7.69230769 C61.2704636,7.69230769 63,9.45811641 63,11.6175661 L63,16.0713962 C63,18.2308459 61.2704636,20 59.1593716,20" id="Fill-232" fill="#FBC7DE"></path>
                        <path d="M54.2242429,10 L0.596031423,10 C0.220331325,10.6067469 0,11.3146183 0,12.0698918 L0,15.6229426 C0,16.3782161 0.220331325,17.0860875 0.596031423,17.6923077 L54.2242429,17.6923077 C56.1281871,17.6923077 57.686747,16.1764938 57.686747,14.3235983 L57.686747,13.3687093 C57.686747,11.5168672 56.1281871,10 54.2242429,10" id="Fill-234" fill="#FFFFFF"></path>
                        <path d="M57.3625631,7.69230769 L13.9390963,7.69230769 C13.370457,7.69230769 12.9036145,7.20106426 12.9036145,6.60039968 L12.9036145,1.09248392 C12.9036145,0.490667527 13.370457,0 13.9390963,0 L57.3625631,0 C58.7931918,0 59.9638554,1.23185192 59.9638554,2.74071216 L59.9638554,4.95159553 C59.9638554,6.45987987 58.7931918,7.69230769 57.3625631,7.69230769" id="Fill-236" fill="#F8CCCC"></path>
                        <path d="M53.5263511,1.53846154 L12.5994135,1.53846154 C12.3113695,1.9017336 12.1445783,2.32668351 12.1445783,2.78090426 L12.1445783,4.91140343 C12.1445783,5.36562418 12.3113695,5.79109679 12.5994135,6.15384615 L53.5263511,6.15384615 C54.9819334,6.15384615 56.1686747,5.24488196 56.1686747,4.13258995 L56.1686747,3.55971775 C56.1686747,2.44742573 54.9819334,1.53846154 53.5263511,1.53846154" id="Fill-238" fill="#FFFFFF"></path>
                    </g>
                    <path d="M481.90014,189 C487.800422,156.182594 486.509125,144.442779 470.704566,117.653273 C454.900549,90.8632173 453.391868,41.0100834 447.435749,55.6322332 C441.47692,70.2538335 442.279237,106.97407 460.950994,124.791793 C479.620042,142.612263 482.132703,150.591578 483.243478,157.842203 C484.351543,165.095577 480.57469,187.386552 480.57469,187.386552 L481.90014,189" id="Fill-240" fill="#BDE4A4"></path>
                    <path d="M485.110866,168 C485.120139,167.872859 485.129413,167.74847 485.138686,167.62408 C484.790662,164.927147 482.903258,151.056102 480.291439,145.584079 C477.393783,139.509373 464.681079,128.935192 461.114648,115.660775 C457.54549,102.383606 451.89146,92.0956299 448.180474,83.7092672 C443.28086,72.6375293 445.960319,57.9183262 450.009511,53.1398002 C449.911322,53.0710009 449.812588,53.0275197 449.713854,53 L448.368124,53.820088 C448.072467,54.245543 447.770809,54.8361164 447.456606,55.6066689 C441.460551,70.2510182 442.267335,107.028936 461.053008,124.874381 C479.841953,142.722027 482.370311,150.714307 483.488026,157.975663 C483.786956,159.936719 483.731315,162.994161 483.488026,166.412112 L485.110866,168" id="Fill-242" fill="#5CB615"></path>
                    <path d="M474.585831,182.522959 C478.974831,144.099092 477.51165,130.799701 469.02477,100.059951 C460.53789,69.3229372 515.854676,-0.724825057 514.097667,11.393699 C512.3412,23.5094857 506.48631,53.659077 491.269016,72.5742886 C476.049012,91.4895002 474.87966,106.859376 477.805479,123.11668 C480.731298,139.370699 477.221074,177.20386 477.221074,177.20386 L475.464607,184 L474.585831,182.522959" id="Fill-244" fill="#BDE4A4"></path>
                    <path d="M475.984113,168 L475.972036,168 C475.764538,167.990648 475.606445,167.820103 475.612483,167.611599 C475.618521,167.493868 476.058768,155.592063 475.838645,145.821515 C475.615777,136.040513 472.972099,119.284243 471.363716,113.529191 C469.898056,108.286874 468.056923,90.7075883 476.99745,72.5572538 C481.45097,63.5156453 485.005882,57.7980038 489.926548,49.8874904 C494.789026,42.0666503 500.841598,32.335712 510.442495,15.19159 C510.541853,15.0111429 510.768014,14.9462259 510.947517,15.0485526 C511.127568,15.1481286 511.192342,15.3747877 511.09024,15.5546847 C501.480011,32.7147609 495.424694,42.4550516 490.555629,50.2813931 C485.64704,58.1737518 482.102009,63.87874 477.663858,72.8856894 C468.825434,90.82917 470.635277,108.162541 472.079529,113.327289 C473.697244,119.11975 476.359037,135.972296 476.57916,145.805561 C476.802577,155.598115 476.359037,167.521925 476.356292,167.642957 C476.350254,167.841559 476.182279,168 475.984113,168" id="Fill-246" fill="#5CB615"></path>
                    <path d="M476.210666,196.702154 C478.847743,170.890122 479.288793,183.618914 468.339579,148.550028 C455.813327,108.410618 500.519406,72.776264 507.842028,87.314113 C515.165193,101.851962 523.657981,147.541638 520.436092,146.058454 C517.214203,144.575818 495.833318,102.149808 495.248507,103.931388 C494.663695,105.708572 466.253679,120.544267 467.423844,135.674511 C468.596723,150.804755 479.432554,174.836306 479.432554,174.836306 L479.138521,197 L476.210666,196.702154" id="Fill-248" fill="#BDE4A4"></path>
                    <path d="M485.808653,200 L472.469414,200 C471.553709,200 470.733277,199.473593 470.646715,198.820519 L466.165641,164.885368 C465.956586,163.318759 466.986617,162 468.455447,162 L489.82262,162 C491.291994,162 492.318215,163.318759 492.112427,164.885368 L487.631353,198.820519 C487.544791,199.473593 486.724358,200 485.808653,200" id="Fill-250" fill="#FBC7DE"></path>
                    <path d="M483.502174,199 L481.709314,199 C480.831805,199 480.124581,198.45915 480.1389,197.785948 L480.77402,168.668845 C480.805725,167.21732 481.919998,166 483.251092,166 L485.970553,166 C487.301646,166 488.268645,167.21732 488.124439,168.668845 L485.219863,197.785948 C485.150828,198.45915 484.379684,199 483.502174,199" id="Fill-252" fill="#FFF3F9"></path>
                    <path d="M468.790157,125.430976 C467.940402,127.569953 467.422116,129.800293 467.138686,132 C470.998879,119.241378 492.49362,107.724223 493.888884,105.779259 L494.138686,105.290734 C486.062812,103.021161 473.153691,114.444803 468.790157,125.430976" id="Fill-254" fill="#5CB615"></path>
                    <path d="M519.775265,146 C519.611088,146 519.461983,145.88668 519.419459,145.718055 L515.48083,129.577764 C512.405609,116.929802 508.576791,101.186946 504.279664,94.1800606 C503.57182,93.025711 500.47776,91.4614562 496.096122,91.773765 C490.172838,92.1966831 478.753129,96.3195925 468.836849,119.179401 C468.757721,119.365919 468.541869,119.451587 468.356699,119.372425 C468.17422,119.289468 468.089171,119.072045 468.168299,118.885527 C478.239067,95.6705758 489.956986,91.4766379 496.044447,91.0423335 C500.778661,90.7056256 504.076193,92.4471807 504.902998,93.7940123 C509.257182,100.901748 512.940664,116.041674 516.189212,129.403175 L520.127841,145.544008 C520.176287,145.740285 520.057864,145.938731 519.863544,145.988072 C519.832861,145.996747 519.802717,146 519.775265,146" id="Fill-256" fill="#5CB615"></path>
                    <path d="M508.453529,124 L508.411542,123.996772 C508.216491,123.972563 508.072462,123.793418 508.09691,123.593293 C508.11126,123.462565 509.570155,110.296217 506.14959,96.4530991 C506.101226,96.2588909 506.21815,96.0609168 506.413201,96.0098094 C506.605063,95.9640817 506.800645,96.0824358 506.848478,96.2771819 C510.301994,110.253717 508.828749,123.544337 508.813868,123.677754 C508.789952,123.863355 508.636887,124 508.453529,124" id="Fill-258" fill="#5CB615"></path>
                    <path d="M503.619982,117 L503.563818,116.996623 C503.298634,116.971299 503.110234,116.780519 503.142226,116.573981 C503.158578,116.447357 505.008462,103.836744 503.720226,93.4192566 C503.696054,93.2093423 503.88872,93.021939 504.153904,93.0028047 C504.414821,92.9769171 504.651566,93.133368 504.679293,93.3427195 C505.97606,103.846311 504.117645,116.536275 504.097739,116.662899 C504.069301,116.857056 503.860993,117 503.619982,117" id="Fill-260" fill="#5CB615"></path>
                    <path d="M490.494042,49 C490.360865,49 490.233456,48.925126 490.174208,48.7960877 C490.088745,48.6160715 490.162673,48.4036629 490.340417,48.3165753 C490.440561,48.2655973 500.596582,43.2352306 506.469457,32.1878594 C506.563834,32.0142154 506.780377,31.9483687 506.951829,32.0439526 C507.123805,32.1368813 507.18882,32.3556622 507.097064,32.5293062 C501.10884,43.7896171 490.751481,48.9134435 490.647666,48.9644216 C490.597332,48.9883175 490.544376,49 490.494042,49" id="Fill-262" fill="#5CB615"></path>
                    <path d="M482.50811,64 C482.337753,64 482.183282,63.8794172 482.146033,63.7042719 C482.106046,63.504028 482.233129,63.309786 482.433613,63.2666817 C482.520161,63.2481305 491.213287,61.3941011 501.532745,53.0831604 C501.69379,52.9538476 501.925497,52.9784006 502.055867,53.1355403 C502.185141,53.2959537 502.160491,53.5267525 501.999994,53.6560653 C491.525517,62.0903169 482.671894,63.9721732 482.585346,63.9907244 L482.50811,64" id="Fill-264" fill="#5CB615"></path>
                    <path d="M475.762199,76 C475.607172,76 475.515947,75.993163 475.487404,75.9897445 C475.278649,75.9743613 475.123622,75.790902 475.139853,75.5783855 C475.152165,75.3630203 475.338533,75.2051997 475.54393,75.2217225 C475.604374,75.225141 481.724304,75.5652813 491.531862,68.0776361 C491.70256,67.9488728 491.939298,67.9841972 492.062424,68.1545523 C492.188908,68.3249073 492.154209,68.566481 491.98687,68.6952443 C482.98187,75.5721183 477.089164,76 475.762199,76" id="Fill-266" fill="#5CB615"></path>
                    <g id="Group-3" transform="translate(369.138686, 42.000000)">
                        <path d="M57.0430851,0 L10.8149462,0 C9.34377027,0 7.69668693,1.20086765 7.16022397,2.66889706 L0.171455452,21.8006176 C-0.365007511,23.2691912 0.399807304,24.4700588 1.87426101,24.4700588 L3.84857582,24.4700588 C0.953751748,33.6683676 4.30746471,36.5549118 4.30746471,36.5549118 C4.30746471,36.5549118 4.33532582,30.7703971 7.00289064,27.9535 C8.6751036,26.1878382 10.5221314,25.0631471 11.668261,24.4700588 L48.1023999,24.4700588 C49.5763073,24.4700588 51.2233906,23.2691912 51.7571221,21.8006176 L58.7486221,2.66889706 C59.2850851,1.20086765 58.5175388,0 57.0430851,0" id="Fill-268" fill="#49A0DF"></path>
                        <path d="M46.5354036,22.4671618 L4.90544064,22.4671618 C3.62874619,22.4671618 2.96554249,21.4262647 3.42825545,20.1541176 L9.21681101,4.31594118 C9.68280175,3.04433824 11.1075425,2.00289706 12.3847832,2.00289706 L54.0141999,2.00289706 C55.2914406,2.00289706 55.954098,3.04433824 55.4919314,4.31594118 L49.7028295,20.1541176 C49.2368388,21.4262647 47.812098,22.4671618 46.5354036,22.4671618" id="Fill-270" fill="#FFFFFF"></path>
                        <path d="M35.2381601,8.97260882 L12.5914471,8.97260882 C12.1871879,8.97260882 11.9774101,8.64124118 12.1227249,8.23805 L12.1839101,8.07590294 C12.3319564,7.67325588 12.7826508,7.34134412 13.1896416,7.34134412 L35.8330767,7.34134412 C36.237336,7.34134412 36.4503916,7.67325588 36.3023453,8.07590294 L36.2433453,8.23805 C36.095299,8.64124118 35.6424193,8.97260882 35.2381601,8.97260882" id="Fill-272" fill="#00598C"></path>
                        <path d="M33.9921675,12.3823765 L11.3449082,12.3823765 C10.9411953,12.3823765 10.728686,12.0537294 10.8767323,11.6478176 L10.9379175,11.4856706 C11.0832323,11.0830235 11.5366582,10.7511118 11.943649,10.7511118 L34.5870842,10.7511118 C34.9913434,10.7511118 35.204399,11.0830235 35.0563527,11.4856706 L34.9973527,11.6478176 C34.8493064,12.0537294 34.3958805,12.3823765 33.9921675,12.3823765" id="Fill-274" fill="#00598C"></path>
                        <path d="M32.5826684,16.23745 L9.93540916,16.23745 C9.53169619,16.23745 9.32191841,15.9088029 9.46723323,15.5034353 L9.52841841,15.3407441 C9.67646471,14.9380971 10.1271592,14.6067294 10.5341499,14.6067294 L33.1781314,14.6067294 C33.5818443,14.6067294 33.7948999,14.9380971 33.6468536,15.3407441 L33.5878536,15.5034353 C33.4398073,15.9088029 32.9869277,16.23745 32.5826684,16.23745" id="Fill-276" fill="#00598C"></path>
                        <path d="M43.1026416,17.5738029 L39.827049,17.5738029 C38.3564193,17.5738029 37.5883267,16.3729353 38.1247897,14.9043618 L40.5612712,8.23239118 C41.0982805,6.76436176 42.7448175,5.56295 44.2192712,5.56295 L47.4948638,5.56295 C48.9687712,5.56295 49.733586,6.76436176 49.197123,8.23239118 L46.7606416,14.9043618 C46.2236323,16.3729353 44.5770953,17.5738029 43.1026416,17.5738029" id="Fill-278" fill="#00598C"></path>
                    </g>
                    <g id="Group-2" transform="translate(424.138686, 7.000000)">
                        <path d="M57.0447277,0 L10.8160425,0 C9.34213513,0 7.69832958,1.20141176 7.16132032,2.66944118 L0.169820318,21.8006176 C-0.363364867,23.2697353 0.400903652,24.4706029 1.87535736,24.4706029 L11.9605333,24.4706029 C12.6729037,25.0653235 13.6961166,26.1905588 14.0763388,27.9540441 C14.6838203,30.7709412 10.4860796,36.5554559 10.4860796,36.5554559 C10.4860796,36.5554559 15.9501351,33.6683676 19.7785796,24.4706029 L48.1034962,24.4706029 C49.5779499,24.4706029 51.2217555,23.2697353 51.7582185,21.8006176 L58.7502648,2.66944118 C59.2867277,1.20141176 58.5186351,0 57.0447277,0" id="Fill-280" fill="#49A0DF"></path>
                        <path d="M46.5368277,22.4677059 L4.90686476,22.4677059 C3.63017032,22.4677059 2.96423513,21.4262647 3.42967958,20.1546618 L9.21878143,4.31648529 C9.68477217,3.04433824 11.1062351,2.00344118 12.3829296,2.00344118 L54.0128925,2.00344118 C55.289587,2.00344118 55.9560685,3.04433824 55.4900777,4.31648529 L49.7009759,20.1546618 C49.2388092,21.4262647 47.8135222,22.4677059 46.5368277,22.4677059" id="Fill-282" fill="#FFFFFF"></path>
                        <path d="M49.8802157,7.63995588 L23.045049,7.63995588 C22.6036416,7.63995588 22.3758361,7.28029412 22.5359009,6.84119118 L22.5484657,6.80419118 C22.7085305,6.36508824 23.1991046,6.00542647 23.6399657,6.00542647 L50.4751324,6.00542647 C50.9159935,6.00542647 51.1443453,6.36508824 50.9842805,6.80419118 L50.9717157,6.84119118 C50.8116509,7.28029412 50.3210768,7.63995588 49.8802157,7.63995588" id="Fill-284" fill="#00598C"></path>
                        <path d="M48.6339499,11.0497235 L21.7987833,11.0497235 C21.3579222,11.0497235 21.1295703,10.6900618 21.2901814,10.2509588 L21.3021999,10.2139588 C21.4628111,9.77757647 21.9533851,9.41845882 22.3942462,9.41845882 L49.2294129,9.41845882 C49.670274,9.41845882 49.8986259,9.77757647 49.7380148,10.2139588 L49.7259962,10.2509588 C49.5653851,10.6900618 49.0753574,11.0497235 48.6339499,11.0497235" id="Fill-286" fill="#00598C"></path>
                        <path d="M47.2247787,14.9047426 L20.389612,14.9047426 C19.9482046,14.9047426 19.720399,14.545625 19.8804638,14.1059779 L19.8930287,14.0695221 C20.0530935,13.6331397 20.5469453,13.2734779 20.9845287,13.2734779 L47.8229731,13.2734779 C48.2605564,13.2734779 48.4889083,13.6331397 48.3288435,14.0695221 L48.3168249,14.1059779 C48.1562138,14.545625 47.6656398,14.9047426 47.2247787,14.9047426" id="Fill-288" fill="#00598C"></path>
                        <path d="M18.8597638,10.3828529 C17.7955787,13.2889853 15.0045509,15.6450147 12.6172361,15.6450147 C10.233199,15.6450147 9.16300458,13.2889853 10.223912,10.3828529 C11.2880972,7.474 14.0824027,5.11797059 16.4664398,5.11797059 C18.8504768,5.11797059 19.9206712,7.474 18.8597638,10.3828529" id="Fill-290" fill="#00598C"></path>
                    </g>
                </g>
                <line x1="0" y1="252.5" x2="531" y2="252.5" id="Path-7" stroke="#1F6693" stroke-width="3" stroke-linecap="round" stroke-linejoin="round"></line>
            </g>
        </g>
    </g>
</svg>