<?xml version="1.0" encoding="UTF-8"?>
<svg width="64px" height="55px" viewBox="0 0 64 55" version="1.1" xmlns="http://www.w3.org/2000/svg" xmlns:xlink="http://www.w3.org/1999/xlink">
    <!-- Generator: Sketch 64 (93537) - https://sketch.com -->
    <title>Icon Portabilidad</title>
    <desc>Created with Sketch.</desc>
    <g id="ATC-ESCRITORIO-curva" stroke="none" stroke-width="1" fill="none" fill-rule="evenodd">
        <g id="Conceptos-basicos" transform="translate(-271.000000, -783.000000)" fill="#28A0DF">
            <g id="Group-17" transform="translate(239.000000, 617.000000)">
                <g id="Group-5" transform="translate(0.000000, 140.000000)">
                    <g id="Icon-Portabilidad" transform="translate(32.000000, 26.000000)">
                        <path d="M47.024044,11 L15.975956,11 C15.4372283,11 15,10.553 15,10 C15,9.447 15.4372283,9 15.975956,9 L47.024044,9 C47.5627717,9 48,9.447 48,10 C48,10.553 47.5627717,11 47.024044,11" id="Fill-1"></path>
                        <path d="M58.032,55 L5.968,55 C2.678,55 0,52.2430484 0,48.853759 L0,15.146241 C0,11.7569516 2.678,9 5.968,9 L11.647,9 C12.199,9 12.647,9.46035015 12.647,10.0298661 C12.647,10.5993821 12.199,11.0597322 11.647,11.0597322 L5.968,11.0597322 C3.78,11.0597322 2,12.8928939 2,15.146241 L2,48.853759 C2,51.1071061 3.78,52.9402678 5.968,52.9402678 L58.032,52.9402678 C60.22,52.9402678 62,51.1071061 62,48.853759 L62,15.146241 C62,12.8928939 60.22,11.0597322 58.032,11.0597322 L52.46,11.0597322 C51.907,11.0597322 51.46,10.5993821 51.46,10.0298661 C51.46,9.46035015 51.907,9 52.46,9 L58.032,9 C61.323,9 64,11.7569516 64,15.146241 L64,48.853759 C64,52.2430484 61.323,55 58.032,55" id="Fill-3"></path>
                        <path d="M14,21.4994193 C14,22.3286876 13.3286876,23 12.4994193,23 C11.6713124,23 11,22.3286876 11,21.4994193 C11,20.6713124 11.6713124,20 12.4994193,20 C13.3286876,20 14,20.6713124 14,21.4994193" id="Fill-9"></path>
                        <path d="M42.0073098,10 C41.4593448,10 41.0146196,9.54633107 41.0146196,8.98508069 L41.0146196,5.25829697 C41.0146196,3.50857607 38.6023825,2.02983863 35.7464128,2.02983863 L28.2535872,2.02983863 C25.3986102,2.02983863 22.9853804,3.50857607 22.9853804,5.25829697 L22.9853804,8.98508069 C22.9853804,9.54633107 22.5416479,10 21.9926902,10 C21.4447252,10 21,9.54633107 21,8.98508069 L21,5.25829697 C21,2.30995636 24.1865355,0 28.2535872,0 L35.7464128,0 C39.8144572,0 43,2.30995636 43,5.25829697 L43,8.98508069 C43,9.54633107 42.5552748,10 42.0073098,10" id="Fill-6"></path>
                        <path d="M49.9621509,23 L20.0378491,23 C19.4639185,23 19,22.553 19,22 C19,21.447 19.4639185,21 20.0378491,21 L49.9621509,21 C50.5350436,21 51,21.447 51,22 C51,22.553 50.5350436,23 49.9621509,23" id="Fill-11"></path>
                        <path d="M14,32.4994193 C14,33.3286876 13.3286876,34 12.4994193,34 C11.6713124,34 11,33.3286876 11,32.4994193 C11,31.6713124 11.6713124,31 12.4994193,31 C13.3286876,31 14,31.6713124 14,32.4994193" id="Fill-13"></path>
                        <path d="M49.9621509,33 L20.0378491,33 C19.4639185,33 19,32.553 19,32 C19,31.447 19.4639185,31 20.0378491,31 L49.9621509,31 C50.5350436,31 51,31.447 51,32 C51,32.553 50.5350436,33 49.9621509,33" id="Fill-15"></path>
                        <path d="M14,42.4994193 C14,43.3286876 13.3286876,44 12.4994193,44 C11.6713124,44 11,43.3286876 11,42.4994193 C11,41.6713124 11.6713124,41 12.4994193,41 C13.3286876,41 14,41.6713124 14,42.4994193" id="Fill-17"></path>
                        <path d="M49.9621509,44 L20.0378491,44 C19.4639185,44 19,43.553 19,43 C19,42.447 19.4639185,42 20.0378491,42 L49.9621509,42 C50.5350436,42 51,42.447 51,43 C51,43.553 50.5350436,44 49.9621509,44" id="Fill-19"></path>
                        <path d="M12,11 C11.448,11 11,10.5151844 11,9.9154013 L11,8.0845987 C11,7.48590022 11.448,7 12,7 C12.552,7 13,7.48590022 13,8.0845987 L13,9.9154013 C13,10.5151844 12.552,11 12,11" id="Fill-21"></path>
                        <path d="M52,11 C51.448,11 51,10.5151844 51,9.9154013 L51,8.0845987 C51,7.48590022 51.448,7 52,7 C52.552,7 53,7.48590022 53,8.0845987 L53,9.9154013 C53,10.5151844 52.552,11 52,11" id="Fill-23"></path>
                    </g>
                </g>
            </g>
        </g>
    </g>
</svg>