<?xml version="1.0" encoding="UTF-8"?>
<svg width="53px" height="53px" viewBox="0 0 53 53" version="1.1" xmlns="http://www.w3.org/2000/svg" xmlns:xlink="http://www.w3.org/1999/xlink">
    <!-- Generator: Sketch 64 (93537) - https://sketch.com -->
    <title>Fill 8</title>
    <desc>Created with Sketch.</desc>
    <g id="ATC-ESCRITORIO-curva" stroke="none" stroke-width="1" fill="none" fill-rule="evenodd">
        <g id="T&amp;C" transform="translate(-904.000000, -1220.000000)" fill="#25A1E1">
            <g id="Group-17" transform="translate(868.000000, 914.000000)">
                <g id="Group-8" transform="translate(0.000000, 280.000000)">
                    <path d="M62.4979331,26 C70.9061696,26 77.4562437,28.2012714 81.9579986,32.5376726 C86.631308,37.0435613 89,43.7589892 89,52.4979331 C89,61.2410108 86.631308,67.9564387 81.9579986,72.4623274 C77.4562437,76.7987286 70.9061696,79 62.4979331,79 C54.0917635,79 47.5437563,76.7987286 43.0399345,72.4623274 C38.368692,67.9564387 36,61.2410108 36,52.4979331 C36,43.7589892 38.368692,37.0435613 43.0399345,32.5376726 C47.5437563,28.2012714 54.0917635,26 62.4979331,26 Z M62.4977999,27.5020669 C54.4079468,27.5020669 48.1881985,29.5415811 44.0145648,33.5634064 C39.6935228,37.7304397 37.5022001,44.0997964 37.5022001,52.4976667 C37.5022001,60.8999372 39.6935228,67.2648936 44.0145648,71.4385274 C48.1881985,75.4603526 54.4079468,77.5020669 62.4977999,77.5020669 C70.5920532,77.5020669 76.8096013,75.4603526 80.9832351,71.4385274 C85.3064772,67.271494 87.4977999,60.9021373 87.4977999,52.4976667 C87.4977999,44.0975963 85.3064772,37.73484 80.9832351,33.5612062 C76.8096013,29.5415811 70.5920532,27.5020669 62.4977999,27.5020669 Z M63.2190265,46 C65.2654867,46 65.8628319,46.3332966 65.8628319,48.2398325 L65.8628319,48.2398325 L65.8628319,60.7940042 L68.5442478,60.7940042 C69.7345133,60.7940042 71,61.0300893 71,62.398986 C71,63.7996253 69.5862832,64 68.5442478,64 L68.5442478,64 L59.4557522,64 C58.4137168,64 57,63.7996253 57,62.398986 C57,61.0300893 58.2632743,60.7940042 59.4557522,60.7940042 L59.4557522,60.7940042 L62.2876106,60.7940042 L62.2876106,49.2079797 L59.4557522,49.2079797 C58.4137168,49.2079797 57,49.007605 57,47.6049818 C57,46.2321173 58.2632743,46 59.4557522,46 L59.4557522,46 Z M64.4473576,37 C65.3445309,37 66,37.4041066 66,38.6535605 L66,38.6535605 L66,40.3442551 C66,41.593709 65.3445309,42 64.4473576,42 L64.4473576,42 L62.550594,42 C61.6554691,42 61,41.593709 61,40.3442551 L61,40.3442551 L61,38.6535605 C61,37.4041066 61.6554691,37 62.550594,37 L62.550594,37 Z" id="Fill-8"></path>
                </g>
            </g>
        </g>
    </g>
</svg>