<?xml version="1.0" encoding="UTF-8"?>
<svg width="63px" height="63px" viewBox="0 0 63 63" version="1.1" xmlns="http://www.w3.org/2000/svg" xmlns:xlink="http://www.w3.org/1999/xlink">
    <!-- Generator: Sketch 64 (93537) - https://sketch.com -->
    <title>Group 2</title>
    <desc>Created with Sketch.</desc>
    <g id="ATC-ESCRITORIO-curva" stroke="none" stroke-width="1" fill="none" fill-rule="evenodd">
        <g id="T&amp;C" transform="translate(-900.000000, -1902.000000)" fill="#49A0DF" stroke="#49A0DF" stroke-width="0.5">
            <g id="Group-17" transform="translate(868.000000, 914.000000)">
                <g id="Group-16" transform="translate(0.000000, 965.000000)">
                    <g id="Group-2" transform="translate(32.500000, 24.000000)">
                        <path d="M52.7401418,9.30285311 C51.5223833,11.9690054 48.6732799,13.6034219 45.7401211,13.1213608 C43.0265101,12.6760283 40.8590504,10.5257439 40.377718,7.82787155 C40.0557145,6.02108175 40.5546108,4.12789659 41.6924957,2.69298244 C41.5607671,2.72762405 41.4290384,2.76226567 41.2977279,2.79690728 C45.6104833,4.23432565 49.5422711,6.63336187 52.803288,9.79409627 C53.1788193,10.1572072 53.7534073,9.58499447 53.3774578,9.22104882 C50.0139852,5.96223274 45.9596689,3.4976696 41.5130938,2.01601014 C41.3897288,1.97469062 41.2019632,2.01475803 41.1183259,2.11993499 C38.9830666,4.81321626 38.9395752,8.63589767 41.1141441,11.3216663 C43.1348203,13.8166974 46.6793676,14.6848246 49.6338539,13.4306312 C51.3212357,12.7144262 52.6811776,11.3746721 53.4410221,9.7118746 C53.6559699,9.24108252 52.9567623,8.82872209 52.7401418,9.30285311" id="Fill-4"></path>
                        <path d="M60.6479201,35.5684392 C60.1484875,38.634792 59.1386311,41.6037487 57.6315404,44.3750726 L57.9999599,44.1802804 C55.3651889,44.4363509 52.9282566,42.780212 52.4319015,40.3712827 C51.9395031,37.9871082 53.5710123,35.5631636 56.1121397,34.9353648 C57.7445282,34.5319828 59.4881461,34.9313066 60.7573908,35.9515304 C61.1697745,36.2834887 61.7756003,35.7283311 61.3610185,35.3943438 C59.6455377,34.014972 57.2393803,33.5973864 55.126024,34.4199773 C53.2830472,35.1374616 51.911366,36.7246117 51.5825143,38.5495704 C51.2466282,40.4114585 51.946977,42.3569449 53.4866012,43.6149774 C54.2471808,44.236689 55.1761431,44.6847109 56.1723706,44.8774739 C56.6748807,44.9752758 57.1954161,45.0195099 57.708038,44.9919143 C57.9445651,44.9785224 58.1696615,44.9858271 58.334527,44.8125432 C58.5587441,44.577981 58.6879987,44.1758165 58.8304425,43.8925562 C60.1265054,41.3168361 61.0132621,38.586094 61.4704892,35.7778408 C61.5513832,35.2819325 60.7292538,35.0680669 60.6479201,35.5684392" id="Fill-6"></path>
                        <path d="M30.6872716,43.0027128 C30.6692592,44.0224795 29.8574464,44.7943289 28.9073991,45.0728227 C27.8848835,45.3723895 26.6805687,45.1587674 25.9139962,44.3980743 C25.2144464,43.7026661 25.1000889,42.6477778 25.6986857,41.8507235 C26.3295372,41.0102837 27.5036917,40.6710501 28.5215995,40.8425263 C29.6216101,41.0284643 30.666327,41.8308901 30.6872716,43.0027128 C30.6960683,43.5183809 31.5091379,43.5200337 31.4999222,43.0027128 C31.4764643,41.6358618 30.4480842,40.565272 29.1654366,40.1714966 C27.8509532,39.7690441 26.2809457,40.0777012 25.3112105,41.0681311 C24.3862967,42.0126962 24.2124565,43.474169 24.9966225,44.560047 C25.8147188,45.6934425 27.2858678,46.1624195 28.6497805,45.9504501 C30.1464819,45.7174078 31.4726943,44.5604602 31.4999222,43.0027128 C31.5091379,42.4866315 30.6960683,42.4866315 30.6872716,43.0027128" id="Fill-8"></path>
                        <path d="M43.7072204,29.0013154 C43.6827155,30.7511726 42.6049074,32.3964948 40.8936471,32.991262 C39.2399733,33.5664039 37.384134,33.0445307 36.2691601,31.7216243 C35.1092605,30.3446482 34.9703993,28.3256439 35.9011778,26.7972725 C36.7943822,25.3301801 38.5664964,24.5123251 40.2875587,24.8475575 C42.3010464,25.2396633 43.6798566,27.0215618 43.7072204,29.0013154 C43.7145719,29.5011602 44.5068977,29.5027622 44.5,29.0013154 C44.4713656,26.9330476 43.2089537,25.0490174 41.2216046,24.3040565 C39.2448743,23.5631007 36.9459043,24.2167438 35.6308069,25.8256191 C34.298556,27.4557218 34.1217122,29.7999456 35.2162653,31.5978647 C36.2981576,33.3745564 38.4272268,34.314569 40.4987094,33.9048404 C42.8536324,33.4390396 44.4676898,31.3110948 44.5,29.0013154 C44.5068977,28.5010702 43.7145719,28.5006696 43.7072204,29.0013154" id="Fill-10"></path>
                        <path d="M28.7337895,20.0011758 C28.7211582,20.9190964 28.1673551,21.8122598 27.2504023,22.1356268 C26.3591069,22.4494719 25.3632086,22.1630502 24.7750642,21.4489004 C24.1640255,20.7073272 24.0961323,19.632865 24.5903315,18.8185437 C25.0545315,18.053356 25.9892469,17.590206 26.9058049,17.7737901 C27.9980168,17.9927961 28.7191845,18.9457576 28.7337895,20.0011758 C28.7404998,20.476514 29.5066666,20.4780375 29.5,20.0011758 C29.4825882,18.7648397 28.7294475,17.628294 27.5207909,17.1784749 C26.3389758,16.7393203 24.9692702,17.1365781 24.1884986,18.084969 C23.3804908,19.0664965 23.2703617,20.4719434 23.9287677,21.5574511 C24.5741477,22.6216296 25.8546447,23.1910451 27.1098792,22.9419496 C28.5324783,22.6593367 29.481404,21.3651068 29.5,20.0011758 C29.5066666,19.5254568 28.7404998,19.525076 28.7337895,20.0011758" id="Fill-12"></path>
                        <path d="M8.72818111,32.4929965 C8.67887767,35.5913731 5.69164606,37.482099 2.84317978,37.1860194 C2.96723358,37.2813602 3.09128739,37.3775056 3.2153412,37.4728465 C2.3783756,34.2401076 2.10164018,30.895132 2.37280909,27.5654431 C2.2781783,27.6905529 2.18354751,27.8164671 2.08931433,27.9419792 C5.11948764,27.1852865 8.67728724,29.086874 8.72818111,32.4929965 C8.73613328,32.9950445 9.50749349,32.9966536 9.5,32.4929965 C9.44149051,28.5715506 5.40497044,26.3095184 1.88414841,27.1889071 C1.70920073,27.2327558 1.61456994,27.3956801 1.60065365,27.5654431 C1.32431584,30.960704 1.61775081,34.3845269 2.47141596,37.680424 C2.51793614,37.8602441 2.67340101,37.9491485 2.84317978,37.9668489 C6.1214607,38.3075818 9.44467137,35.9896324 9.5,32.4929965 C9.5078911,31.9905461 8.73653088,31.9901439 8.72818111,32.4929965" id="Fill-14"></path>
                        <path d="M16.6478376,53.3240043 C16.6320335,54.4366957 16.2127841,55.4599397 15.4559404,56.2857079 C15.6284691,56.2636702 15.8001199,56.2420645 15.9726487,56.2200267 C13.0541467,54.4807713 10.4460209,52.2981677 8.22334101,49.7512927 L8.22334101,50.3445841 C9.6711779,48.8689176 11.9706835,48.4018033 13.8825482,49.2526341 C15.521352,49.981609 16.6245704,51.5445623 16.6478376,53.3240043 C16.6553007,53.8632816 17.5069695,53.86501 17.5,53.3240043 C17.4722881,51.2152921 16.1618596,49.320908 14.2008265,48.4791515 C11.9698055,47.5215888 9.31426723,48.0262969 7.62058782,49.7512927 C7.45157108,49.9237058 7.46825325,50.1700103 7.62058782,50.3445841 C9.88848513,52.9424484 12.5655347,55.1699918 15.5419853,56.9442484 C15.6965148,57.0362885 15.9344553,57.0142507 16.0586936,56.8789993 C16.9678719,55.8868675 17.4810682,54.6639872 17.5,53.3240043 C17.5078475,52.784295 16.6557397,52.7838629 16.6478376,53.3240043" id="Fill-17"></path>
                        <path d="M44.8829866,56.9139301 C42.338491,58.0435471 39.6316339,58.8357509 36.8427634,59.2871448 C37.0080391,59.3724416 37.173731,59.4573611 37.339423,59.5430353 C37.0384298,57.9020147 38.2682138,56.4010168 39.9638504,55.9152777 C41.7215174,55.4121773 43.7418769,55.9798164 44.7381102,57.4151434 C45.014541,57.8133211 45.7139442,57.4457143 45.4358482,57.0452721 C44.2310428,55.3095191 41.7635648,54.5777024 39.6337154,55.2434707 C37.5454972,55.8967841 36.1916523,57.7287791 36.5605042,59.7374064 C36.5983886,59.9449872 36.8610811,60.0250002 37.0571638,59.993297 C39.9159746,59.5309579 42.6831968,58.7040314 45.2909718,57.5464854 C45.7580733,57.339282 45.3488391,56.7071041 44.8829866,56.9139301" id="Fill-19"></path>
                        <path d="M60.6985047,30.500541 C60.6757937,37.4926534 58.2064859,44.3410923 53.6758429,49.6801332 C49.1778212,54.9811915 42.8703501,58.6114256 36.0112077,59.7814567 C29.1243991,60.9564421 21.9134422,59.6394346 15.9008015,56.0839273 C10.035989,52.6155323 5.4334966,47.132405 3.09549981,40.7269595 C0.603480981,33.8983377 0.706712913,26.26052 3.39156899,19.5053864 C3.70993627,18.7032091 4.06918339,17.9183717 4.45609667,17.1471586 C4.21205638,17.1149559 3.96760317,17.0831661 3.72356288,17.0513762 C4.11171495,19.8649831 5.36247303,25.078929 9.31873358,23.7701786 C11.8235532,22.9419915 13.7378861,20.9693702 14.3209401,18.3824208 C14.4485347,17.815158 14.5435081,17.2049583 14.5104739,16.6207684 C14.2610655,16.6880638 14.0120701,16.7553592 13.7634876,16.8230674 C15.0406731,18.6404551 17.6305558,20.6105992 19.8455001,19.0611544 C21.5285935,17.8841048 21.4848232,15.5795481 21.1140141,13.7778489 C20.9897228,13.1754934 20.8076217,12.5954321 20.611481,12.0141323 C20.4153404,12.1648243 20.2191997,12.3155164 20.0226461,12.4662085 C21.0219312,13.1560892 22.3734437,13.6519281 23.6031424,13.5388058 C24.2819956,13.4764647 24.913775,13.2275131 25.4390191,12.7907125 C25.7288944,12.5500181 25.9729346,12.2585424 26.1831149,11.9468369 C26.2900631,11.7878877 26.3313559,11.6153143 26.4131156,11.459668 C26.2751977,11.7226566 26.4436723,11.5059078 26.5064373,11.3696656 C27.5622935,9.06923749 26.3350723,6.3493487 24.7473652,4.62815617 C23.5800185,3.36275557 22.0720064,2.46066738 20.4281411,1.96565422 L20.4281411,2.73810594 C28.0499611,-0.148989128 36.7185529,0.218864684 44.042652,3.81359324 C50.3947192,6.93106141 55.5104808,12.3076722 58.3084791,18.8051843 C59.8965991,22.4928052 60.6873557,26.4900674 60.6985047,30.500541 C60.7001564,31.0161969 61.5012362,31.0170226 61.5,30.500541 C61.4801769,23.2867254 58.9113535,16.2508504 54.2357729,10.7507959 C49.247193,4.88164915 42.1014787,1.06769458 34.4474504,0.195331949 C29.6484043,-0.351700937 24.7316739,0.25395736 20.2150704,1.96565422 C19.8558233,2.10148352 19.8141176,2.61755228 20.2150704,2.73810594 C22.5976634,3.45564795 24.7519074,5.18633614 25.6789301,7.53837112 C26.4135285,9.40158578 26.1983932,12.1074375 23.9533051,12.6734617 C22.7694413,12.9723687 21.3919144,12.4406115 20.4277282,11.7746764 C20.143221,11.5781574 19.7298803,11.9047257 19.8388933,12.2267526 C20.3327548,13.6928007 20.7906917,15.3487622 20.3868484,16.8907756 C20.0428796,18.2048931 18.8573641,19.0545487 17.4827277,18.7308704 C16.2175171,18.4332019 15.183959,17.4551484 14.4555545,16.4184695 C14.2453743,16.1195625 13.6846184,16.1909864 13.7085682,16.6207684 C13.7758755,17.8135066 13.3893751,19.0921185 12.7931075,20.1098061 C11.6426908,22.0741703 8.19350552,24.5302447 6.28908285,22.2083481 C5.09902514,20.7567499 4.74555901,18.6421066 4.49656359,16.838343 C4.4490769,16.4964991 3.90938036,16.4531493 3.7640298,16.7425607 C0.402385178,23.4440232 -0.409017805,31.2403771 1.54578205,38.4851568 C3.36803211,45.2398776 7.56544245,51.2295781 13.2440245,55.3065213 C19.0369876,59.4652098 26.2355567,61.4597123 33.3441075,60.9106152 C40.5711686,60.3520223 47.4559125,57.1817087 52.5786939,52.0532238 C57.5552989,47.0721281 60.6733161,40.4391996 61.3579503,33.4347015 C61.4533366,32.4591251 61.497107,31.4806588 61.5,30.500541 C61.5016492,29.9848851 60.7001564,29.9840594 60.6985047,30.500541" id="Fill-1"></path>
                    </g>
                </g>
            </g>
        </g>
    </g>
</svg>