<?xml version="1.0" encoding="UTF-8"?>
<svg width="29px" height="27px" viewBox="0 0 29 27" version="1.1" xmlns="http://www.w3.org/2000/svg" xmlns:xlink="http://www.w3.org/1999/xlink">
    <!-- Generator: Sketch 64 (93537) - https://sketch.com -->
    <title>Group</title>
    <desc>Created with Sketch.</desc>
    <g id="ATC-ESCRITORIO-curva" stroke="none" stroke-width="1" fill="none" fill-rule="evenodd">
        <g id="T&amp;C" transform="translate(-369.000000, -736.000000)">
            <g id="Group-13" transform="translate(240.000000, 511.000000)">
                <g id="Group-2">
                    <g id="Group" transform="translate(130.000000, 225.000000)">
                        <path d="M8.61305846,11.6670484 C8.10992,11.6670484 7.73041231,11.2607419 7.73041231,10.7224839 L7.73041231,4.52685484 C7.73041231,4.00558065 8.15385846,3.58185484 8.67465846,3.58185484 L17.5536738,3.58272581 C18.0740431,3.58272581 18.4970585,4.00645161 18.4970585,4.52685484 L18.4970585,10.7229194 C18.4970585,11.2437581 18.0740431,11.6679194 17.5536738,11.6679194 L10.6867815,11.6679194 C10.5295508,11.6679194 10.3839508,11.7393387 10.2878892,11.8638871 L9.11964308,13.3745806 L9.11964308,12.1791774 C9.11964308,11.8965484 8.89219692,11.6670484 8.61305846,11.6670484 M8.10647385,12.623371 L8.10647385,14.0021129 C8.10647385,14.4232258 8.48167385,14.7925161 8.90985846,14.7925161 C9.18210462,14.7925161 9.40825846,14.673629 9.58056615,14.4419516 L10.9340431,12.6913065 L17.5545354,12.6913065 C18.6331815,12.6913065 19.5106585,11.8081452 19.5106585,10.7224839 L19.5106585,4.52685484 C19.5106585,3.44119355 18.6331815,2.55846774 17.5545354,2.55846774 L8.67422769,2.55846774 C7.59515077,2.55846774 6.71681231,3.44119355 6.71681231,4.52685484 L6.71681231,10.7224839 C6.71681231,11.6313387 7.28241231,12.3956129 8.10647385,12.623371" id="Fill-1" fill="#49A0DF"></path>
                        <path d="M10.0776308,1.75212581 C10.1792923,1.32317419 10.5544923,1.02312581 10.99,1.02312581 L19.8690154,1.02399677 C20.3893846,1.02399677 20.8124,1.44815806 20.8124,1.96856129 L20.8124,8.16462581 C20.8124,8.56483548 20.5552308,8.92193226 20.1731385,9.05388387 L20.0706154,9.08872258 L20.0706154,10.1256097 L20.2511077,10.0899 C21.1634769,9.90656129 21.826,9.09656129 21.826,8.16419032 L21.826,1.96856129 C21.826,0.8829 20.9485231,0.000174193548 19.8698769,0.000174193548 L10.9895692,0.000174193548 C10.0293846,0.000174193548 9.20273846,0.728303226 9.06704615,1.69507742 L9.04249231,1.86883548 L10.0500615,1.86883548 L10.0776308,1.75212581 Z" id="Fill-3" fill="#49A0DF"></path>
                        <g id="Group-7" transform="translate(0.000000, 14.900865)">
                            <polygon id="Clip-6" points="0 0.286983871 27.9164073 0.286983871 27.9164073 11.7580645 0 11.7580645"></polygon>
                            <path d="M26.4542277,5.51670968 C22.5144123,7.54258065 15.8801354,10.7560161 14.8518892,10.7560161 C13.4777354,10.7560161 12.5610585,10.2826452 12.5537354,10.2791613 L5.81521231,8.05906452 L5.81521231,2.18133871 L9.64001231,2.18133871 C10.5786585,2.31546774 13.0840123,2.87985484 13.9356431,3.95637097 L14.0842585,4.1445 L17.2857354,4.1445 L17.3378585,4.14145161 C17.5816738,4.1175 18.2877046,4.11837097 18.6288738,4.42930645 C18.7145969,4.50769355 18.82832,4.6466129 18.82832,4.9518871 C18.82832,5.86422581 18.1748431,5.87859677 18.1472738,5.87859677 C18.1093662,5.87859677 17.9745354,5.88643548 17.7638892,5.89906452 C16.6434585,5.967 13.2334892,6.17429032 11.45872,5.88512903 C11.18992,5.84027419 10.9344738,6.02709677 10.8913969,6.30014516 C10.8478892,6.57362903 11.0318277,6.83056452 11.30192,6.8741129 C12.0454277,6.99474194 13.0396431,7.03437097 14.0416123,7.03437097 C15.5764431,7.03437097 17.1289354,6.94117742 17.8229046,6.89893548 C17.9629046,6.89022581 18.0619815,6.88412903 18.1149662,6.88195161 C18.1696738,6.89240323 18.2256738,6.89893548 18.2842585,6.88935484 C18.3553354,6.87890323 20.0685046,6.61108065 23.6339815,5.19096774 C23.7576123,5.14175806 23.9045046,5.07251613 24.0677662,4.99543548 C24.8082585,4.64487097 25.8214277,4.16627419 26.6239508,4.70627419 C26.8664738,4.87001613 26.9276431,4.99108065 26.9255436,5.03724194 C26.9194585,5.16658065 26.6631508,5.40348387 26.4542277,5.51670968 L26.4542277,5.51670968 Z M4.82487385,8.71708065 C4.82487385,8.72622581 4.81712,8.73362903 4.80807385,8.73362903 L1.69275077,8.73362903 C1.30548923,8.73362903 0.990596923,8.41529032 0.990596923,8.02422581 L0.990596923,1.99843548 C0.990596923,1.60693548 1.30548923,1.28903226 1.69275077,1.28903226 L4.82487385,1.30558065 L4.82487385,8.71708065 Z M27.1731815,3.87275806 C25.9062892,3.02008065 24.4929354,3.6881129 23.6477662,4.08832258 C23.5056123,4.1553871 23.3785354,4.21591935 23.2708431,4.25859677 C21.7691815,4.85695161 20.60352,5.24496774 19.7656738,5.49232258 C19.7997046,5.33032258 19.8190892,5.15133871 19.8190892,4.9518871 C19.8190892,4.43627419 19.6355815,3.99687097 19.2888123,3.68245161 C18.5965662,3.05491935 17.4881969,3.12024194 17.2611815,3.14245161 L14.5460431,3.14245161 C13.1490585,1.66616129 9.88468923,1.20367742 9.74081231,1.18408065 L5.80272,1.17972581 C5.74068923,0.678483871 5.32068923,0.286983871 4.80807385,0.286983871 L1.69275077,0.286983871 C0.759273846,0.286983871 -0.000172307692,1.05474194 -0.000172307692,1.99843548 L-0.000172307692,8.02422581 C-0.000172307692,8.96791935 0.759273846,9.73567742 1.69275077,9.73567742 L4.80807385,9.73567742 C5.23367385,9.73567742 5.59638154,9.4661129 5.74370462,9.08854839 L12.1333046,11.1867097 C12.35472,11.2955806 13.37952,11.7580645 14.8518892,11.7580645 C16.4211815,11.7580645 25.1662277,7.30306452 26.90912,6.40683871 C27.0077662,6.35414516 27.8744738,5.87206452 27.9149662,5.08993548 C27.9313354,4.77377419 27.8158892,4.30562903 27.1731815,3.87275806 L27.1731815,3.87275806 Z" id="Fill-5" fill="#49A0DF"></path>
                        </g>
                    </g>
                </g>
            </g>
        </g>
    </g>
</svg>