<?xml version="1.0" encoding="UTF-8"?>
<svg width="72px" height="74px" viewBox="0 0 72 74" version="1.1" xmlns="http://www.w3.org/2000/svg" xmlns:xlink="http://www.w3.org/1999/xlink">
    <!-- Generator: Sketch 64 (93537) - https://sketch.com -->
    <title>Group</title>
    <desc>Created with Sketch.</desc>
    <g id="ATC-ESCRITORIO-curva" stroke="none" stroke-width="1" fill="none" fill-rule="evenodd">
        <g id="T&amp;C" transform="translate(-270.000000, -1213.000000)">
            <g id="Group-13" transform="translate(240.000000, 511.000000)">
                <g id="Group-10" transform="translate(0.000000, 674.000000)">
                    <g id="Group" transform="translate(30.000000, 27.000000)">
                        <path d="M35.72292,18.8693952 C36.17652,18.8693952 36.60132,18.9335081 37.00212,19.0460081 L37.00212,10.6556855 C36.60132,10.7693952 36.17652,10.8322984 35.72292,10.8322984 C35.41572,10.8322984 35.12532,10.7960081 34.84332,10.7439919 L34.84332,18.9577016 C35.12532,18.9056855 35.41572,18.8693952 35.72292,18.8693952" id="Fill-1" fill="#28A0DF"></path>
                        <path d="M34.84284,56.7025403 L34.84284,65.0916532 C35.30124,65.0154435 35.79204,64.9706855 36.32244,64.9706855 C36.55644,64.9706855 36.78324,64.9791532 37.00284,64.9936694 L37.00284,56.4049597 C36.36804,56.5864113 35.64924,56.6928629 34.84284,56.7025403" id="Fill-3" fill="#28A0DF"></path>
                        <path d="M50.39064,50.8170968 C50.05584,51.4691129 49.60344,52.0521774 49.03464,52.53 L54.84744,58.3896774 C55.29744,57.8308065 55.86144,57.3590323 56.53704,57.0130645 L50.39064,50.8170968 Z" id="Fill-5" fill="#28A0DF"></path>
                        <path d="M22.66992,22.8740323 L16.94472,17.1026613 C16.57992,17.7304839 16.10232,18.2893548 15.50832,18.7345161 L21.14952,24.42 C21.54312,23.8139516 22.04952,23.2877419 22.66992,22.8740323" id="Fill-7" fill="#28A0DF"></path>
                        <path d="M61.88208,36.8054032 L54.05928,36.8054032 C54.10248,37.4501613 54.08088,38.1045968 53.99808,38.7408871 L61.88208,38.7408871 C62.18088,38.7408871 62.42328,38.3066129 62.42328,37.7731452 C62.42328,37.2384677 62.18088,36.8054032 61.88208,36.8054032" id="Fill-9" fill="#28A0DF"></path>
                        <path d="M17.84712,36.8054032 L9.61752,36.8054032 C9.31632,36.8054032 9.07272,37.2384677 9.07272,37.7731452 C9.07272,38.3066129 9.31632,38.7408871 9.61752,38.7408871 L17.78592,38.7408871 C17.74272,38.0949194 17.76432,37.4404839 17.84712,36.8054032" id="Fill-11" fill="#28A0DF"></path>
                        <path d="M50.69772,24.4192742 L56.18652,18.8862097 C55.51092,18.5402419 54.94692,18.0684677 54.49692,17.5095968 L49.17612,22.8720968 C49.79772,23.2858065 50.30532,23.8132258 50.69772,24.4192742" id="Fill-13" fill="#28A0DF"></path>
                        <path d="M21.14772,51.1266532 L15.25812,57.0625403 C15.84012,57.5234274 16.30692,58.0943952 16.65732,58.7331048 L22.66932,52.6738306 C22.04772,52.260121 21.54012,51.7327016 21.14772,51.1266532" id="Fill-15" fill="#28A0DF"></path>
                        <path d="M49.44612,51.8779839 L49.45812,51.8779839 L49.44612,51.8779839 Z M35.81532,20.1420968 C30.17412,20.1420968 25.84572,21.5622581 22.94892,24.3662903 C19.93332,27.2828226 18.39612,31.7791935 18.3792006,37.7295968 C18.36372,43.68 19.87692,48.1812097 22.87692,51.108629 C25.77492,53.9404839 30.12852,55.3824194 35.81652,55.3993548 C41.46372,55.38 45.86532,53.9937097 48.78252,51.1787903 C51.80172,48.2634677 53.34132,43.7695161 53.3570217,37.8227419 C53.37132,31.8735484 51.85692,27.3687097 48.85332,24.4340323 C45.95172,21.6021774 41.59692,20.1578226 35.90892,20.1420968 L35.81532,20.1420968 Z M35.90892,57.3348387 L35.81052,57.3348387 C29.60892,57.3179032 24.80772,55.6908871 21.54132,52.4997581 C18.15252,49.1912903 16.44252,44.2207258 16.4591974,37.7247581 C16.47732,31.2287903 18.21372,26.2642742 21.61932,22.9703226 C24.88572,19.8082258 29.66172,18.2066129 35.81652,18.2066129 L35.91492,18.2066129 C42.11652,18.2235484 46.91892,19.8505645 50.19012,23.0453226 C53.58252,26.358629 55.29372,31.3340323 55.2758605,37.8275806 C55.25892,44.321129 53.52132,49.2820161 50.10972,52.5771774 C46.83972,55.7344355 42.06132,57.3348387 35.90892,57.3348387 L35.90892,57.3348387 Z" id="Fill-17" fill="#28A0DF"></path>
                        <g id="Group-21" transform="translate(0.000000, 31.992702)">
                            <polygon id="Clip-20" points="0 0.265282258 10.5357988 0.265282258 10.5357988 10.8874597 0 10.8874597"></polygon>
                            <path d="M5.26056,2.20076613 C4.09896,2.20076613 3.23856,2.48141129 2.70696,3.03423387 C2.18736,3.57495968 1.92336,4.42778226 1.91974356,5.56850806 C1.91736,6.70923387 2.17776,7.56205645 2.69376,8.10399194 C3.22536,8.6628629 4.08936,8.94834677 5.26056,8.95197581 C6.41016,8.94229839 7.29576,8.67495968 7.82976,8.11850806 C8.34816,7.57778226 8.61336,6.72616935 8.61577651,5.58665323 C8.61816,4.44592742 8.35896,3.59310484 7.84296,3.04875 C7.31016,2.48866935 6.44736,2.20439516 5.27856,2.20076613 L5.26056,2.20076613 Z M5.27736,10.8874597 L5.25576,10.8874597 C3.54216,10.8814113 2.21496,10.395121 1.30896,9.44310484 C0.43536,8.52737903 -0.00504,7.2221371 -0.000278815896,5.56366935 C0.00456,3.90399194 0.45096,2.59995968 1.32816,1.6878629 C2.23656,0.744314516 3.56016,0.265282258 5.26056,0.265282258 L5.28336,0.265282258 C6.99456,0.26891129 8.32176,0.75641129 9.22896,1.7096371 L9.23016,1.71084677 C10.10016,2.62899194 10.54056,3.93423387 10.5357988,5.59149194 C10.53216,7.24995968 10.08576,8.55399194 9.20856,9.46487903 C8.30256,10.4084274 6.98016,10.8874597 5.27736,10.8874597 L5.27736,10.8874597 Z" id="Fill-19" fill="#28A0DF"></path>
                        </g>
                        <g id="Group-24" transform="translate(61.200000, 31.992702)">
                            <polygon id="Clip-23" points="0.200699512 0.26436136 10.7352 0.26436136 10.7352 10.8874597 0.200699512 10.8874597"></polygon>
                            <path d="M5.46036,2.20076613 C4.29876,2.20076613 3.43956,2.48141129 2.90676,3.03423387 C2.38716,3.57495968 2.12316,4.42778226 2.11954356,5.56850806 C2.11716,6.70923387 2.37756,7.56205645 2.89356,8.10399194 C3.42516,8.6628629 4.28916,8.94834677 5.46036,8.95197581 L5.47956,8.95197581 C6.63996,8.95197581 7.49796,8.67133065 8.02956,8.11850806 C8.54796,7.57778226 8.81316,6.72616935 8.81559699,5.58665323 C8.81916,4.44592742 8.55996,3.59310484 8.04276,3.04875 C7.50996,2.48866935 6.64716,2.20439516 5.47836,2.20076613 L5.46036,2.20076613 Z M5.47836,10.8874597 L5.45556,10.8874597 C3.74196,10.8814113 2.41476,10.395121 1.50876,9.44310484 C0.63516,8.52737903 0.19476,7.2221371 0.200699512,5.56366935 C0.20436,3.90399194 0.65076,2.59995968 1.52796,1.6878629 C2.43996,0.740685484 3.71556,0.239879032 5.48316,0.265282258 C7.19316,0.26891129 8.52156,0.75641129 9.42876,1.7096371 L9.42996,1.71084677 C10.30116,2.62899194 10.74036,3.93544355 10.7355989,5.59149194 C10.73196,7.24995968 10.28556,8.55278226 9.40956,9.46487903 C8.50236,10.4084274 7.17996,10.8874597 5.47836,10.8874597 L5.47836,10.8874597 Z" id="Fill-22" fill="#28A0DF"></path>
                        </g>
                        <g id="Group-27" transform="translate(30.000000, 0.541089)">
                            <polygon id="Clip-26" points="0.599738048 0.668951613 11.1357988 0.668951613 11.1357988 11.2902823 0.599738048 11.2902823"></polygon>
                            <path d="M5.85936,2.60358871 C4.69896,2.60358871 3.83856,2.88423387 3.30696,3.43826613 C2.78736,3.97899194 2.52336,4.83181452 2.51974356,5.97133065 C2.51736,7.11205645 2.77776,7.96487903 3.29376,8.50802419 C3.82536,9.06689516 4.68936,9.35116935 5.85936,9.35479839 L5.87736,9.35479839 C7.04016,9.35479839 7.89816,9.07415323 8.42976,8.52133065 C8.94816,7.98060484 9.21336,7.13020161 9.21577651,5.99068548 C9.21816,4.84875 8.95896,3.99471774 8.44296,3.45278226 L8.44176,3.45157258 C7.91136,2.89270161 7.04856,2.60721774 5.87736,2.60358871 L5.85936,2.60358871 Z M5.87736,11.2902823 L5.85576,11.2902823 C4.14336,11.2866532 2.81496,10.8003629 1.90896,9.8471371 C1.03536,8.93020161 0.59616,7.62375 0.599738048,5.96649194 C0.60456,4.30802419 1.05096,3.00399194 1.92816,2.09189516 C2.84016,1.14350806 4.15056,0.677782258 5.88336,0.668104839 C7.59696,0.674153226 8.92416,1.16044355 9.83016,2.11487903 C10.70016,3.03181452 11.14056,4.33705645 11.1357988,5.99552419 C11.13216,7.65399194 10.68456,8.95681452 9.80856,9.86770161 C8.90256,10.81125 7.58016,11.2902823 5.87736,11.2902823 L5.87736,11.2902823 Z" id="Fill-25" fill="#28A0DF"></path>
                        </g>
                        <g id="Group-30" transform="translate(30.000000, 63.444315)">
                            <polygon id="Clip-29" points="0.599721184 0.263586817 11.1357988 0.263586817 11.1357988 10.8870968 0.599721184 10.8870968"></polygon>
                            <path d="M5.86056,2.20076613 C4.69896,2.20076613 3.83856,2.48141129 3.30696,3.03423387 C2.78736,3.57495968 2.52336,4.42778226 2.51974356,5.56850806 C2.51736,6.70923387 2.77776,7.56205645 3.29376,8.10399194 C3.82536,8.6628629 4.68936,8.94834677 5.86056,8.95197581 L5.87856,8.95197581 C7.04016,8.95197581 7.89816,8.67133065 8.42976,8.11850806 C8.94816,7.57778226 9.21336,6.72616935 9.21577651,5.58665323 C9.21816,4.44592742 8.95896,3.59310484 8.44296,3.04875 C7.91016,2.48866935 7.04736,2.20439516 5.87856,2.20076613 L5.86056,2.20076613 Z M5.87736,10.8874597 L5.85576,10.8874597 C4.14216,10.8814113 2.81496,10.395121 1.90896,9.44310484 C1.03536,8.52737903 0.59496,7.2221371 0.599721184,5.56366935 C0.60456,3.90399194 1.05096,2.59995968 1.92816,1.6878629 C2.84016,0.740685484 4.17336,0.230201613 5.88336,0.265282258 C7.59456,0.26891129 8.92176,0.75641129 9.82896,1.7096371 L9.83016,1.71084677 C10.70016,2.62899194 11.14056,3.93423387 11.1357988,5.59149194 C11.13216,7.24995968 10.68576,8.55399194 9.80856,9.46487903 C8.90256,10.4084274 7.58016,10.8874597 5.87736,10.8874597 L5.87736,10.8874597 Z" id="Fill-28" fill="#28A0DF"></path>
                        </g>
                        <path d="M13.4028,11.8250806 C12.2412,11.8250806 11.3808,12.1057258 10.8492,12.6597581 C10.3296,13.2016935 10.0644,14.0533065 10.0619836,15.1928226 C10.0596,16.3335484 10.32,17.186371 10.836,17.7283065 C11.3676,18.2871774 12.2316,18.5726613 13.4028,18.5763251 C14.5812,18.5799194 15.4368,18.2992742 15.972,17.7428226 C16.4904,17.2020968 16.7556,16.3504839 16.7580165,15.2109677 C16.7604,14.0702419 16.5012,13.2162097 15.984,12.6718548 C15.4524,12.1129839 14.5896,11.8287097 13.4208,11.8250806 L13.4028,11.8250806 Z M13.4196,20.5117742 L13.398,20.5117742 C11.6844,20.5057258 10.3572,20.0194355 9.4512,19.0674194 C8.5776,18.1516935 8.1372,16.8464516 8.14196118,15.1879839 C8.1468,13.5307258 8.5932,12.2266935 9.4704,11.3133871 C10.3776,10.368629 11.7012,9.88959677 13.4028,9.88959677 L13.4256,9.88959677 C15.1368,9.89322581 16.464,10.3807258 17.3712,11.3339516 L17.3724,11.3351613 C18.2424,12.2533065 18.6828,13.5585484 18.6780388,15.2158065 C18.6744,16.8742742 18.228,18.1783065 17.3508,19.0891935 C16.4448,20.0327419 15.1224,20.5117742 13.4196,20.5117742 L13.4196,20.5117742 Z" id="Fill-31" fill="#28A0DF"></path>
                        <path d="M58.0026,11.8250806 C56.841,11.8250806 55.9806,12.1057258 55.449,12.6597581 C54.9294,13.2004839 54.6654,14.0533065 54.6617836,15.1928226 C54.6594,16.3335484 54.9198,17.186371 55.4358,17.7283065 C55.9674,18.2871774 56.8314,18.5726613 58.0026,18.5763251 C59.1678,18.5799194 60.0378,18.2992742 60.5718,17.7428226 C61.0902,17.2020968 61.3554,16.3504839 61.357837,15.2109677 C61.3614,14.0702419 61.1022,13.2174194 60.585,12.6730645 C60.0522,12.1129839 59.1894,11.8287097 58.0206,11.8250806 L58.0026,11.8250806 Z M58.0194,20.5117742 L57.9978,20.5117742 C56.2842,20.5057258 54.957,20.0194355 54.051,19.0674194 C53.1774,18.1516935 52.737,16.8464516 52.7417612,15.1879839 C52.7466,13.5295161 53.193,12.2254839 54.0702,11.3133871 C54.9774,10.368629 56.301,9.88959677 58.0026,9.88959677 L58.0254,9.88959677 C59.7354,9.89322581 61.0638,10.3807258 61.971,11.3339516 L61.9722,11.3351613 C62.8434,12.2533065 63.2826,13.5597581 63.2778389,15.2158065 C63.2742,16.8742742 62.8278,18.1770968 61.9518,19.0891935 C61.0446,20.0327419 59.721,20.5117742 58.0194,20.5117742 L58.0194,20.5117742 Z" id="Fill-33" fill="#28A0DF"></path>
                        <path d="M13.39692,57.6924194 C12.23892,57.6924194 11.38092,57.9730645 10.84812,58.5258871 C10.32972,59.0678226 10.06452,59.9194355 10.0621036,61.0589516 C10.05972,62.2008871 10.32012,63.0537097 10.83612,63.5956452 C11.36772,64.1545161 12.23172,64.4387903 13.40172,64.4424194 C14.58012,64.4303226 15.43812,64.1678226 15.97212,63.6101613 C16.49052,63.0694355 16.75572,62.2178226 16.7581364,61.0783065 C16.76052,59.9375806 16.50012,59.0835484 15.98412,58.5391935 C15.45132,57.9803226 14.58972,57.6960484 13.42092,57.6924194 L13.39692,57.6924194 Z M13.42572,66.3779032 L13.39692,66.3779032 C11.68572,66.3742742 10.35732,65.8879839 9.45012,64.9347581 C8.57772,64.0190323 8.13852,62.7137903 8.14209805,61.0541129 C8.14692,59.3956452 8.59332,58.0928226 9.47052,57.1795161 C10.37892,56.2359677 11.69892,55.7569355 13.39692,55.7569355 L13.42572,55.7569355 C15.13692,55.7605645 16.46412,56.2480645 17.37132,57.2012903 L17.37252,57.2025 C18.24252,58.1206452 18.68292,59.4258871 18.6781588,61.0831452 C18.67332,62.7416129 18.22692,64.0456452 17.34972,64.9565323 C16.44492,65.898871 15.12492,66.3779032 13.42572,66.3779032 L13.42572,66.3779032 Z" id="Fill-35" fill="#28A0DF"></path>
                        <path d="M57.99672,57.6924194 C56.83872,57.6924194 55.98072,57.9730645 55.44792,58.5258871 C54.92952,59.0666129 54.66552,59.9194355 54.6619036,61.0589516 C54.65952,62.2008871 54.91992,63.0537097 55.43592,63.5956452 C55.96752,64.1545161 56.83152,64.4387903 58.00152,64.4424194 C59.20272,64.4303226 60.03792,64.1678226 60.57192,63.6101613 C61.09032,63.0694355 61.35552,62.2178226 61.3579568,61.0783065 C61.36152,59.9375806 61.10112,59.0847581 60.58512,58.5404032 C60.05232,57.9803226 59.18952,57.6960484 58.02072,57.6924194 L57.99672,57.6924194 Z M58.02552,66.3779032 L57.99672,66.3779032 C56.28552,66.3742742 54.95712,65.8879839 54.04992,64.9347581 C53.17752,64.0190323 52.73712,62.7137903 52.7418812,61.0541129 C52.74672,59.3956452 53.19312,58.0916129 54.07032,57.1795161 C54.97872,56.2359677 56.29872,55.7569355 57.99672,55.7569355 L58.02552,55.7569355 C59.73552,55.7605645 61.06392,56.2480645 61.97112,57.2012903 L61.97232,57.2025 C62.84352,58.1206452 63.28272,59.4270968 63.2779589,61.0831452 C63.27312,62.7416129 62.82672,64.0444355 61.95072,64.9565323 C61.04472,65.898871 59.72352,66.3779032 58.02552,66.3779032 L58.02552,66.3779032 Z" id="Fill-37" fill="#28A0DF"></path>
                        <path d="M26.13816,45.0841935 C26.02416,45.0841935 25.90896,45.063629 25.79616,45.0212903 C25.30056,44.8301613 25.05216,44.2712903 25.24056,43.7716935 C25.48296,43.1329839 26.86176,39.5245161 28.14816,36.1591935 L30.13176,30.9708871 C30.33096,30.4507258 30.81336,30.1144355 31.36416,30.1095968 L31.37496,30.1095968 C31.92336,30.1095968 32.41176,30.4422581 32.61816,30.956371 L37.76256,43.7523387 C37.96176,44.2495161 37.72416,44.8120161 37.23336,45.0128226 C36.74136,45.2172581 36.18216,44.9741129 35.98296,44.4805645 L31.39056,33.0587903 L29.93976,36.8559677 C28.65456,40.218871 27.27696,43.8225 27.03576,44.4612097 C26.88936,44.8470968 26.52456,45.0841935 26.13816,45.0841935" id="Fill-39" fill="#28A0DF"></path>
                        <path d="M42.77292,45.1916129 C42.24252,45.1916129 41.81292,44.7585484 41.81292,44.223871 L41.81292,30.9682258 C41.81292,30.4347581 42.24252,30.0004839 42.77292,30.0004839 C43.30332,30.0004839 43.73292,30.4347581 43.73292,30.9682258 L43.73292,44.223871 C43.73292,44.7585484 43.30332,45.1916129 42.77292,45.1916129" id="Fill-41" fill="#28A0DF"></path>
                        <path d="M31.49772,41.4019355 L31.29132,41.4019355 C30.73212,41.4019355 30.27852,40.9446774 30.27852,40.3809677 L30.27852,40.1729032 C30.27852,39.6104032 30.73212,39.1531452 31.29132,39.1531452 L31.49772,39.1531452 C32.05692,39.1531452 32.51052,39.6104032 32.51052,40.1729032 L32.51052,40.3809677 C32.51052,40.9446774 32.05692,41.4019355 31.49772,41.4019355" id="Fill-43" fill="#28A0DF"></path>
                    </g>
                </g>
            </g>
        </g>
    </g>
</svg>