<?xml version="1.0" encoding="UTF-8"?>
<svg width="65px" height="60px" viewBox="0 0 65 60" version="1.1" xmlns="http://www.w3.org/2000/svg" xmlns:xlink="http://www.w3.org/1999/xlink">
    <!-- Generator: Sketch 64 (93537) - https://sketch.com -->
    <title>Group</title>
    <desc>Created with Sketch.</desc>
    <g id="ATC-ESCRITORIO-curva" stroke="none" stroke-width="1" fill="none" fill-rule="evenodd">
        <g id="T&amp;C" transform="translate(-279.000000, -1669.000000)">
            <g id="Group-13" transform="translate(240.000000, 511.000000)">
                <g id="Group-4" transform="translate(-0.000000, 1129.000000)">
                    <g id="Group" transform="translate(39.000000, 28.000000)">
                        <g id="Group-3" transform="translate(0.000000, 0.023700)">
                            <polygon id="Clip-2" points="0 0.976480329 64.6391582 0.976480329 64.6391582 61 0 61"></polygon>
                            <path d="M8.76860156,2.78848402 C5.00266406,2.7805 1.94055469,5.7775 1.92430469,9.4845 L1.8409876,40.0895 C1.82985156,43.9795 4.43188281,46.8095 8.02821094,46.8195 C8.53602344,46.8205 8.94735156,47.2275 8.94633594,47.7275 L8.91586719,58.6405 C8.91586719,58.8465 9.23883594,59.1845 9.60750781,59.185515 C9.78219531,59.1865 9.99547656,59.1385 10.2453203,58.7785 C10.6424297,58.2095 18.1164141,47.3535 18.1936016,47.2445 C18.3662578,46.9955 18.6516484,46.8455 18.9583672,46.8465 L55.8793828,46.9445 C59.6422734,46.9485 62.6993047,43.9555 62.7145391,40.2505 L62.7988451,9.6455 C62.8049297,5.9395 59.7621172,2.9285 55.9971953,2.9145 L8.76860156,2.78848402 Z M9.60242969,61.0005144 C8.25266406,60.9965 7.07149219,59.8925 7.07555469,58.6365 L7.10196094,48.5815 C5.19969531,48.3855 3.44164844,47.4935 2.17414844,46.0835 C0.766492188,44.5175 -0.0074140625,42.3875 -0.000353237439,40.0845 L0.0839921875,9.4795 C0.103289063,4.7705 3.99110156,0.9665 8.77367969,0.976480329 L56.0053203,1.1015 C60.7848516,1.1205 64.6462578,4.9445 64.6391582,9.6505 L64.5558672,40.2555 C64.5375859,44.9625 60.6528203,48.7675 55.8712578,48.7595 L19.4407891,48.6615 C18.0615703,50.6675 12.1242266,59.2885 11.7636797,59.8075 C11.0750859,60.7965 10.2087578,61.0025 9.60242969,61.0005144 L9.60242969,61.0005144 Z" id="Fill-1" fill="#2FA0DF"></path>
                        </g>
                        <path d="M31.9712656,12.4528 L32.7522813,12.9208 L19.2607188,34.7288 C18.9407969,35.2478 19.108375,35.9258 19.6344688,36.2408 C19.8091563,36.3468 20.01025,36.4008 20.2154063,36.4008 L45.4618125,36.4008 C46.0782969,36.4008 46.579,35.9078 46.579,35.3018 C46.579,35.0998 46.5231406,34.9018 46.4165,34.7288 L32.9249375,12.9208 C32.8965,12.8738 32.8335313,12.8598 32.7857969,12.8878 L31.9712656,12.4528 Z M45.4618125,38.2018 L20.2154063,38.2018 C19.6740781,38.2018 19.1439219,38.0558 18.6828281,37.7778 C18.0115,37.3758 17.5392344,36.7388 17.353375,35.9858 C17.1675156,35.2338 17.2904063,34.4548 17.6997031,33.7938 L31.1912656,11.9828 C31.3517344,11.7248 31.5741563,11.5068 31.8351719,11.3498 C32.2749375,11.0858 32.7929063,11.0068 33.294625,11.1268 C33.7953281,11.2468 34.2188438,11.5518 34.4869688,11.9848 L47.9775156,33.7938 C48.2588438,34.2478 48.407125,34.7688 48.407125,35.3018 C48.407125,36.8998 47.0857969,38.2018 45.4618125,38.2018 L45.4618125,38.2018 Z" id="Fill-4" fill="#2FA0DF"></path>
                        <path d="M31.7500625,29.1891 L31.746,21.5901 C31.746,21.1611 32.1004531,20.8111 32.5371719,20.8111 L33.0500625,20.8111 C33.4867812,20.8111 33.8412344,21.1601 33.8412344,21.5891 L33.8463147,29.1881 C33.8473281,29.6191 33.492875,29.9671 33.0561563,29.9671 L32.5402188,29.9671 C32.1045156,29.9671 31.7500625,29.6191 31.7500625,29.1891 L31.7500625,29.1891 Z M32.7920938,34.1341 C32.0212344,34.1341 31.6190469,33.8341 31.6190469,33.0431 L31.6190469,32.8531 C31.6190469,32.0621 32.0212344,31.7611 32.7920938,31.7611 L32.9048281,31.7611 C33.6756875,31.7611 34.077875,32.0621 34.077875,32.8531 L34.077875,33.0431 C34.077875,33.8341 33.6756875,34.1341 32.9048281,34.1341 L32.7920938,34.1341 Z" id="Fill-6" fill="#2FA0DF"></path>
                    </g>
                </g>
            </g>
        </g>
    </g>
</svg>