<svg width="1053" height="827" xmlns="http://www.w3.org/2000/svg">
 <title/>

 <g>
  <title>background</title>
  <rect fill="none" id="canvas_background" height="829" width="1055" y="-1" x="-1"/>
 </g>
 <g>
  <title>Layer 1</title>
  <path stroke="null" id="svg_3" d="m209.001425,401.834249c0,-156.077385 129.480696,-282.500066 289.333407,-282.500066c159.852711,0 289.333407,126.422681 289.333407,282.500066c0,156.077385 -129.480696,282.500066 -289.333407,282.500066c-159.852711,0 -289.333407,-126.422681 -289.333407,-282.500066z" stroke-opacity="null" stroke-linecap="null" stroke-linejoin="null" stroke-width="null" fill="#00ff00"/>
  <g id="icomoon-ignore"/>
  <path fill="#ffffff" id="svg_1" d="m500.501465,145.334299c-141.385,0 -256,114.615 -256,256s114.615,256 256,256s256,-114.615 256,-256s-114.615,-256 -256,-256zm0,464c-114.875,0 -208,-93.125 -208,-208s93.125,-208 208,-208s208,93.125 208,208s-93.125,208 -208,208z"/>
  <path fill="#ffffff" id="svg_2" d="m421.873495,492.039582l45.256,45.256l142.627,-142.628l-142.628,-142.627l-45.254,45.254l97.372,97.373l-97.373,97.372z"/>
 </g>
</svg>