<?xml version="1.0" encoding="utf-8"?>
<!-- Generator: Adobe Illustrator 16.0.0, SVG Export Plug-In . SVG Version: 6.00 Build 0)  -->
<!DOCTYPE svg PUBLIC "-//W3C//DTD SVG 1.1//EN" "http://www.w3.org/Graphics/SVG/1.1/DTD/svg11.dtd">
<svg version="1.1" id="Capa_1" xmlns="http://www.w3.org/2000/svg" xmlns:xlink="http://www.w3.org/1999/xlink" x="0px" y="0px"
	 width="127.901px" height="127.904px" viewBox="0 0 127.901 127.904" enable-background="new 0 0 127.901 127.904"
	 xml:space="preserve">
<path fill-rule="evenodd" clip-rule="evenodd" fill="#E0426F" d="M80.482,117.308c9.652-10.676,15.516-18.356,23.157-31.081
	c8.937-14.882,15.305-29.892,18.586-44.669c3.14-14.135,1.097-26.465-7.157-34.056c-9.14-8.401-24.965-10.237-40.08-1.243
	c-2.811,1.674-5.585,3.396-8.283,5.115c-0.8,0.485-1.74,0.768-2.748,0.768c-1.021,0-1.973-0.288-2.78-0.789
	c-2.69-1.711-5.452-3.425-8.255-5.094C37.812-2.735,21.983-0.899,12.843,7.502C4.588,15.093,2.535,27.423,5.672,41.558
	c3.284,14.777,9.642,29.787,18.576,44.669c7.642,12.725,13.505,20.405,23.16,31.081c1.912,2.113,4.739,4.987,6.875,6.632
	c2.106,1.623,4.488,2.79,6.886,3.331c0.659,0.17,1.335,0.266,2.017,0.308c0.024,0,0.044,0.003,0.065,0.005
	c0.235,0.011,0.468,0.014,0.706,0.014c0.235,0,0.47-0.003,0.702-0.014c0.021-0.002,0.042-0.005,0.066-0.005
	c0.684-0.042,1.357-0.138,2.016-0.308c2.398-0.541,4.781-1.708,6.886-3.331c2.137-1.645,4.966-4.519,6.878-6.632"/>
</svg>
