<?xml version="1.0" encoding="UTF-8"?>
<svg width="187px" height="196px" viewBox="0 0 187 196" version="1.1" xmlns="http://www.w3.org/2000/svg" xmlns:xlink="http://www.w3.org/1999/xlink">
    <!-- Generator: Sketch 64 (93537) - https://sketch.com -->
    <title>Group</title>
    <desc>Created with Sketch.</desc>
    <defs>
        <rect id="path-1" x="0" y="0" width="196" height="196"></rect>
        <polygon id="path-3" points="0.430296809 0.0588107343 66.7355638 0.0588107343 66.7355638 18.3475259 0.430296809 18.3475259"></polygon>
    </defs>
    <g id="ATC-ESCRITORIO-curva" stroke="none" stroke-width="1" fill="none" fill-rule="evenodd">
        <g id="Autoridades" transform="translate(-261.000000, -913.000000)">
            <g id="Group-2-Copy" transform="translate(240.000000, 893.000000)">
                <g id="Group" transform="translate(13.000000, 20.000000)">
                    <mask id="mask-2" fill="white">
                        <use xlink:href="#path-1"></use>
                    </mask>
                    <g id="Rectangle"></g>
                    <g id="Group-39" mask="url(#mask-2)">
                        <g transform="translate(8.000000, 0.000000)">
                            <g id="Group-3" stroke-width="1" fill="none" transform="translate(120.156997, 179.000000)">
                                <mask id="mask-4" fill="white">
                                    <use xlink:href="#path-3"></use>
                                </mask>
                                <g id="Clip-2"></g>
                                <path d="M0.430296809,4.9468963 C0.430296809,4.9468963 20.6863926,8.86371111 21.7305947,8.65752593 C22.7747968,8.45134074 44.9097436,-1.23795556 47.2069883,0.205340741 C49.504233,1.64863704 62.8685947,7.21493333 65.7923606,8.45134074 C68.7154138,9.68845185 64.1216372,10.1008222 61.8251053,10.1008222 C59.5271479,10.1008222 46.3716266,4.74071111 44.9097436,5.77163704 C43.4478606,6.80256296 56.3952543,8.86371111 56.3952543,9.68845185 C56.3952543,10.5138963 21.7305947,18.3475259 19.6421904,18.3475259 C17.5537862,18.3475259 1.47449894,16.9049333 1.47449894,16.9049333 L0.430296809,4.9468963" id="Fill-1" fill="#E38540" mask="url(#mask-4)"></path>
                            </g>
                            <path d="M134.651469,30.6690358 C135.903317,60.699706 135.589999,76.9671495 124.637401,89.4796915 C113.684803,101.992945 83.0173872,98.8644539 83.0173872,98.8644539 C83.0173872,98.8644539 79.991733,143.077619 37.1198715,144.954713 C-5.75270213,146.830385 -11.9072631,89.8975355 21.6811307,75.2986208 C53.655225,61.4022819 63.8231038,57.3633603 74.8803783,22.9528021 C84.9820331,-8.48301988 116.501104,-2.49012587 124.01219,10.6481144 C131.521851,23.7870665 134.651469,30.6690358 134.651469,30.6690358" id="Fill-4" fill="#0B2739"></path>
                            <path d="M104.156997,73 C115.311445,75.1667338 121.876743,86.855408 124.011012,97.0938206 C126.146009,107.33079 104.156997,73 104.156997,73" id="Fill-11" fill="#018FF4"></path>
                            <path d="M85.5985921,65.6689068 C85.5985921,65.6689068 64.5479673,79.7364045 53.2369384,86.6136581 C41.9266244,93.4909118 57.3213773,167.580729 61.0919586,195.089032 C64.8618249,222.599469 130.213563,197.590822 130.213563,197.590822 C130.213563,197.590822 125.815266,174.457983 131.470423,137.257646 C135.52126,110.610066 120.682729,93.9077581 112.199993,82.3413386 C90.7897546,53.1492891 85.5985921,65.6689068 85.5985921,65.6689068" id="Fill-13" fill="#019DF4"></path>
                            <path d="M64.5521722,87 C88.5599764,116.373535 96.6749107,121.864986 90.7423105,141.684123 C86.0654748,157.308767 84.5060565,162.933184 83.5709732,168.246161 C82.6358898,173.557004 128.156997,164.808227 128.156997,164.808227 L127.844829,181.995052 C127.844829,181.995052 91.9895613,199.181876 74.5294691,202.619099 C57.0693769,206.056322 46.1569966,201.994085 46.1569966,201.994085 L64.5521722,87" id="Fill-15" fill-opacity="0.1" fill="#000000"></path>
                            <path d="M59.034171,86.0224351 C43.9807501,87.6874999 42.68277,107.931071 35.7649797,141.733027 C28.8464738,175.534272 30.9258179,197.844574 34.1929498,202.136852 C42.053815,212.464812 130.415206,176.472918 141.420847,176.784851 C149.016964,177.001352 142.678757,164.266953 142.678757,164.266953 L58.405216,177.09892 C58.405216,177.09892 70.354647,137.976305 70.354647,117.946386 C70.354647,97.9157556 64.6940512,85.3964333 59.034171,86.0224351" id="Fill-17" fill="#F09959"></path>
                            <path d="M136.752175,164.588477 C145.489717,162.382568 158.28395,157.340387 160.779883,159.546297 C163.276527,161.752206 173.574826,177.510545 177.007356,181.922363 C180.439885,186.334182 175.447308,182.867548 171.702343,179.400914 C167.958088,175.934281 164.837284,174.043911 164.837284,174.043911 C164.837284,174.043911 160.156432,178.45573 155.787306,180.977179 C151.41889,183.49791 149.858843,178.45573 142.369623,177.195005 C134.879692,175.934281 116.156997,182.552726 116.156997,182.552726 L136.752175,164.588477" id="Fill-19" fill="#F09959"></path>
                            <path d="M60.7827466,83.2815963 C51.601252,83.6998659 44.5066226,91.4371386 42.0023844,103.357107 C39.4981461,115.276361 32.1948302,153.1269 32.1948302,153.1269 C32.1948302,153.1269 30.7340246,154.172574 45.966716,156.891326 C61.2001196,159.610078 73.7205985,156.473056 73.7205985,156.473056 C73.7205985,156.473056 76.8501841,134.933602 76.015438,120.086461 C75.1814042,105.23932 71.8424198,91.2280039 66.4172826,86.4186179 C60.9914331,81.6085182 60.7827466,83.2815963 60.7827466,83.2815963" id="Fill-21" fill="#019DF4"></path>
                            <path d="M93.0223489,36 L82.1569966,68.0111676 C82.1569966,68.0111676 94.0672314,100.127341 104.097391,92.955727 C107.52161,90.5072466 102.843532,71.1301244 102.843532,71.1301244 L110.156997,45.1468587 L93.0223489,36" id="Fill-23" fill="#F09959"></path>
                            <path d="M102.764371,71.318469 L110.156997,45.1958982 L92.8368843,36 L90.1917173,43.7521736 C89.6156779,69.7042651 96.3349356,78.3844454 100.863225,81.5579291 C102.27773,82.5487065 103.493973,81.7833327 104.513397,80.1641356 C103.769376,75.4599044 102.764371,71.318469 102.764371,71.318469" id="Fill-25" fill="#E38540"></path>
                            <path d="M138.156997,39.0196334 C138.156997,53.1168476 136.505585,70.3999947 124.505135,69.9929432 C105.887741,69.3607908 94.1569966,54.6199175 94.1569966,40.5241417 C94.1569966,26.4269276 103.890373,15 115.897882,15 C127.904686,15 138.156997,24.9231385 138.156997,39.0196334" id="Fill-27" fill="#F09959"></path>
                            <path d="M116.787198,10.0517409 C130.012271,9.10257007 137.842664,21.3920996 140.124729,32.1527295 C141.770959,39.9174941 140.954571,41.4370315 140.954571,41.4370315 C140.954571,41.4370315 139.502347,43.54638 129.130033,44.1794006 C118.757718,44.8131414 117.513663,44.6014144 117.513663,44.6014144 L116.891282,32.3637364 L113.779375,44.1794006 C113.779375,44.1794006 112.119691,46.5004761 105.689125,43.3353732 C99.2585592,40.1702702 96.3541128,29.6213673 96.3541128,29.6213673 C96.3541128,29.6213673 94.9018896,22.6588609 99.8809405,18.0167099 C104.859283,13.375279 116.787198,10.0517409 116.787198,10.0517409" id="Fill-29" fill="#0B2739"></path>
                            <path d="M106.946188,42.4365844 C105.665329,50.9285636 98.9022253,56.9463718 91.8389199,55.8769053 C84.7748999,54.8074389 80.0874726,47.0554188 81.3676163,38.5627233 C82.6484747,30.0700279 89.4122936,24.0536523 96.4755989,25.1231187 C103.538904,26.1918689 108.227046,33.9446053 106.946188,42.4365844" id="Fill-31" fill="#E63780"></path>
                            <path d="M101.932161,42.0720681 C100.744211,50.0324985 95.181107,55.7812955 89.5062975,54.9133199 C83.8314879,54.0446193 80.1938813,46.8876282 81.3818319,38.9279228 C82.5697826,30.9682175 88.1328861,25.2186954 93.8076957,26.0866709 C99.4825053,26.9553716 103.120112,34.1123627 101.932161,42.0720681" id="Fill-33" fill="#FBC7DE"></path>
                            <path d="M92.9977351,39.6274255 C92.3819984,44.0315046 90.164131,47.3205068 88.04281,46.9751031 C85.921489,46.628239 84.700818,42.7762216 85.3165547,38.3721425 C85.9316163,33.9673332 88.1494837,30.6776008 90.2708047,31.0251951 C92.3921256,31.371329 93.6127967,35.2233464 92.9977351,39.6274255" id="Fill-35" fill="#FFFFFF"></path>
                            <path d="M93.1569966,25.2779521 C99.3237485,2.82793808 120.610196,6.10172231 125.992612,9.22753092 C130.524491,11.8593828 131.156997,15.5756846 131.156997,15.5756846 C131.156997,15.5756846 125.306857,10.9306597 115.34579,12.6337885 C105.893462,14.2502459 100.272147,19.7049088 99.4820548,25.7430183 C99.0783736,28.820911 93.1569966,25.2779521 93.1569966,25.2779521" id="Fill-37" fill="#E63780"></path>
                        </g>
                    </g>
                </g>
            </g>
        </g>
    </g>
</svg>