<?xml version="1.0" encoding="UTF-8"?>
<svg width="60px" height="57px" viewBox="0 0 60 57" version="1.1" xmlns="http://www.w3.org/2000/svg" xmlns:xlink="http://www.w3.org/1999/xlink">
    <!-- Generator: Sketch 64 (93537) - https://sketch.com -->
    <title>Mask</title>
    <desc>Created with Sketch.</desc>
    <defs>
        <path d="M51.9534375,3.3429375 C56.3953125,3.3485625 59.994375,6.9495 60,11.3923125 L60,11.3923125 L60,40.2804375 C59.994375,44.72325 56.394375,48.3241875 51.950625,48.328875 L51.950625,48.328875 L18.0909375,48.328875 C16.8140625,50.2245 11.3175,58.3779375 10.98375,58.86825 C10.3453125,59.803875 9.5409375,59.9998125 8.9784375,59.9998125 C7.723125,59.9998125 6.6234375,58.960125 6.6234375,57.775125 L6.6234375,57.775125 L6.6234375,48.283875 C4.854375,48.1029375 3.2184375,47.26575 2.03625,45.9373125 C0.72375,44.462625 0,42.4535625 0,40.2804375 L0,40.2804375 L0,11.3923125 C0.0065625,6.9466875 3.6103125,3.3466875 8.055,3.3429375 L8.055,3.3429375 Z M51.950625,5.053875 L8.055,5.053875 C4.5553125,5.0566875 1.7165625,7.8916875 1.7109375,11.3923125 L1.7109375,11.3923125 L1.7109375,40.2804375 C1.7109375,43.952625 4.1371875,46.6179375 7.4784375,46.6179375 C7.9509375,46.6179375 8.334375,47.001375 8.334375,47.473875 L8.334375,47.473875 L8.334375,57.77325 C8.334375,57.9673125 8.6353125,58.287 8.9784375,58.287 C9.1415625,58.287 9.3384375,58.240125 9.5709375,57.9016875 C9.9384375,57.362625 16.85625,47.097 16.9284375,46.993875 C17.0878125,46.757625 17.353125,46.617 17.638125,46.617 L17.638125,46.617 L51.9534375,46.617 C55.4503125,46.611375 58.2834375,43.7773125 58.2890625,40.2804375 L58.2890625,40.2804375 L58.2890625,11.3923125 C58.2853125,7.8935625 55.449375,5.057625 51.950625,5.053875 L51.950625,5.053875 Z M30.2705625,10.712625 C34.4705625,10.712625 37.8868125,13.9798125 37.8868125,17.9979375 L37.8868125,17.9979375 L37.7968125,22.536375 C38.6265,22.7529375 39.340875,23.110125 39.8968125,23.642625 C40.863375,24.5679375 41.364,25.9273125 41.384625,27.6841875 L41.384625,27.6841875 L41.384625,35.2995 C41.364,37.0554375 40.863375,38.41575 39.8968125,39.3410625 C38.9649375,40.2335625 37.6374375,40.68825 35.950875,40.68825 L35.950875,40.68825 L24.622125,40.68825 C22.9336875,40.68825 21.60525,40.2335625 20.679,39.3391875 C19.71525,38.410125 19.225875,37.047 19.225875,35.2891875 L19.225875,35.2891875 L19.2324375,28.1341875 C19.2324375,27.8923125 19.2286875,27.793875 19.2286875,27.7554375 L19.2286875,27.6945 C19.2286875,25.9366875 19.717125,24.5745 20.6818125,23.6445 C21.1411875,23.2010625 21.700875,22.866375 22.3524375,22.641375 L22.3524375,22.641375 L22.3524375,17.9979375 C22.3524375,13.9798125 25.7686875,10.712625 29.9686875,10.712625 L29.9686875,10.712625 Z M35.950875,23.9866875 L24.622125,23.9866875 C22.1068125,23.9866875 20.93025,25.153875 20.919,27.658875 L20.919,27.658875 L20.91981,27.9206775 C20.92035,27.9753375 20.92125,28.0419375 20.92275,28.1229375 L20.92275,28.1229375 L20.92275,28.1304375 L20.917125,35.290125 C20.917125,37.8166875 22.0936875,38.9923125 24.62025,38.9923125 L24.62025,38.9923125 L35.950875,38.9923125 C38.470875,38.9923125 39.659625,37.8129375 39.6915,35.282625 L39.6915,35.282625 L39.6915,27.6973125 C39.659625,25.1660625 38.470875,23.9866875 35.950875,23.9866875 L35.950875,23.9866875 Z M30.2715,12.40575 L29.969625,12.40575 C26.703375,12.40575 24.0455625,14.9135625 24.0455625,17.9979375 L24.0455625,17.9979375 L24.0455625,22.3366875 C24.239625,22.3245 24.4205625,22.296375 24.6249375,22.296375 L24.6249375,22.296375 L35.950875,22.296375 C36.037125,22.296375 36.1111875,22.311375 36.1955625,22.31325 L36.1955625,22.31325 L36.1955625,18.0541875 C36.194625,18.0354375 36.194625,18.0166875 36.1955625,17.9979375 C36.1955625,14.9135625 33.5386875,12.40575 30.2715,12.40575 L30.2715,12.40575 Z" id="path-1"></path>
    </defs>
    <g id="ATC-ESCRITORIO-curva" stroke="none" stroke-width="1" fill="none" fill-rule="evenodd">
        <g id="Conceptos-basicos" transform="translate(-274.000000, -643.000000)">
            <g id="Group-17" transform="translate(239.000000, 617.000000)">
                <g id="Group-4">
                    <g id="icon/icono-control" transform="translate(35.000000, 23.000000)">
                        <mask id="mask-2" fill="white">
                            <use xlink:href="#path-1"></use>
                        </mask>
                        <use id="Mask" fill="#2FA0DF" xlink:href="#path-1"></use>
                    </g>
                </g>
            </g>
        </g>
    </g>
</svg>