<?xml version="1.0" encoding="UTF-8"?>
<svg width="27px" height="27px" viewBox="0 0 27 27" version="1.1" xmlns="http://www.w3.org/2000/svg" xmlns:xlink="http://www.w3.org/1999/xlink">
    <!-- Generator: Sketch 64 (93537) - https://sketch.com -->
    <title>Group</title>
    <desc>Created with Sketch.</desc>
    <g id="ATC-ESCRITORIO-curva" stroke="none" stroke-width="1" fill="none" fill-rule="evenodd">
        <g id="T&amp;C" transform="translate(-370.000000, -808.000000)" fill="#49A0DF">
            <g id="Group-13" transform="translate(240.000000, 511.000000)">
                <g id="Group-2">
                    <g id="Group" transform="translate(130.000000, 297.000000)">
                        <path d="M20.69886,25.48476 L20.68626,25.48476 L5.83866,25.44516 C3.15666,25.43796 0.98106,23.23656 0.98824218,20.53776 C0.99546,17.84376 3.17646,15.65676 5.85246,15.65676 L5.86506,15.65676 L20.71206,15.69696 C23.39466,15.70356 25.57026,17.90496 25.5630778,20.60376 C25.56126,21.33096 25.11726,22.81536 24.60186,23.51136 C23.67306,24.76656 22.25106,25.48476 20.69886,25.48476 M20.71506,14.70456 L5.86806,14.66496 L5.85126,14.66496 C4.29726,14.66496 2.83266,15.27336 1.72686,16.37976 C0.61746,17.48976 0.00426,18.96576 3.82926796e-05,20.53536 C-0.00414,22.10496 0.60126,23.58396 1.70466,24.69996 C2.80806,25.81656 4.27566,26.43336 5.83626,26.43756 L20.68326,26.47716 L20.70006,26.47716 C22.53846,26.47656 24.29286,25.59036 25.39506,24.10236 C26.05386,23.21316 26.54886,21.52296 26.5512817,20.60616 C26.55546,19.03716 25.95006,17.55816 24.84666,16.44216 C23.74326,15.32556 22.27566,14.70876 20.71506,14.70456" id="Fill-1"></path>
                        <path d="M5.85204,23.28924 L5.84484,23.28924 C4.34424,23.28504 3.12744,22.05324 3.13103203,20.54364 C3.13344,19.81344 3.41844,19.12704 3.93444,18.61044 C4.44864,18.09624 5.12904,17.81304 5.85204,17.81304 L5.85924,17.81304 C6.58464,17.81484 7.26684,18.10164 7.77984,18.62064 C8.29284,19.13964 8.57484,19.82724 8.57245519,20.55804 C8.57064,21.28824 8.28564,21.97524 7.76964,22.49184 C7.25544,23.00604 6.57504,23.28924 5.85204,23.28924 M5.86224,16.82124 L5.85204,16.82124 C4.86624,16.82124 3.93864,17.20704 3.23784,17.90784 C2.53464,18.61104 2.14584,19.54644 2.14342255,20.54124 C2.14044,21.53544 2.52444,22.47324 3.22344,23.18004 C3.92244,23.88744 4.85244,24.27804 5.84184,24.28104 L5.85204,24.28104 C7.89204,24.28104 9.55524,22.61424 9.56065315,20.56044 C9.56604,18.50424 7.90704,16.82664 5.86224,16.82124" id="Fill-3"></path>
                        <path d="M5.88984,0.99258 L5.90424,0.99258 L20.75184,1.03218 C22.04904,1.03518 23.26824,1.54878 24.18564,2.47638 C25.10304,3.40458 25.60584,4.63398 25.6022592,5.93958 C25.59504,8.63358 23.41464,10.82058 20.73804,10.82058 L20.72544,10.82058 L5.87844,10.78038 C3.19644,10.77378 1.02024,8.57178 1.02742219,5.87298 C1.02924,5.14578 1.47324,3.66198 1.98864,2.96598 C2.91804,1.71078 4.33944,0.99258 5.88984,0.99258 M5.87544,11.77278 L20.72304,11.81238 L20.73924,11.81238 C22.29384,11.81238 23.75784,11.20398 24.86364,10.09758 C25.97304,8.98758 26.58624,7.51158 26.5904617,5.94198 C26.59464,4.37238 25.98984,2.89338 24.88644,1.77738 C23.78244,0.66078 22.31484,0.04398 20.75424,0.03978 L5.90724,0.00018 L5.89044,0.00018 C4.05204,0.00018 2.29764,0.88698 1.19604,2.37498 C0.53724,3.26418 0.04164,4.95438 0.0398136863,5.87118 C0.03024,9.11598 2.64864,11.76318 5.87544,11.77278" id="Fill-5"></path>
                        <path d="M20.7387,3.1881 L20.7459,3.1881 C22.2465,3.1917 23.4633,4.4241 23.459708,5.9337 C23.4549,7.4409 22.2357,8.6649 20.7387,8.66430022 L20.7315,8.66430022 C20.0061,8.6625 19.3239,8.3757 18.8109,7.8567 C18.2979,7.3377 18.0159,6.6495 18.0182848,5.9187 C18.0201,5.1885 18.3051,4.5015 18.8211,3.9855 C19.3353,3.4713 20.0163,3.1881 20.7387,3.1881 M20.7285,9.6561 L20.7387,9.6561 C21.7245,9.6561 22.6521,9.2703 23.3529,8.5695 C24.0561,7.8663 24.4449,6.9309 24.4473174,5.9361 C24.4503,4.9419 24.0663,4.0041 23.3673,3.2973 C22.6683,2.5899 21.7383,2.1993 20.7489,2.1963 L20.7387,2.1963 C19.7535,2.1963 18.8253,2.5821 18.1245,3.2829 C17.4213,3.9867 17.0325,4.9221 17.0300869,5.9169 C17.0247,7.9731 18.6837,9.6507 20.7285,9.6561" id="Fill-7"></path>
                    </g>
                </g>
            </g>
        </g>
    </g>
</svg>