<?xml version="1.0" encoding="UTF-8"?>
<svg width="56px" height="62px" viewBox="0 0 56 62" version="1.1" xmlns="http://www.w3.org/2000/svg" xmlns:xlink="http://www.w3.org/1999/xlink">
    <!-- Generator: Sketch 64 (93537) - https://sketch.com -->
    <title>Group</title>
    <desc>Created with Sketch.</desc>
    <g id="ATC-ESCRITORIO-curva" stroke="none" stroke-width="1" fill="none" fill-rule="evenodd">
        <g id="T&amp;C" transform="translate(-280.000000, -1493.000000)">
            <g id="Group-13" transform="translate(240.000000, 511.000000)">
                <g id="Group-5" transform="translate(0.000000, 957.000000)">
                    <g id="Group" transform="translate(40.000000, 25.000000)">
                        <g id="Group-3" transform="translate(7.724138, 0.060591)">
                            <polygon id="Clip-2" points="0.900344614 0.879272727 38.7113517 0.879272727 38.7113517 32.9810879 0.900344614 32.9810879"></polygon>
                            <path d="M19.8586621,30.8101485 C16.0236276,30.8101485 13.0971448,29.8867242 11.1593517,28.0643 C9.14721379,26.1742394 8.12762759,23.2574212 8.12762759,19.3936939 C8.12762759,15.5262091 9.14721379,12.6093909 11.1583862,10.7221485 C13.0614207,8.93823939 15.9058345,8.01481515 19.6172828,7.9763 L19.8586621,7.97817879 C23.6898345,7.97817879 26.6172828,8.90160303 28.5579724,10.7221485 C30.5701103,12.6122091 31.5896966,15.5290273 31.5896966,19.3936939 C31.5896966,21.0808455 31.3840414,22.5744818 30.9978345,23.8943303 L28.6535586,23.8943303 C28.3146621,23.1822697 27.6108,22.7830273 26.5989379,22.7830273 C25.1439034,22.7830273 24.308731,23.5899667 24.308731,24.9981182 C24.308731,25.6885727 24.5056966,26.2343606 24.8957655,26.6195121 C25.2945241,27.0131182 25.8680414,27.2122697 26.5989379,27.2122697 C27.3298345,27.2122697 27.9033517,27.0131182 28.3021103,26.6195121 C28.4604552,26.4626333 28.5792138,26.2728758 28.6738345,26.0633909 L30.0970069,26.0633909 C29.6712138,26.8186636 29.1662483,27.4940879 28.5589379,28.0643 C26.6163172,29.8867242 23.688869,30.8101485 19.8586621,30.8101485 M1.8788,17.1692091 C2.17714483,17.2058455 2.4668,17.1269364 2.70142069,16.9475121 C2.93604138,16.7699667 3.08569655,16.5125727 3.12238621,16.2232394 C4.14873103,7.48123939 9.73038621,3.04823939 19.7148,3.04823939 C30.8385241,3.04823939 36.4800414,8.53711818 36.4829379,19.357997 L36.4559034,21.031997 C36.4559034,22.0014515 36.2058345,22.7539061 35.7317655,23.2076333 C35.256731,23.6632394 34.5268,23.8943303 33.5641793,23.8943303 L33.3131448,23.8943303 C33.6472138,22.5340879 33.8181103,21.0357545 33.8181103,19.3927545 C33.8181103,14.9127848 32.5696966,11.4699061 30.1056966,9.15993636 C27.7343862,6.93639091 24.2865241,5.80911818 19.8586621,5.80911818 C15.4308,5.80911818 11.9829379,6.93639091 9.61162759,9.16087576 C7.14762759,11.4699061 5.89921379,14.9127848 5.89921379,19.3936939 C5.89921379,23.8717848 7.14762759,27.315603 9.61066207,29.6265121 C11.9810069,31.8519364 15.4298345,32.9810879 19.8586621,32.9810879 C24.2865241,32.9810879 27.7343862,31.8519364 30.1056966,29.6255727 C31.1523172,28.6439061 31.9662483,27.4461788 32.5716276,26.0633909 L33.5641793,26.0633909 C35.1350759,26.0633909 36.3912138,25.6228152 37.2978345,24.7510576 C38.2179724,23.8661485 38.6852828,22.6167545 38.6852828,21.0423303 L38.7113517,19.3683303 C38.7113517,13.2547545 37.0178345,8.56342121 33.6771448,5.42866364 C30.4590759,2.41039091 25.760869,0.879178788 19.7148,0.879178788 C14.2779724,0.879178788 9.91866207,2.12105758 6.7565931,4.57099697 C3.46321379,7.12614848 1.49452414,10.9635727 0.906524138,15.9780576 C0.8428,16.5623606 1.27921379,17.0959364 1.8788,17.1692091" id="Fill-1" fill="#49A0DF"></path>
                        </g>
                        <g id="Group-6" transform="translate(0.000000, 38.575742)">
                            <polygon id="Clip-5" points="9.65517241e-05 0.486042424 55.0412414 0.486042424 55.0412414 22.5454545 9.65517241e-05 22.5454545"></polygon>
                            <path d="M2.23044138,20.3758303 L2.23044138,16.4876788 C2.23044138,12.4680121 3.48657931,9.07492121 5.86175172,6.6738303 C8.50147586,4.0078303 12.3596828,2.65604242 17.3320966,2.65604242 L37.7103034,2.65604242 C42.6817517,2.65604242 46.5409241,4.0078303 49.1796828,6.6738303 C51.5548552,9.07492121 52.8109931,12.4680121 52.8109931,16.4876788 L52.8109931,20.3758303 L2.23044138,20.3758303 Z M50.7863034,5.16892121 C47.7526483,2.10555758 43.231131,0.486042424 37.7093379,0.486042424 L17.3320966,0.486042424 C11.8103034,0.486042424 7.28878621,2.10555758 4.25609655,5.16892121 C1.47154483,7.98334545 9.65517241e-05,11.8968606 9.65517241e-05,16.4876788 L9.65517241e-05,21.4598909 C9.65517241e-05,22.0582848 0.500234483,22.5458303 1.11526897,22.5458303 L53.9261655,22.5458303 C54.5412,22.5458303 55.0413379,22.0582848 55.0413379,21.4598909 L55.0413379,16.4876788 C55.0413379,11.8968606 53.5698897,7.98240606 50.7863034,5.16892121 L50.7863034,5.16892121 Z" id="Fill-4" fill="#49A0DF"></path>
                        </g>
                    </g>
                </g>
            </g>
        </g>
    </g>
</svg>