<?xml version="1.0" encoding="UTF-8"?>
<svg width="65px" height="42px" viewBox="0 0 65 42" version="1.1" xmlns="http://www.w3.org/2000/svg" xmlns:xlink="http://www.w3.org/1999/xlink">
    <!-- Generator: Sketch 64 (93537) - https://sketch.com -->
    <title>Envío</title>
    <desc>Created with Sketch.</desc>
    <g id="ATC-ESCRITORIO-curva" stroke="none" stroke-width="1" fill="none" fill-rule="evenodd">
        <g id="Conceptos-basicos" transform="translate(-268.000000, -1471.000000)" fill="#49A0DF">
            <g id="Group-17" transform="translate(239.000000, 617.000000)">
                <g id="Group-15" transform="translate(0.000000, 826.000000)">
                    <g id="Envío" transform="translate(29.500000, 16.000000)">
                        <g id="Group-14" fill="none">
                            <g id="Group-8" transform="translate(0.008466, 12.304702)" fill="#2FA0DF">
                                <path d="M17.9597006,28.9574596 C16.2295772,28.9574596 14.9179414,29.3785466 14.0625093,30.2094161 C13.177787,31.0677391 12.7288056,32.4178012 12.7288056,34.2232671 C12.7288056,36.0287329 13.177787,37.3791988 14.0625093,38.2375217 C14.9179414,39.0679876 16.2295772,39.4890745 17.9597006,39.4890745 C19.6898241,39.4890745 21.0014599,39.0679876 21.856892,38.2375217 C22.7416142,37.3791988 23.1905957,36.0287329 23.1905957,34.2232671 C23.1905957,32.4178012 22.7416142,31.0677391 21.856892,30.2094161 C21.0014599,29.3785466 19.6898241,28.9574596 17.9597006,28.9574596 M17.9597006,41.3300683 C13.4064907,41.3300683 10.8991759,38.8063727 10.8991759,34.2232671 C10.8991759,29.6405652 13.4064907,27.1164658 17.9597006,27.1164658 C22.5129105,27.1164658 25.0202253,29.6405652 25.0202253,34.2232671 C25.0202253,38.8063727 22.5129105,41.3300683 17.9597006,41.3300683" id="Fill-209"></path>
                                <path d="M50.0696204,28.9574596 C48.3394969,28.9574596 47.0278611,29.3785466 46.172429,30.2094161 C45.2877068,31.0677391 44.8387253,32.4178012 44.8387253,34.2232671 C44.8387253,36.0287329 45.2877068,37.3791988 46.172429,38.2375217 C47.0278611,39.0679876 48.3394969,39.4890745 50.0696204,39.4890745 C51.7997438,39.4890745 53.1113796,39.0679876 53.967213,38.2375217 C54.8519352,37.3791988 55.3005154,36.0287329 55.3005154,34.2232671 C55.3005154,32.4178012 54.8519352,31.0677391 53.967213,30.2094161 C53.1113796,29.3785466 51.7997438,28.9574596 50.0696204,28.9574596 M50.0696204,41.3300683 C45.5168117,41.3300683 43.0090957,38.8063727 43.0090957,34.2232671 C43.0090957,29.6405652 45.5168117,27.1164658 50.0696204,27.1164658 C54.6228302,27.1164658 57.1301451,29.6405652 57.1301451,34.2232671 C57.1301451,38.8063727 54.6228302,41.3300683 50.0696204,41.3300683" id="Fill-211"></path>
                                <path d="M43.0854506,35.9454037 L24.8902654,35.9454037 C24.3851111,35.9454037 23.9754506,35.5331988 23.9754506,35.0249068 C23.9754506,34.5166149 24.3851111,34.1044099 24.8902654,34.1044099 L43.0854506,34.1044099 C43.5906049,34.1044099 44.0002654,34.5166149 44.0002654,35.0249068 C44.0002654,35.5331988 43.5906049,35.9454037 43.0854506,35.9454037" id="Fill-213"></path>
                                <path d="M59.783108,35.945 L56.7204846,35.945 C56.2153302,35.945 55.8056698,35.532795 55.8056698,35.0249068 C55.8056698,34.5162112 56.2153302,34.1040062 56.7204846,34.1040062 L59.783108,34.1040062 C61.0722747,34.1040062 62.436071,32.7321429 62.436071,31.4345652 L62.436071,20.6647516 C62.436071,19.7232609 61.3988796,18.365528 60.8415648,17.6355901 C59.7690648,16.2314286 51.5413488,5.23916149 50.1209784,3.25282609 C49.5359784,2.43447205 48.3479228,1.84059006 47.2958858,1.84059006 L9.83421914,1.84059006 C8.54505247,1.84059006 7.18125617,3.21285714 7.18125617,4.51043478 L7.18125617,31.4345652 C7.18125617,32.7321429 8.54505247,34.1040062 9.83421914,34.1040062 L11.618108,34.1040062 C12.1232623,34.1040062 12.5329228,34.5162112 12.5329228,35.0249068 C12.5329228,35.532795 12.1232623,35.945 11.618108,35.945 L9.83421914,35.945 C7.52992901,35.945 5.35162654,33.7531677 5.35162654,31.4345652 L5.35162654,4.51043478 C5.35162654,2.1918323 7.52992901,-2.29492064e-14 9.83421914,-2.29492064e-14 L47.2958858,-2.29492064e-14 C48.9425525,-2.29492064e-14 50.6746821,0.874875776 51.6063488,2.17729814 C53.0207006,4.15555901 61.2223364,15.1131056 62.292429,16.5140373 C63.0302994,17.480559 64.2657006,19.0978882 64.2657006,20.6647516 L64.2657006,31.4345652 C64.2657006,33.7531677 62.0873981,35.945 59.783108,35.945" id="Fill-215"></path>
                                <path d="M6.26648148,9.0206677 L0.914814815,9.0206677 C0.409259259,9.0206677 2.28075446e-13,8.60846273 2.28075446e-13,8.10017081 C2.28075446e-13,7.59187888 0.409259259,7.17927019 0.914814815,7.17927019 L6.26648148,7.17927019 C6.7716358,7.17927019 7.1812963,7.59187888 7.1812963,8.10017081 C7.1812963,8.60846273 6.7716358,9.0206677 6.26648148,9.0206677" id="Fill-217"></path>
                                <path d="M6.26648148,17.9953106 L0.914814815,17.9953106 C0.409259259,17.9953106 2.28075446e-13,17.5831056 2.28075446e-13,17.0752174 C2.28075446e-13,16.5665217 0.409259259,16.1543168 0.914814815,16.1543168 L6.26648148,16.1543168 C6.7716358,16.1543168 7.1812963,16.5665217 7.1812963,17.0752174 C7.1812963,17.5831056 6.7716358,17.9953106 6.26648148,17.9953106" id="Fill-219"></path>
                                <path d="M6.26648148,26.9703571 L0.914814815,26.9703571 C0.409259259,26.9703571 2.28075446e-13,26.5581522 2.28075446e-13,26.0498602 C2.28075446e-13,25.5415683 0.409259259,25.1289596 0.914814815,25.1289596 L6.26648148,25.1289596 C6.7716358,25.1289596 7.1812963,25.5415683 7.1812963,26.0498602 C7.1812963,26.5581522 6.7716358,26.9703571 6.26648148,26.9703571" id="Fill-221"></path>
                            </g>
                            <polygon id="Stroke-335" points="9.69320646e-14 64.6192857 64.22 64.6192857 64.22 -4.01611112e-14 9.69320646e-14 -4.01611112e-14"></polygon>
                        </g>
                    </g>
                </g>
            </g>
        </g>
    </g>
</svg>