<?xml version="1.0" encoding="UTF-8"?>
<svg width="536px" height="178px" viewBox="0 0 536 178" version="1.1" xmlns="http://www.w3.org/2000/svg" xmlns:xlink="http://www.w3.org/1999/xlink">
    <!-- Generator: Sketch 64 (93537) - https://sketch.com -->
    <title>Group 11</title>
    <desc>Created with Sketch.</desc>
    <defs>
        <rect id="path-1" x="0" y="0" width="395.431472" height="190"></rect>
    </defs>
    <g id="ATC-ESCRITORIO-curva" stroke="none" stroke-width="1" fill="none" fill-rule="evenodd">
        <g id="Conceptos-basicos" transform="translate(-452.000000, -200.000000)">
            <g id="Group-11" transform="translate(453.000000, 187.000000)">
                <g id="Group-14" transform="translate(69.000000, 0.000000)">
                    <mask id="mask-2" fill="white">
                        <use xlink:href="#path-1"></use>
                    </mask>
                    <g id="Rectangle"></g>
                    <g id="Group-7" mask="url(#mask-2)">
                        <g transform="translate(5.786802, 13.502538)">
                            <g id="Group-79" transform="translate(54.974619, 18.324873)">
                                <path d="M0.888660457,164.923858 C6.13992935,164.606941 11.3907999,164.289629 16.6420688,163.972712 C19.9923321,140.456452 22.8310927,116.836661 25.1543669,93.1425805 C25.3340303,91.3054901 25.5049295,89.3956905 24.9802807,87.6392123 C23.987551,84.3175124 20.8002197,82.5211233 17.7945434,81.9916113 C13.1232964,81.1684967 4.6651761,82.8822979 2.50403714,88.5306892 C0.219404521,94.4999489 1.04601528,104.974803 0.687485309,111.488985 C-0.291301497,129.264782 -0.225571003,147.130279 0.888660457,164.923858" id="Fill-5" fill="#D3D4D3"></path>
                                <path d="M45.3299492,163.352064 C40.100417,163.432651 34.8708847,163.513239 29.6417516,163.593827 C24.5127949,140.292079 19.8835234,116.847021 15.7599236,93.2892191 C15.4402369,91.4626975 15.1245413,89.5627339 15.5092829,87.7636041 C16.2380569,84.3606606 19.2597152,82.3197678 22.1983587,81.5615291 C26.76497,80.3824877 35.2803711,81.4579164 37.8570223,86.9517726 C40.5805457,92.758055 40.5661778,103.313055 41.4222678,109.81128 C43.758655,127.542951 45.0669361,145.444133 45.3299492,163.352064" id="Fill-7" fill="#D3D4D3"></path>
                                <path d="M28.4431345,36.4009287 C32.5158976,40.888426 35.6620575,46.7330597 37.6563207,52.8350267 C41.1871083,63.6410469 41.6949123,75.3029973 42.1621874,86.7317641 C42.3179458,90.5355466 42.4737041,94.3393291 42.6290651,98.1431115 C42.7824394,101.88553 42.5484045,102.701079 39.2774791,102.331706 C33.2160155,101.646804 26.8911137,100.331632 21.3016934,97.1901864 C18.6422784,95.6952777 16.136635,93.7747793 13.3639774,92.6235096 C9.33094854,90.9488635 5.29990641,91.9302932 1.3332338,90.8918543 C2.78870027,84.3920104 3.79636147,78.8640946 4.41502412,72.2003492 C5.05236188,65.3390509 5.58440381,57.8609445 6.64411691,51.0752626 C7.27946796,47.0034576 8.60579803,43.1715664 9.95914742,39.3978722 C10.8690623,36.8617533 11.8357972,34.2642703 13.4744387,32.393655 C18.4106276,26.7588469 24.3858677,31.9300591 28.4431345,36.4009287" id="Fill-9" fill="#0B2739"></path>
                                <path d="M9.5851417,90.4651339 C9.62111418,90.3410444 9.65908512,90.2130155 9.72383557,90.1086228 C10.3293722,89.1367853 11.1859168,89.0264835 12.012884,88.2752496 C12.3818017,87.9404049 12.2223237,86.6061473 13.1887842,86.929174 C13.5449117,87.0481423 14.3826706,87.473986 15.1404907,87.7359527 C16.2460448,88.1184635 17.8560128,87.8817086 19.1010601,87.4385318 C20.7733804,86.8429022 22.5308356,86.1704553 24.0884437,85.3179801 C25.7183965,84.4257175 27.3035835,83.4396984 28.8480017,82.3859225 C30.1346172,81.5078415 32.1914433,80.4792774 33.1395178,79.1808679 C34.7430907,76.9854685 32.5887393,71.8623448 32.2629885,69.2084052 C31.9240479,66.4421941 31.8309192,58.2597717 35.285076,57.8981394 C40.9435461,57.3056613 41.2589048,63.1327468 41.6945714,67.8182088 C41.9667632,70.7427817 42.0710833,73.7284145 41.9415824,76.6628358 C41.7601213,80.7719711 39.3967298,83.2100343 36.2283542,85.2714958 C32.8705236,87.455865 29.4327542,89.6035982 25.7024087,90.9689767 C23.889396,91.632757 22.0887739,91.8785724 20.2277979,92.2768406 C18.3888051,92.6699877 18.659398,93.5346749 17.1341652,94.3260901 C16.2828166,94.7676912 15.4934207,95.392472 14.5765223,95.6556205 C12.9329799,96.1275546 11.5548345,94.9335378 10.2566279,94.018033 C9.93327531,93.7899447 9.71424291,93.6370979 9.53797779,93.2955564 C9.2505977,92.740896 9.33053653,92.1322665 9.39009096,91.5252128 C9.42486435,91.1655502 9.48641725,90.8082512 9.5851417,90.4651339" id="Fill-11" fill="#E05D4F"></path>
                                <path d="M38.7810259,64.2800559 C35.6050817,65.0202908 32.4295361,65.7609232 29.2539906,66.5015556 C29.4573212,66.4538498 25.0027863,52.3381037 24.7667633,51.488543 C23.8645336,48.2473321 22.9543301,44.8816885 23.4925582,41.5605703 C24.6419741,34.4698995 27.9773933,32.6077835 32.5471489,39.8383912 C36.8609472,46.6631022 43.5230145,54.7762672 42.5717462,62.7677823 C42.5510145,62.9411134 42.5254985,63.123588 42.4214411,63.2639225 C42.2779136,63.4567335 42.023551,63.5243167 41.7891228,63.5783832 L38.7810259,64.2800559 Z" id="Fill-13" fill="#0D2D42"></path>
                                <path d="M7.97859546,15.2953578 C7.97859546,15.2953578 6.40388116,10.2903439 8.17236078,7.98018667 L10.6658704,9.16683338 L7.97859546,15.2953578 Z" id="Fill-15" fill="#0B2739"></path>
                                <path d="M13.2707452,5.38677787 C17.6087264,3.57645079 23.3624833,5.01789876 25.3403127,10.9187897 C25.9307448,12.6782099 26.1498905,14.6612288 25.8901476,16.5040579 C25.6552361,18.1769364 24.8113675,19.634048 24.0534229,21.1185711 C23.0187872,23.1430986 22.5383221,25.1315998 22.7145058,27.3832504 C22.8185606,28.6997807 22.9911969,30.0139615 23.1989124,31.3175693 C23.1989124,31.3175693 23.5595568,32.2667868 22.4689522,33.1917257 C21.64755,33.9114707 20.7717555,34.2913144 19.9996217,34.4851521 C18.2161068,34.9331327 16.3541567,33.7610996 16.1732432,31.9421575 C16.1637837,31.8446513 16.1582656,31.7455787 16.1578715,31.6441565 C16.2059574,29.8165994 16.5610838,26.8898452 14.9592706,27.0449154 C14.0657395,27.1118775 13.0346512,27.3879495 12.1710752,27.0272938 C10.1175697,26.1939873 9.14402674,24.172984 8.7045529,22.0995075 C8.0479041,19.2902308 7.85477211,16.3838394 8.10466126,13.565556 C8.33405478,10.9313206 8.72347195,8.20310327 11.0410559,6.57525779 C11.7213536,6.07167124 12.4962464,5.72942035 13.2707452,5.38677787" id="Fill-17" fill="#E05D4F"></path>
                                <path d="M16.9628238,32.1551492 L16.0370595,33.2507778 C15.9563125,32.79168 15.896156,32.2621659 15.8933299,31.6904817 C15.9143241,30.8781092 15.9962823,29.8521011 15.9442005,28.968119 C15.8844477,27.9576263 15.6498777,27.1325233 14.9506087,27.0243131 C14.8872223,27.0143673 14.8165687,27.0175499 14.7463188,27.0199369 C14.7180574,27.0207326 14.6946407,27.0151629 14.6655718,27.0179477 C14.6655718,27.0179477 15.9010008,26.8942221 19.998507,23.2755445 L16.9628238,32.1551492 Z" id="Fill-19" fill-opacity="0.1" fill="#000000"></path>
                                <path d="M24.8587565,15.9841696 C24.8587565,15.9841696 14.4541856,15.3934955 8.6057673,8.63973442 C8.6057673,8.63973442 6.23104288,6.51938618 10.880622,2.45985108 C15.5302011,-1.59968401 23.3301057,-0.102403014 24.9163427,3.11051246 C24.9163427,3.11051246 31.3635765,7.80591207 27.3466398,17.2854924 L23.0288858,25.2705911 C23.0288858,25.2705911 22.8017628,20.6963657 24.0900014,18.1453092 L24.8587565,15.9841696 Z" id="Fill-21" fill="#0B2739"></path>
                                <path d="M24.8329714,13.3038864 C26.5279317,13.1992191 26.0915231,15.4184743 25.2929697,16.570973 C24.4935425,17.7234716 23.4708874,18.6025222 22.9414308,18.6202886 C22.4115373,18.6384412 22.7583925,16.970717 23.0309841,15.9298376 C23.3044493,14.8885721 23.8671062,13.3637515 24.8329714,13.3038864" id="Fill-23" fill="#E05D4F"></path>
                                <path d="M9.33263661,9.19667434 C9.33263661,9.19667434 14.2672401,18.0405859 14.6251866,13.1626453 C14.9827379,8.28430547 12.8484922,8.65148804 12.8484922,8.65148804 L9.33263661,9.19667434 Z" id="Fill-25" fill="#0B2739"></path>
                            </g>
                            <g id="Group-78">
                                <path d="M16.6880334,88.6658165 C17.5546814,88.1102149 18.9194257,87.9106186 19.984131,87.2900412 C20.5208149,86.9768345 20.4519083,85.7352907 21.6315891,86.2628787 C22.066685,86.4578061 22.8156013,87.0464792 23.6479929,87.4079315 C24.8627176,87.9355195 26.6283014,87.9814306 28.1355839,87.7308651 C34.0584007,86.7453338 40.0060239,85.8691331 46.0343662,85.5668205 C46.3781117,85.549312 46.7191009,85.5426977 47.0163836,85.356719 C47.5495237,85.0236694 47.6471742,84.4427778 47.8070375,83.8762821 C48.5496537,81.2496252 49.3674765,78.6797735 50.6066139,76.2262557 C51.7122694,74.0373101 52.9931445,71.9639203 54.9847418,70.4749237 C56.9751579,68.9859271 59.5392706,68.3163261 61.8517758,69.1738512 C63.5842844,69.8154387 64.9832851,71.0993919 65.2585177,72.9299978 C65.9397086,77.4705231 61.591112,80.6290479 58.9273801,83.6583992 C56.4077614,86.5239492 54.2535444,88.9537333 51.6347002,91.5659943 C51.3114299,91.888928 51.0039096,92.1896843 50.5644824,92.3612671 C50.125449,92.5320718 49.6277465,92.5184541 49.1615442,92.4896625 C43.1564332,92.117316 37.3123668,91.6017894 31.3686811,92.5192323 C29.735398,92.771354 28.2769408,92.3612671 26.7291019,92.7974221 C25.741572,93.075612 25.1867755,94.0023927 24.2709085,94.4140359 C23.3550414,94.8256791 22.2765548,95.2365441 21.2736686,95.2544416 C19.0619639,95.2929602 16.6466895,93.3436859 16.0099925,91.2162144 C15.594978,89.8287668 15.9714049,89.1253161 16.6880334,88.6658165" id="Fill-1" fill="#FABDA4"></path>
                                <path d="M58.8666956,82.5455007 C55.5514372,81.1093931 52.0483076,80.1588842 48.8324873,78.4596787 C50.1688096,75.6706085 54.2005726,64.2559141 54.8644103,62.8978769 C57.3979202,57.7155541 57.9509218,55.4561925 61.2174437,52.8146756 C68.1934391,47.1736884 75.9264218,51.5229985 75.1780813,59.9792096 C74.365676,69.1599154 69.0097748,76.8104385 63.2797035,83.6595674 C63.154718,83.8086822 62.9900359,83.9214941 62.782513,83.9874637 C62.575383,84.0534333 62.2672428,83.9613101 62.0263117,83.852792 C60.9961645,83.3898337 59.9133504,82.9987003 58.8666956,82.5455007" id="Fill-3" fill="#0B2739"></path>
                                <path d="M13.857868,95.3494077 C13.857868,95.3494077 16.1186486,103.883819 14.9984383,107.823372 L18.4771574,107.722763 L16.795824,93.9320169 L13.857868,95.3494077 Z" id="Fill-27" fill="#B9BBBD"></path>
                                <path d="M18.3331885,105.8413 C17.3229311,106.020377 16.3062986,106.159447 15.2820158,106.258129 C15.1179605,106.274132 15.1591868,106.514932 15.3232421,106.499692 C16.3475249,106.400247 17.3637324,106.261177 18.3744148,106.082482 C18.53592,106.053525 18.4955437,105.812343 18.3331885,105.8413" id="Fill-29" fill="#B9BBBD"></path>
                                <path d="M17.688684,104.517816 C16.9165919,104.652207 16.1497908,104.785848 15.2696134,104.938582 C15.1252477,104.963663 15.1611501,105.200624 15.3058938,105.175543 C16.1119987,105.035163 16.9184815,104.894783 17.7253423,104.754777 C17.869708,104.729322 17.8338056,104.492361 17.688684,104.517816" id="Fill-31" fill="#B9BBBD"></path>
                                <path d="M17.686237,103.858831 C17.0698693,104.080147 16.6900514,104.211943 15.2750822,104.253388 C15.1215807,104.257532 15.16094,104.523609 15.3132608,104.515735 C16.1311484,104.473046 16.9321115,104.342494 17.724022,104.121178 C17.8704388,104.080147 17.8342282,103.817386 17.686237,103.858831" id="Fill-33" fill="#B9BBBD"></path>
                                <path d="M17.6884819,101.873875 C16.8936762,102.068442 16.0895654,102.215882 15.2730479,102.317542 C15.1233918,102.336056 15.160612,102.5488 15.3098804,102.530286 C16.1267856,102.428963 16.9308963,102.281523 17.725702,102.086956 C17.8695425,102.051611 17.8338732,101.83853 17.6884819,101.873875" id="Fill-35" fill="#B9BBBD"></path>
                                <path d="M17.6835219,100.549344 C16.8841737,100.707687 16.0812833,100.840187 15.2744572,100.948074 C15.1225377,100.968175 15.1603208,101.227431 15.3122403,101.207331 C16.1190664,101.099444 16.9219567,100.966944 17.7216985,100.809011 C17.8716501,100.779475 17.8346542,100.519398 17.6835219,100.549344" id="Fill-37" fill="#B9BBBD"></path>
                                <path d="M17.0212677,99.2270395 C16.2251629,99.3954367 15.4242014,99.5352666 14.617169,99.6461532 C14.4613478,99.6679547 14.4997971,99.9055151 14.6556184,99.8840895 C15.4626508,99.7732029 16.264017,99.6333731 17.0601218,99.4649758 C17.2127051,99.4322736 17.1750652,99.1943373 17.0212677,99.2270395" id="Fill-39" fill="#B9BBBD"></path>
                                <path d="M17.028604,97.9042626 C16.217612,98.0825515 15.3996818,98.2315144 14.5751989,98.3511513 C14.5501445,98.3544838 14.5324137,98.3644813 14.5177665,98.3768116 C14.5196938,98.3851428 14.5208501,98.3934741 14.5227774,98.4018053 C14.5416646,98.4531259 14.5578536,98.5054462 14.5725008,98.5574332 C14.5848352,98.5600992 14.5967843,98.5640982 14.6118169,98.5617655 C15.4366852,98.4424619 16.25423,98.293499 17.0656074,98.1152101 C17.2097667,98.0835513 17.1739196,97.8722706 17.028604,97.9042626" id="Fill-41" fill="#B9BBBD"></path>
                                <path d="M17.0257966,95.9184874 C16.2210614,96.0600031 15.4167129,96.2015188 14.6119777,96.3430344 C14.464256,96.3688316 14.5006064,96.6021114 14.6491015,96.5759457 C15.4538367,96.43443 16.2585719,96.2929143 17.0633071,96.1517671 C17.2110288,96.1256015 17.1742917,95.8926902 17.0257966,95.9184874" id="Fill-43" fill="#B9BBBD"></path>
                                <path d="M73.7862925,118.910301 L13.9297815,126.344197 C13.853446,126.353375 13.7834062,126.297109 13.7735691,126.217698 L12.5392155,116.080241 C12.5293784,116.001229 12.5840725,115.929001 12.660408,115.919424 L72.516919,108.485926 C72.593648,108.476349 72.6632943,108.532615 72.6731314,108.612425 L73.907485,118.749484 C73.9173221,118.828895 73.8626281,118.900724 73.7862925,118.910301" id="Fill-45" fill="#E43880"></path>
                                <polygon id="Fill-47" fill="#242449" points="24.4162437 124.899719 18.3763028 125.683685 17.1573604 115.222268 23.1973012 114.438302"></polygon>
                                <polygon id="Fill-49" fill="#242449" points="27.715736 124.848868 26.3317201 125.022192 25.0761421 114.611626 26.4597688 114.438302"></polygon>
                                <path d="M32.3219522,118.83234 C32.4356204,119.920328 31.7954704,120.90786 30.8915383,121.038964 C29.9876062,121.169216 29.1627004,120.393237 29.0486715,119.305249 C28.9346425,118.217261 29.5755142,117.229303 30.4790854,117.098625 C31.3826567,116.967947 32.2082841,117.744352 32.3219522,118.83234" id="Fill-51" fill="#242449"></path>
                                <path d="M73.1272234,108.973264 L13.6764853,116.421799 C13.6006672,116.430995 13.5311022,116.374619 13.5213318,116.295051 L12.5392144,108.157599 C12.529444,108.078032 12.5833764,108.005662 12.6595853,107.996466 L72.1103234,100.54793 C72.1865323,100.538734 72.2560973,100.595111 72.2654769,100.674678 L73.2475943,108.81213 C73.2573647,108.891697 73.2030414,108.963668 73.1272234,108.973264" id="Fill-53" fill="#4095D1"></path>
                                <polygon id="Fill-55" fill="#F5D5D4" points="20.4568528 109.146358 20.8677261 112.453823 22.4365482 110.767501"></polygon>
                                <polygon id="Fill-57" fill="#F5D5D4" points="22.4365482 109.146358 22.8471985 111.79233 24.4162437 110.442791"></polygon>
                                <polygon id="Fill-59" fill="#F5D5D4" points="16.4974619 115.727144 16.2206011 115.761288 15.177665 107.196429 15.4549265 107.161878"></polygon>
                                <polygon id="Fill-61" fill="#F5D5D4" points="17.8172589 115.727144 17.5399973 115.761288 16.4974619 107.196429 16.7747235 107.161878"></polygon>
                                <path d="M24.4162437,14.7850799 L20.124656,16.5373269 L20.1434822,15.5042946 C20.1995605,12.3937502 19.5073948,8.67451809 18.4771574,5.72463253 L18.6497982,5.53081562 L22.509984,1.98447923 L24.4162437,14.7850799 Z" id="Fill-63" fill="#D2D3D2"></path>
                                <polygon id="Fill-65" fill="#93B79B" points="48.8324873 11.9068754 24.3456582 13.794502 20.4568528 15.8758338 46.9781555 13.8868118"></polygon>
                                <path d="M20.5137343,16.1825155 C21.20009,15.9592486 21.8383933,15.4516437 22.481237,15.0439735 C23.0843523,14.661287 23.6863325,14.2797902 24.2871775,13.8986899 C24.3825257,13.8380153 24.470685,14.1719241 24.3749584,14.2322022 C23.7260609,14.6442347 23.0760282,15.0566636 22.4252389,15.4706789 C21.8145563,15.8577277 21.2121977,16.3225034 20.56103,16.535063 C20.4584928,16.5687711 20.4119538,16.2154305 20.5137343,16.1825155" id="Fill-67" fill="#A8BFB9"></path>
                                <path d="M23.030132,2.47957033 C21.5353136,3.42631701 20.0997167,4.57360424 18.7334216,5.92556301 C18.591878,6.06564096 18.3822926,5.63939841 18.5246763,5.49819382 C19.9119719,4.12708231 21.3652092,2.95726243 22.8822882,1.99774725 C23.0385322,1.89897915 23.185956,2.38080223 23.030132,2.47957033" id="Fill-69" fill="#A8BFB9"></path>
                                <path d="M47.3342274,0 L22.4365482,1.89580595 L22.928425,4.58723898 C23.3264801,6.76399107 23.6369945,8.95390041 23.8572202,11.1356832 L24.1194498,13.8913546 L48.8255601,11.8817771 L48.8279154,11.7176983 C48.8871919,7.86184807 48.3690137,3.78658119 47.3342274,0" id="Fill-71" fill="#4095D1"></path>
                                <path d="M26.3416079,1.54729885 C26.2465092,1.19662506 25.6508456,1.28100967 25.7463765,1.63486779 C26.7462097,5.3326652 27.2044125,9.11484722 27.101533,12.9232999 C27.0915909,13.2855169 27.6907127,13.3515916 27.7010871,12.9869864 C27.8052634,9.12997276 27.3539768,5.29365721 26.3416079,1.54729885" id="Fill-74" fill="#CC3272"></path>
                                <path d="M44.1300003,0.883449819 C44.0361214,0.533237025 43.4695535,0.622483517 43.5638442,0.976282107 C44.54875,4.66925411 45.0189684,8.4514726 44.9551471,12.2643696 C44.9489709,12.6269334 45.5204798,12.687892 45.5270678,12.323336 C45.5917125,8.46183157 45.1276704,4.62502928 44.1300003,0.883449819" id="Fill-76" fill="#4095D1"></path>
                                <path d="M13.1979695,31.5911035 L3.73111697,34.39764 L3.88170192,33.0043825 C4.33384894,28.8104771 3.23269646,23.8738151 1.31979695,20.0092823 L1.71272957,19.7305523 L10.438814,14.5528477 L13.1979695,31.5911035 Z" id="Fill-78" fill="#FFFFFF"></path>
                                <polygon id="Fill-80" fill="#242449" points="67.3096447 25.79823 12.8185807 31.033798 3.95939086 34.39764 62.9723777 28.8057344"></polygon>
                                <path d="M3.44478246,33.924694 C5.02949031,33.54877 6.53433947,32.7969219 8.03957819,32.1787707 C9.45171338,31.5983692 10.8607321,31.0195406 12.267024,30.4411053 C12.4902387,30.3498768 12.6554099,30.7879305 12.4318056,30.8799454 C10.913322,31.5043882 9.39172198,32.130404 7.86661598,32.7575993 C6.43850906,33.3446857 5.01858278,34.0359769 3.51568139,34.3930261 C3.27883223,34.4488642 3.20988108,33.9805321 3.44478246,33.924694" id="Fill-82" fill="#0B2739"></path>
                                <path d="M10.4017214,15.2335558 C7.21409999,16.7003346 4.12566294,18.44182 1.156796,20.4611073 C0.849442018,20.6704261 0.464073445,20.0962505 0.774563689,19.8853841 C3.78812241,17.8370784 6.91497871,16.0627056 10.1504282,14.5758075 C10.4836564,14.4225908 10.7341655,15.0807261 10.4017214,15.2335558" id="Fill-84" fill="#0B2739"></path>
                                <path d="M65.102198,9.26090307 L9.89847716,14.5804209 L10.6930012,18.2725863 C11.3348228,21.2584521 11.782724,24.2721562 12.0323867,27.2846672 L12.3118833,31.0901746 L67.1042102,25.6330556 L67.1273707,25.4047808 C67.6777278,20.0335631 66.9758459,14.4185606 65.102198,9.26090307" id="Fill-86" fill="#0B2739"></path>
                                <path d="M67.6627854,100.906329 L17.3296344,107.161878 L15.8375635,94.8956213 L66.1707145,88.6400723 L66.2391402,88.8019769 C67.8637614,92.6079253 68.3591633,96.8222066 67.6627854,100.906329" id="Fill-88" fill="#DED9E7"></path>
                                <polygon id="Fill-90" fill="#0B2739" points="29.6954315 105.620232 22.6189941 106.500385 21.1167513 94.1502773 28.1939755 93.2705238"></polygon>
                                <path d="M14.374101,82.259821 L4.61928934,82.0251415 L5.10229614,83.0663081 C6.55452587,86.1953672 6.70817338,90.1916681 5.83242269,93.5093443 L6.27250446,93.6459428 L15.8375635,95.9164961 L14.374101,82.259821 Z" id="Fill-92" fill="#FFFFFF"></path>
                                <polygon id="Fill-94" fill="#9E5A25" points="69.2893401 75.5910813 13.8037886 82.6866346 4.61928934 81.8545827 64.0694436 74.0872246"></polygon>
                                <path d="M4.8125242,82.4232547 C6.33607136,82.3855412 7.8770869,82.6704872 9.39114037,82.8477403 C10.8140544,83.0140985 12.237728,83.1804566 13.6610218,83.3468148 C13.8865918,83.3736332 13.9378578,82.9809945 13.7115282,82.954176 C12.1743101,82.7744087 10.6370921,82.5946413 9.099874,82.4144549 C7.66328903,82.2468396 6.21417239,81.9929025 4.76885323,82.0285207 C4.54138445,82.0343873 4.5873339,82.4287022 4.8125242,82.4232547" id="Fill-96" fill="#9E5A25"></path>
                                <path d="M15.6103227,95.3926908 C12.249111,94.9046455 8.92941033,94.2031035 5.66663918,93.2828847 C5.3290157,93.1877918 5.10920463,93.6695468 5.44999085,93.7653798 C8.75941256,94.698919 12.1218103,95.4182215 15.5316493,95.912927 C15.8827145,95.9643586 15.9613879,95.4437523 15.6103227,95.3926908" id="Fill-98" fill="#9E5A25"></path>
                                <path d="M70.931061,88.5526936 L15.4475695,95.2550031 L15.3331771,92.3815876 C15.2400121,90.050282 14.9573723,87.7298342 14.4872231,85.4427351 L13.857868,82.5530331 L69.2855391,75.4102108 L69.3618007,75.5835463 C71.152377,79.6613921 71.6983946,84.1762608 70.931061,88.5526936" id="Fill-100" fill="#F08C21"></path>
                                <path d="M63.8886146,75.5343468 L11.5671275,82.0240935 C11.4916337,82.0336023 11.4216162,81.977342 11.4122284,81.8984983 L9.89961482,69.4923054 C9.88983583,69.4138579 9.94420699,69.3421458 10.0200919,69.332637 L62.341579,62.8428903 C62.4174639,62.8333815 62.4870903,62.8896418 62.4964781,62.9684855 L64.0090917,75.3746784 C64.0184795,75.4531259 63.9644995,75.524838 63.8886146,75.5343468" id="Fill-102" fill="#4095D1"></path>
                                <path d="M68.5080341,52.8757054 L3.88952415,60.856238 C3.81332584,60.8660905 3.74416122,60.8101282 3.73439221,60.7317023 L2.64065342,51.7990232 C2.63127516,51.7209913 2.68520012,51.6496591 2.76100767,51.6402007 L67.3791268,43.6596681 C67.4557159,43.6498156 67.5244898,43.7057779 67.5346495,43.7842039 L68.6283883,52.716883 C68.6377666,52.7949148 68.5834509,52.866247 68.5080341,52.8757054" id="Fill-104" fill="#4095D1"></path>
                                <path d="M56.7086918,45.2168014 L15.4312466,50.2734738 L13.1979695,32.1774969 L54.4750231,27.1212161 L54.7495325,28.1103777 C56.200399,33.3425529 56.8696381,38.7643338 56.7341456,44.1908155 L56.7086918,45.2168014 Z" id="Fill-106" fill="#E43880"></path>
                                <polygon id="Fill-108" fill="#F8C6DC" points="28.3756345 48.5914484 20.0559018 49.6119808 17.8172589 31.4496124 26.1369916 30.4286815"></polygon>
                                <polygon id="Fill-110" fill="#E43880" points="26.3959391 49.0454972 21.9352047 49.6119808 19.7969543 31.6570521 24.2580686 31.0901746"></polygon>
                                <polygon id="Fill-112" fill-opacity="0.1" fill="#000000" points="13.1979695 32.1080412 54.2854749 27.1212161 55.4314721 31.646756 13.318806 33.0746538"></polygon>
                                <path d="M33.6311827,6.5909941 C33.8363381,8.22300892 32.6834222,9.70488812 31.0570387,9.90087598 C29.4294169,10.0968638 27.9446196,8.93229831 27.7394641,7.30028348 C27.5338958,5.66826866 28.6868118,4.18638946 30.3140209,3.99040161 C31.9412299,3.79481952 33.4260272,4.95897928 33.6311827,6.5909941" id="Fill-115" fill="#164668"></path>
                                <path d="M9.1356712,55.7505965 C8.48534286,55.1575042 7.76622599,54.6726457 6.96843718,54.2737161 C6.65335409,54.1164845 6.43947711,54.5951268 6.75179285,54.7512615 C7.43177141,55.090955 8.04098477,55.5070703 8.60473445,55.994854 C8.15128362,56.6314593 7.65592714,57.2329617 7.10799092,57.8015552 C6.86999842,58.0491036 7.30684512,58.3690517 7.54365161,58.1229659 C8.14930694,57.4940394 8.69368513,56.8281817 9.18429757,56.1158858 C9.27245759,55.9886379 9.25110942,55.8559052 9.1356712,55.7505965" id="Fill-118" fill="#DED9E7"></path>
                                <path d="M12.4883772,55.0561843 C12.0981315,54.5021793 11.4337061,54.0751338 10.9506771,53.641493 C10.7001275,53.4160163 10.4019701,53.8764505 10.6539097,54.1027516 C11.0615305,54.4683784 11.6293502,54.8298832 12.0004832,55.2796 C11.845497,55.5747396 11.5622821,55.8690547 11.3916582,56.1118441 C11.1636964,56.4358381 10.936082,56.7594199 10.7084676,57.0830017 C10.5065685,57.3703093 10.8895166,57.7314019 11.0910683,57.4453308 C11.364553,57.0570327 11.6380378,56.6683224 11.911175,56.2800242 C12.1134217,55.9927166 12.399764,55.7029357 12.5189575,55.3496751 C12.5505802,55.2569287 12.5446727,55.1361523 12.4883772,55.0561843" id="Fill-120" fill="#DED9E7"></path>
                                <path d="M14.1595719,52.3254286 C13.9679777,52.078149 13.7382793,52.571825 13.9301419,52.8195461 C14.0455278,52.9679139 14.2899848,53.512812 14.0449911,53.6444001 C13.8166344,53.7671567 13.9610009,54.3482636 14.1890893,54.225507 C14.4177143,54.1027504 14.5352469,53.7181424 14.5156581,53.3291186 C14.4955327,52.9264062 14.3468727,52.5669677 14.1595719,52.3254286" id="Fill-122" fill="#DED9E7"></path>
                                <path d="M16.5244659,54.8729978 C16.3499638,55.0752492 16.0451327,55.1210009 15.8472662,54.930369 C15.438756,54.5363963 15.8925345,53.9336364 16.38355,54.1278994 C16.4357546,54.1485966 16.4839435,54.1507752 16.5277515,54.1416975 C16.671588,54.3657354 16.7135708,54.6540435 16.5244659,54.8729978 M16.8490107,53.7190393 C16.7646802,53.6246311 16.6533347,53.6126486 16.5598775,53.6471439 C16.1101146,53.4812033 15.5833226,53.6318933 15.3190139,54.0465631 C15.0583559,54.4568756 15.1744473,55.0222354 15.5340385,55.3366873 C15.9319618,55.6849082 16.5204502,55.6202749 16.8763908,55.2462733 C17.2801551,54.8214364 17.2290457,54.1446024 16.8490107,53.7190393" id="Fill-124" fill="#DED9E7"></path>
                                <polygon id="Fill-126" fill="#DED9E7" points="56.751269 75.9955625 56.1837611 76.0717038 54.7715736 63.5790882 55.3383699 63.5033354"></polygon>
                                <polygon id="Fill-128" fill="#DED9E7" points="59.3908629 75.9955625 58.823355 76.0717038 57.4111675 63.5790882 57.9779639 63.5033354"></polygon>
                                <path d="M15.8375635,95.6059921 L66.6092748,89.3015654 C66.6092748,89.3015654 67.089405,90.516512 67.3096447,91.3417363 L15.9317836,95.9164961 L15.8375635,95.6059921 Z" id="Fill-130" fill-opacity="0.1" fill="#000000"></path>
                                <path d="M65.868434,62.7978992 L1.24993012,70.7787168 C1.17373182,70.7881751 1.10456721,70.7322136 1.0947982,70.6537887 L0.00105950656,61.7212317 C-0.00831874588,61.6432009 0.0456062056,61.5714756 0.121413746,61.5624114 L64.7399176,53.5819879 C64.8161159,53.5725296 64.8852805,53.628097 64.8950495,53.7065219 L65.9887882,62.6390789 C65.9981665,62.7171097 65.9442415,62.7884409 65.868434,62.7978992" id="Fill-133" fill="#242449"></path>
                                <polygon id="Fill-136" fill="#DED9E7" points="9.23857868 66.6878008 8.34259275 66.8108008 7.91878173 62.9652442 8.81548416 62.8418423"></polygon>
                                <polygon id="Fill-138" fill="#DED9E7" points="12.5380711 66.0263078 11.6417269 66.1493077 11.2182741 62.3037511 12.1146183 62.1803492"></polygon>
                                <path d="M68.6294416,53.0900199 L3.63981444,60.8549693 C3.44815665,60.8787859 3.28315067,60.7215211 3.30078788,60.5328789 L68.3582204,52.2579531 L68.6294416,53.0900199 Z" id="Fill-140" fill="#F5D5D4"></path>
                                <path d="M67.9695431,52.4285269 L2.97952678,60.1934761 C2.787869,60.2172927 2.62325496,60.0600279 2.64089218,59.8717638 L67.69793,51.59646 L67.9695431,52.4285269 Z" id="Fill-142" fill="#DED9E7"></path>
                                <path d="M10.5583756,34.1227895 C10.5583756,34.1227895 14.0949109,45.2752301 12.2894601,50.262587 L15.8375635,50.2734738 L13.4937825,32.4131608 L10.5583756,34.1227895 Z" id="Fill-144" fill="#B9BBBD"></path>
                            </g>
                        </g>
                    </g>
                    <g id="Group-77" mask="url(#mask-2)">
                        <g transform="translate(151.421320, 25.076142)">
                            <g id="Group-76" stroke-width="1" fill="none" transform="translate(57.868020, 0.000000)">
                                <path d="M0.0351724095,52.6456927 C4.6376528,55.4435346 9.78619687,57.3419997 15.1051886,58.2011764 C16.0556708,53.8465695 17.0606016,49.5045742 18.1215591,45.1747967 C18.578848,43.3094374 19.0574428,41.4129428 19.971626,39.7087777 C20.4585065,38.802701 22.2864784,37.1513476 21.7179251,35.9760885 C20.7224636,33.9172174 16.3886749,36.1956121 15.1513515,36.8798005 C11.923105,38.6647598 8.97104689,41.1477016 6.43287661,43.8052375 C5.81973863,44.4468612 -0.52667346,52.3043867 0.0351724095,52.6456927" id="Fill-146" fill="#4095D1"></path>
                                <path d="M13.1398328,61.1019225 C13.1039283,61.9622815 13.080255,62.8222464 13.0652619,63.6802408 C12.7567202,81.1573922 13.7210118,98.8572202 13.8318817,116.479407 C22.8671839,115.066889 32.0015194,114.288506 41.1453242,114.150171 C43.2625047,114.118642 52.8849043,115.602495 54.224812,114.34053 C56.04292,112.6273 54.0437114,112.949688 54.1766763,110.718194 C54.3487022,107.830493 52.9598697,105.465787 53.4846274,102.044056 C54.1009218,98.0224788 55.3279869,94.0446484 56.0346343,90.0238591 C57.4510857,81.9613924 58.3041129,73.8003962 58.5806957,65.6193001 C58.8265033,58.3631982 58.5629408,50.837914 55.4388568,44.2817653 C47.7355711,28.1154494 22.8987483,28.4063083 16.0839998,45.2863714 C14.0654581,50.285755 13.3647289,55.6985682 13.1398328,61.1019225" id="Fill-148" fill="#FFFFFF"></path>
                                <path d="M41.1651703,38.4243479 L34.4194689,50.7038745 C34.7722008,63.1083365 35.1245381,75.5131926 35.47727,87.9180486 C35.639432,93.6343324 35.8019885,99.3514044 35.964545,105.067688 C36.0209664,107.052859 36.0702857,109.038425 36.133809,111.023201 C36.1622169,111.914302 35.9160148,113.41392 36.4245958,114.141067 C37.5289544,115.719509 41.5664324,115.227255 43.3269354,115.365591 C46.0734306,115.581567 48.8597758,115.80582 51.4464763,116.752885 C53.1683129,117.383474 54.8005857,118.332903 56.6171154,118.587898 C57.025085,118.64465 57.4815847,118.652927 57.8019631,118.394386 C58.1606133,118.104709 58.2213748,117.591962 58.2553065,117.132815 C58.886594,108.617113 58.9000088,99.8373516 59.3726853,91.2302142 C59.7447504,84.4608477 60.6628791,77.6374872 60.3393443,70.8582679 C60.0063402,63.8851426 58.9134237,56.9486702 57.5794343,50.1040273 C56.7895358,46.0521028 55.8607541,41.9209606 53.6275746,38.4476009 C51.0957172,34.5095764 47.5123715,32.931923 43.0984883,32.044764 C41.5396027,31.7310462 35.7376761,29.5397516 36.7059133,33.0797172 C37.1852972,34.8303882 39.9822954,37.0181358 41.1651703,38.4243479" id="Fill-150" fill="#4095D1"></path>
                                <path d="M26.4895905,39.5791917 L33.2352919,51.8587184 C33.0940414,51.8587184 32.3798974,81.9594612 32.3218978,83.9911382 C32.1025254,91.7174225 31.883153,99.444495 31.6633861,107.170779 C31.6026246,109.318327 31.8910441,111.833981 31.4708434,113.945269 C30.883746,116.892482 27.7778115,116.31234 25.1311387,116.550782 C19.3414433,117.071805 13.245968,118.059464 7.44049036,117.766635 C5.76560573,117.6819 7.96958819,82.7729203 7.96643175,79.5155371 C7.95498967,67.7988106 5.53518579,54.799625 11.4933561,44.1742105 C13.2270294,41.0827509 16.2836445,36.1267203 19.657087,34.6003023 C22.8001096,33.1779313 27.3011895,32.935943 30.7132984,32.1390369 L30.8912426,34.3480669 L26.4895905,39.5791917 Z" id="Fill-152" fill="#4095D1"></path>
                                <path d="M41.130489,9.83551955 C42.1926302,11.6941788 42.7039731,13.8358147 42.7990607,15.9742976 C42.8235231,16.5426154 42.8629786,17.1996096 43.3226348,17.5350038 C43.8154336,17.8944392 43.3822126,18.6826747 43.7570395,18.2022452 C44.1314719,17.7214215 45.4043053,16.0515446 45.4615157,15.4449974 C45.5956643,14.0238088 45.5940861,12.5900085 45.4555974,11.169214 C45.3352582,9.93404899 45.0827432,8.64252514 44.273117,7.70058372 C43.7933385,7.14211888 43.1525817,6.7495776 42.5216888,6.36885986 C41.6075056,5.81670089 40.6645199,5.25981252 39.6142153,5.06472424 C37.8032093,4.72735944 36.6925379,5.37647137 38.2904844,6.63764816 C39.4350875,7.54136015 40.4029301,8.56212512 41.130489,9.83551955" id="Fill-154" fill="#242449"></path>
                                <path d="M29.8167123,34.0916539 C29.828549,34.9665953 29.6494211,35.8746426 30.4223538,36.5533133 C30.7936297,36.8796428 31.2958978,37.0104899 31.7847511,37.087737 C33.0477206,37.2875547 34.3564585,37.194937 35.5787889,36.8185546 C36.0814516,36.6640604 36.5821415,36.4539957 36.9617031,36.090225 C37.4099172,35.6602425 37.4331959,35.2527248 37.4545019,34.6895305 C37.4797534,34.0297774 37.6131129,33.3593831 37.6995204,32.6901712 C37.888512,31.226812 37.9737359,29.7520234 38.0159532,28.278023 C40.1856094,27.90637 42.7375891,27.2056286 43.4793519,24.9355104 C43.7129283,24.2201867 43.7208194,23.4425924 43.7267377,22.681551 C43.7496219,19.5364914 43.7725061,16.3910377 43.7957848,13.2463722 C43.8032813,12.1582131 43.8060432,11.0373422 43.433189,10.0276125 C42.7790174,8.25644739 41.1159694,7.20060595 39.4856694,6.53612343 C35.3243012,4.841023 30.474435,4.90881125 26.6342342,7.32002363 C25.6123376,7.96164732 24.6472569,8.787324 24.0585813,9.90780075 C23.1511055,11.6352188 23.2655264,13.7685782 23.4059878,15.7620258 C23.5365854,17.6025556 23.6663939,19.4426914 23.7962024,21.2828271 C23.9461332,23.3996336 24.2645388,25.8356753 25.9102264,26.9533933 C26.7833759,27.5469346 27.9125914,27.6561052 28.6654018,28.4242407 C29.9796634,29.7646352 29.3531106,31.7675415 29.7421415,33.3920949 C29.7961955,33.6195008 29.8135559,33.8540009 29.8167123,34.0916539" id="Fill-156" fill="#FABDA4"></path>
                                <path d="M36.6366689,25.8566424 C35.5062698,26.6157132 34.2606606,26.6570956 33.000453,26.2779543 C32.4650423,26.1167601 32.6923058,25.2189599 33.2285056,25.3805482 C34.2724973,25.6942659 35.2584894,25.6859894 36.1995024,25.0542187 C36.672968,24.7361657 37.1073727,25.54056 36.6366689,25.8566424 M44.4898854,21.4275472 C44.45477,20.844647 44.1998877,19.1353584 43.3212144,20.2097233 C43.0919781,20.4907293 43.0355568,20.8872117 43.0217474,21.2616236 C43.0071489,21.6356413 43.0241147,22.0203003 42.9065374,22.3726415 C42.6354784,23.1805829 41.7402338,23.5482948 40.9424442,23.5341065 C40.6248277,23.5285889 40.3016874,23.4765653 40.021159,23.3169477 C39.7493108,23.1620594 39.5327003,22.9161299 39.3220081,22.6741416 C38.8098761,22.0876944 38.2981387,21.5008531 37.7860067,20.9136176 C36.9065444,19.9050703 35.1610344,20.3413587 33.9750031,20.4962469 C32.6082656,20.6743882 31.2411336,21.0862412 30.1245439,21.9844356 C30.0117013,22.0746885 29.902015,22.170065 29.7915397,22.2650474 C29.5224534,22.4971827 29.2517889,22.7269534 28.9389071,22.8790828 C27.8830787,23.3922241 26.5767082,22.856224 25.8369181,21.8965473 C25.4979957,21.4563178 25.1815628,20.8899706 24.6552269,20.8162706 C24.2433118,20.7587294 23.8420497,21.0539236 23.6305683,21.4389766 C23.4194816,21.8240296 23.3622712,22.2831768 23.3338632,22.7293181 C23.2300953,24.3538714 23.4542024,26.029266 24.1588771,27.4701605 C25.6877765,30.594726 28.6429911,30.9782025 31.6135933,30.9084437 C32.7873935,30.8804613 33.9619827,30.8528731 35.1357829,30.8252848 C37.282555,30.7748378 39.551639,30.685373 41.3594885,29.4395668 C42.9550677,28.3399783 43.902788,26.4702837 44.2914244,24.5127009 C44.4918582,23.5017889 44.552225,22.4585592 44.4898854,21.4275472" id="Fill-158" fill="#242449"></path>
                                <path d="M44.9384941,4.38483171 C45.1452407,3.62260799 45.2987225,2.84580191 45.396572,2.06190171 C44.6698023,2.3168959 43.8787202,2.38429003 43.119597,2.25659588 C43.1180187,1.80454283 43.1164405,1.35248977 43.1140732,0.900042599 C43.1109168,0.523660151 38.0168212,0.260389496 37.6025388,0.22649537 C33.7276173,-0.0907694156 30.1837271,-0.393057727 26.6796869,1.68433691 C23.6862006,3.45904912 21.7670866,6.10909685 21.3078249,9.55841537 C20.8690801,12.8536338 21.9485817,17.1573996 23.8562536,19.8925768 C23.8456007,19.0152707 23.3401761,16.9457584 23.5473173,16.1121994 C23.6743639,15.2762756 23.9631779,14.4710931 24.3620727,13.7269988 C25.1578895,12.2423572 26.391662,10.9922157 27.816399,10.0999331 C30.0874558,8.67835044 32.7282102,7.9267679 35.3654138,7.55945016 C37.7816666,7.22326772 40.7266228,6.91309705 43.1140732,7.55275016 C44.2614382,7.85976788 44.4524027,8.14747383 45.1472135,6.99073825 C45.2695254,6.78658526 46.2413136,4.4045376 46.1462259,4.40296113 C45.7433856,4.39704936 45.3409398,4.39074348 44.9384941,4.38483171" id="Fill-160" fill="#242449"></path>
                            </g>
                            <g id="Group-75" stroke-width="1" fill="none" transform="translate(0.000000, 49.187817)">
                                <path d="M177.841757,14.3944944 L91.1068706,22.988626 L4.37238006,14.3944944 C1.93151073,14.1525061 -0.14399925,16.1640831 0.00783840204,18.6233778 L3.62624035,104.15757 C3.74723598,106.112 5.25335477,107.690836 7.19165729,107.889471 C21.4620241,109.352436 77.1536231,114.894126 83.3975511,115.601961 C83.7134842,115.637432 83.9890853,115.823061 84.1353872,116.106432 C84.554127,116.920285 86.0590595,118.586615 91.1068706,118.586615 C96.1546817,118.586615 97.6596143,116.920285 98.0783541,116.106432 C98.224656,115.823061 98.5006525,115.637432 98.8161901,115.601961 C105.060118,114.894126 160.752113,109.352436 175.022479,107.889471 C176.960782,107.690836 178.467296,106.112 178.587501,104.15757 L182.206298,18.6233778 C182.357741,16.1640831 180.282231,14.1525061 177.841757,14.3944944" id="Fill-162" fill="#0B2739"></path>
                                <path d="M177.841757,12.9791781 L91.1068706,21.5733097 L4.37238006,12.9791781 C1.93151073,12.7371899 -0.14399925,14.7487668 0.00783840204,17.2080616 L3.62624035,102.742254 C3.74723598,104.696684 5.25335477,106.275519 7.19165729,106.474155 C21.4620241,107.93712 77.1536231,113.478809 83.3975511,114.186251 C83.7134842,114.222115 83.9890853,114.407745 84.1353872,114.691116 C84.554127,115.504969 86.0590595,117.171298 91.1068706,117.171298 C96.1546817,117.171298 97.6596143,115.504969 98.0783541,114.691116 C98.224656,114.407745 98.5006525,114.222115 98.8161901,114.186251 C105.060118,113.478809 160.752113,107.93712 175.022479,106.474155 C176.960782,106.275519 178.467296,104.696684 178.587501,102.742254 L182.206298,17.2080616 C182.357741,14.7487668 180.282231,12.7371899 177.841757,12.9791781" id="Fill-164" fill="#4095D1"></path>
                                <path d="M91.4337565,20.9501702 C51.4751479,-5.68509537 11.1899302,6.37293707 11.1899302,6.37293707 L11.1899302,98.8841957 C66.8827154,87.6218869 91.1071474,110.950899 91.1071474,110.950899 C91.1071474,110.950899 115.331579,87.6218869 171.024365,98.8841957 L171.024365,6.37293707 C171.024365,6.37293707 131.392365,-5.68509537 91.4337565,20.9501702" id="Fill-166" fill="#E0D7C6"></path>
                                <path d="M7.19161775,106.023599 C7.19161775,106.023599 62.7432415,93.353896 87.5789782,115.677119 L91.1068311,115.677119 L91.1068311,110.950859 C91.1068311,110.950859 66.0358251,87.2198474 11.1896138,98.8841562 L7.19161775,106.023599 Z" id="Fill-172" fill="#CDC3B3"></path>
                                <path d="M175.022519,106.023599 C175.022519,106.023599 119.470895,93.353896 94.6347631,115.677119 L91.1069102,115.677119 L91.1069102,110.950859 C91.1069102,110.950859 116.178312,87.2198474 171.024127,98.8841562 L175.022519,106.023599 Z" id="Fill-174" fill="#CDC3B3"></path>
                                <path d="M49.7105888,0.712263297 C44.8964653,0.237351413 40.119115,0.0454160702 35.5695212,-1.12015001e-14 C33.4722637,-0.0204015935 16.22406,0.635016219 16.22406,1.22028107 L16.22406,27.3778759 L16.22406,94.308528 C16.22406,93.7205044 33.5118047,93.0670571 35.6153889,93.0891277 C50.4634505,93.2459866 67.1489849,95.9555461 80.2781968,103.180907 C82.4719346,104.388089 91.368672,109.137602 91.368672,112.47578 L91.368672,21.8728392 C91.368672,20.0260035 90.6778897,18.2422265 89.4082264,16.888038 C79.4399265,6.25277057 64.4028586,2.16182837 49.7105888,0.712263297" id="Fill-176" fill="#F2F2F2"></path>
                                <path d="M133.026399,0.712263297 C137.840523,0.237351413 142.617873,0.0454160702 147.167467,-1.12015001e-14 C149.264724,-0.0204015935 166.512928,0.635016219 166.512928,1.22028107 L166.512928,27.3778759 L166.512928,94.308528 C166.512928,93.7205044 149.225183,93.0670571 147.121599,93.0891277 C132.273538,93.2459866 115.588003,95.9555461 102.458791,103.180907 C100.265053,104.388089 91.3683161,109.137602 91.3683161,112.47578 L91.3683161,21.8728392 C91.3683161,20.0260035 92.0590983,18.2422265 93.3287616,16.888038 C103.297062,6.25277057 118.334129,2.16182837 133.026399,0.712263297" id="Fill-178" fill="#FFFFFF"></path>
                                <path d="M133.026399,0.712263297 C137.840523,0.237351413 142.617873,0.0454160702 147.167467,7.84105005e-14 C149.264724,-0.0204015935 166.512928,0.635016219 166.512928,1.22028107 L166.512928,27.3778759 L166.512928,94.308528 C166.512928,93.7205044 149.225183,93.0670571 147.121599,93.0891277 C132.273538,93.2459866 115.588003,95.9555461 102.458791,103.180907 C100.265053,104.388089 91.3683161,109.137602 91.3683161,112.47578 L91.3683161,21.8728392 C91.3683161,20.0260035 92.0590983,18.2422265 93.3287616,16.888038 C103.297062,6.25277057 118.334129,2.16182837 133.026399,0.712263297" id="Fill-180" fill-opacity="0.1" fill="#232020"></path>
                                <path d="M91.3684743,26.3517903 L91.3684743,112.476371 C91.3684743,109.137405 100.265212,104.388286 102.458949,103.18071 C112.987151,97.3871788 125.80043,94.5018428 138.121422,93.5031484 L138.121422,93.4999955 C100.146984,77.060556 92.6855868,36.8199518 91.3684743,26.3517903" id="Fill-183" fill-opacity="0.1" fill="#232020"></path>
                            </g>
                            <path d="M117.306392,59.7651974 C117.191355,59.6903254 117.073369,59.6120694 116.989093,59.5168932 C116.205327,58.6260437 116.395369,57.7842628 115.917525,56.7584746 C115.703885,56.3003597 114.277094,56.0097549 114.95088,55.2077365 C115.199915,54.9120557 115.933116,54.2657034 116.471639,53.6396553 C117.450504,52.4996556 116.536531,50.8444352 117.557113,49.5648437 C118.434846,48.4650295 121.596457,47.4493934 122.705107,49.0656972 C123.120166,49.6722871 122.543297,50.6502757 122.631787,51.3088952 C122.768314,52.3203013 123.580313,52.994572 123.947334,53.9340671 C124.273482,54.7678109 124.457625,55.9243078 124.408323,56.7872389 C124.310142,58.4889899 122.595548,59.3899915 121.194461,60.3083364 C120.845559,60.5367594 120.610851,60.6924254 120.197477,60.745301 C119.525798,60.8315942 118.929125,60.5553716 118.32613,60.2990303 C117.969222,60.1475943 117.623691,59.9712011 117.306392,59.7651974" id="Fill-247" fill="#FABDA4"></path>
                            <path d="M125.559403,54.0101523 C126.842434,53.4432698 127.494607,52.0006027 127.263825,50.7159437 C127.032634,49.4309103 126.04843,48.3304694 124.840413,47.6392772 C123.631987,46.948085 122.215733,46.6223335 120.804809,46.4339967 C119.13318,46.2104638 117.344315,46.1838795 115.848948,46.9005328 C115.014773,47.3004208 114.324068,47.9077413 113.685422,48.5393997 C113.254192,48.9662464 112.816404,49.4702251 112.843868,50.050587 C112.864364,50.4658265 113.124249,50.837258 113.392743,51.1734935 C115.139387,53.3564028 115.785001,53.2695357 118.479777,53.1354909 C120.869166,53.0164231 123.262244,53.4485118 125.559403,54.0101523" id="Fill-249" fill="#4095D1"></path>
                            <path d="M60.4936337,57.2925152 C60.6186718,57.2381652 60.7466373,57.180866 60.8444933,57.1008156 C61.756561,56.3538194 61.7063784,55.4955954 62.3411876,54.5661687 C62.6247189,54.1515921 64.0691398,54.0997701 63.5388776,53.2015208 C63.3431657,52.8699438 62.7301023,52.1145213 62.3052234,51.4113422 C61.5311577,50.1309578 62.6949745,48.6542395 61.9033449,47.2293432 C61.2225351,46.0045728 58.2922928,44.4882506 56.9448916,45.8946089 C56.4401388,46.4216773 56.8457811,47.4779206 56.6517419,48.1103184 C56.3548285,49.0818769 55.4502882,49.6110519 54.9384263,50.4734891 C54.4838561,51.2394446 54.1158508,52.3454034 54.0246858,53.2010995 C53.8444469,54.888898 55.3771053,56.0559479 56.5990502,57.1880284 C56.9039092,57.4698899 57.1079848,57.6611681 57.5044269,57.7812436 C58.1484362,57.9763137 58.7773907,57.8027308 59.4088544,57.6497925 C59.7827143,57.5596305 60.1498833,57.4429256 60.4936337,57.2925152" id="Fill-251" fill="#FABDA4"></path>
                            <path d="M53.3507536,50.5247274 C52.1940711,49.732914 51.8128546,48.1315424 52.2686038,46.8334101 C52.7239457,45.5348834 53.8851083,44.5470883 55.1924854,44.0194756 C56.4998625,43.4922572 57.9465302,43.3775074 59.363059,43.4047161 C61.0410632,43.4362624 62.7993021,43.6913935 64.1372253,44.6716964 C64.8829597,45.2186312 65.4519335,45.9587875 65.9647023,46.7158999 C66.3108924,47.2277394 66.6505661,47.8200222 66.5194211,48.4182198 C66.4257461,48.8472502 66.1048075,49.1918941 65.7814251,49.498288 C63.679847,51.4908344 63.0628139,51.2980073 60.4460233,50.7333276 C58.1253272,50.2329236 55.7019959,50.3035086 53.3507536,50.5247274" id="Fill-253" fill="#4095D1"></path>
                            <path d="M11.5736041,54.9746193 C11.5736041,54.9746193 9.84869467,62.0597489 3.85786802,66.3108267 L7.71554527,155.279188 C7.71554527,155.279188 11.5736041,152.141261 11.5736041,148.092502 L11.5736041,54.9746193 Z" id="Fill-168" fill="#C3BAAB"></path>
                        </g>
                    </g>
                    <g id="Group-84" mask="url(#mask-2)">
                        <g transform="translate(306.700508, 33.756345)">
                            <path d="M42.4365482,41.4720812 C42.4365482,41.4720812 44.3770713,48.897842 51.1167513,53.3532985 L46.7764351,146.598985 C46.7764351,146.598985 42.4365482,143.310196 42.4365482,139.066785 L42.4365482,41.4720812 Z" id="Fill-170" fill="#C3BAAB"></path>
                            <path d="M43.5685032,45.7542526 C45.1239145,44.3058764 46.8840293,43.01726 48.9151247,42.2125598 C49.9281555,41.8163218 51.0078827,41.5414844 52.1173927,41.4845779 C52.6706795,41.4571785 53.2294195,41.4720812 53.7776726,41.5579241 C54.3347347,41.6017632 54.8662088,41.7535139 55.4043946,41.8837666 C57.5290327,42.5067875 59.412473,43.6925507 61.0962435,45.0498764 C62.7741413,46.4278571 64.2452383,48.028827 65.5556765,49.7393947 C68.1543208,53.1824495 70.128787,57.0710613 71.4547458,61.1670657 C72.1183544,63.2152786 72.6242406,65.3174474 72.9422022,67.4520739 C73.2488381,69.5879651 73.3675493,71.7550494 73.2614223,73.9166539 C73.1552953,76.0774153 72.8218131,78.2326968 72.2290957,80.3209551 C71.6426704,82.4100564 70.7634519,84.4232824 69.6275151,86.2695827 C69.0989772,87.2205537 68.4194286,88.0669854 67.7776327,88.9382874 C67.4475063,89.3665616 67.0666235,89.7522613 66.7130065,90.1607236 L66.1731429,90.7647757 C65.9898325,90.9628947 65.7838706,91.1386726 65.5904929,91.3262533 L64.4121891,92.434455 L63.1499905,93.4402249 C62.9381559,93.6067291 62.730516,93.7778702 62.5157451,93.9393161 L61.8466833,94.3882453 C61.3995235,94.6854237 60.9578169,94.9922974 60.5056235,95.2806237 L59.1049982,96.070992 C58.870512,96.1999801 58.6410595,96.3395064 58.401959,96.4600639 L57.6750098,96.8019245 L56.2202724,97.4801658 L54.723168,98.0547109 L53.9752451,98.3417726 L53.2092847,98.5769862 L51.6761056,99.0368751 C51.1605715,99.1713431 50.6370673,99.2767256 50.1181774,99.3977046 C49.5976096,99.5110961 49.082495,99.6485148 48.5531182,99.7151165 C44.3558568,100.437197 40.0600188,100.494946 35.8652742,99.8934236 C35.7503382,99.8769839 35.6710576,99.7703369 35.6874171,99.6548377 C35.7033571,99.5427108 35.8069673,99.4638848 35.9185475,99.4752661 C40.0898015,99.907334 44.3139093,99.7534757 48.4063022,98.935708 C48.9226752,98.8573035 49.4235277,98.708925 49.9298334,98.5849953 C50.4336222,98.4530565 50.9420253,98.3367143 51.4424583,98.1925511 L52.9265589,97.7061058 L53.6686092,97.4654123 L54.3922027,97.1737137 L55.8393896,96.5920027 L57.2408537,95.9099676 L57.9405371,95.568107 C58.1704091,95.4475495 58.3902138,95.3088662 58.6154715,95.1798781 L59.9586288,94.3937252 C60.3911069,94.107928 60.8118398,93.8044266 61.2388648,93.5114634 L61.8773049,93.0684357 C62.0820085,92.909519 62.278742,92.7409071 62.4796703,92.5781966 L63.6785283,91.591817 L64.791394,90.5105933 C64.9734459,90.3276494 65.1685016,90.1569298 65.3404861,89.9642907 L65.8467918,89.3783644 C66.1777571,88.9821265 66.5376662,88.6094942 66.845141,88.195552 C67.4420531,87.3541787 68.0788154,86.5402047 68.5637278,85.6280144 C70.7160513,82.105712 71.7764827,77.9835727 71.951823,73.8555321 C72.042849,71.7866642 71.9182651,69.7068365 71.6124682,67.6523006 C71.295765,65.5990292 70.7965904,63.5731574 70.1459855,61.5987121 C68.8309331,57.6574091 66.9567212,53.8834534 64.4847582,50.552947 C63.2544396,48.8874831 61.8655597,47.3375182 60.3042757,46.0029551 C58.7492839,44.6721858 57.0080454,43.533634 55.0965003,42.8996532 C54.6145242,42.7656068 54.1350648,42.6054255 53.6396655,42.5502051 C53.1484609,42.4524102 52.6505447,42.421217 52.1509507,42.4266969 C51.152182,42.4473518 50.1492185,42.6286096 49.1827494,42.9548736 C47.2418411,43.6048725 45.4766925,44.7699807 43.843259,46.0725075 L43.8415811,46.0741936 C43.7509746,46.1466968 43.6188401,46.1315217 43.5466905,46.0400497 C43.4783162,45.9532146 43.4892225,45.8284418 43.5685032,45.7542526" id="Fill-255" fill="#0B2739"></path>
                            <path d="M62.6903553,82.7022121 L67.5083102,77.1573604 L74.63182,80.3510429 C75.983152,80.969888 76.5883498,82.6801105 75.9184871,84.0769322 C75.3754671,85.2103027 74.5708857,86.5399356 73.4176937,87.7294442 C72.1824269,89.0029389 70.2333584,89.0559828 68.8832698,87.9226122 L62.6903553,82.7022121 Z" id="Fill-257" fill="#F8D2B3"></path>
                            <path d="M67.5126904,78.3368019 C67.5126904,78.3368019 71.7341646,74.8522275 72.3350254,79.8619639 C72.3350254,79.8619639 70.6104979,80.8418734 67.5126904,78.3368019" id="Fill-259" fill="#F8D2B3"></path>
                            <path d="M26.0406091,67.5348378 C24.5357146,67.5474568 22.7534055,67.1242997 21.2658493,69.4743782 C19.777505,71.824036 14.9203878,81.0678743 14.5227867,82.8244391 C14.1255797,84.5805833 15.9283795,87.7790792 17.4332741,87.7664975 C18.9389568,87.7534206 26.0406091,67.5348378 26.0406091,67.5348378" id="Fill-261" fill="#0B2739"></path>
                            <path d="M42.4365482,44.0483617 C39.8507416,43.3547013 36.2550003,42.870909 32.9961871,44.4836905 C26.4275754,47.7349602 28.1389834,56.0824845 22.5208235,71.7758133 C17.6538476,85.3725684 12.4027821,90.1485424 15.2919516,95.1204776 C17.5497525,99.0047229 23.1547412,100.223054 25.6606708,100.767531 C31.5333326,102.044017 36.3824636,100.573255 38.4919822,99.7894104 C39.8069792,81.2093418 41.1215512,62.6288518 42.4365482,44.0483617" id="Fill-263" fill="#0B2739"></path>
                            <path d="M71.1989531,105.612002 C71.190916,105.448768 71.1820329,105.289301 71.1739959,105.126904 C59.2198911,107.796408 48.7179605,107.420551 41.6563248,107.534397 L38.4787156,107.168166 C39.372947,137.50375 37.557412,209.025377 30.8629442,253.366442 L43.4790508,253.654822 C61.3679075,190.64313 72.9332712,141.970503 71.1989531,105.612002" id="Fill-265" fill="#B6B7B7"></path>
                            <path d="M49.1947005,146.983598 C46.0857508,146.378799 42.7248388,146.489216 39.3507552,147.301148 C39.0499302,160.975326 38.4865207,176.099028 37.6142132,191.24058 C40.2927453,189.950453 42.8319121,189.741244 45.0252152,190.759481 C50.0300422,193.082787 50.6508125,198.247444 49.7083974,205.595934 C48.8743304,212.096378 47.1246167,219.153055 45.8057456,224.333485 C45.32689,226.213051 44.4082691,230.000826 44.2769768,232.153527 C44.0653796,235.61877 44.8917985,239.213939 47.8001983,241.116751 C55.7482664,212.956878 62.2300251,187.833866 66.5482234,165.543486 C63.6415232,155.566592 57.742719,148.645653 49.1947005,146.983598" id="Fill-268" fill-opacity="0.1" fill="#000000"></path>
                            <path d="M49.6339757,27.9695431 C48.5858136,27.4636755 42.1102051,24.2147913 40.7875046,17.5442185 C40.1213634,14.1844481 40.4388116,8.32650098 44.0286416,6.4802865 C45.0168135,5.97158602 46.0358136,5.87931577 46.8377659,5.90845374 C52.4722619,0.323270484 55.2655555,-0.489355266 56.7407311,0.214812466 C58.7374881,1.16786707 60.0718534,5.73443528 60.0718534,5.73443528 C62.8513992,4.95904139 65.5472087,6.2475874 66.3087509,8.13265251 C67.2148529,10.3742531 65.5017995,13.7461644 61.979875,14.4211941 C57.8647141,18.9371756 53.7491366,23.4535617 49.6339757,27.9695431" id="Fill-270" fill="#EC624B"></path>
                            <path d="M72.0902482,164.529478 C92.9415967,138.017243 70.7203908,105.126904 70.7203908,105.126904 L56.1828581,105.995604 C47.7645756,106.870965 43.1519604,108.033534 39.7350083,108.005646 C42.0327933,123.366708 42.0785245,153.614315 0,190.675834 L5.99619181,198.680203 C19.104001,193.356861 53.7379018,187.863691 72.0902482,164.529478" id="Fill-272" fill="#D3D4D3"></path>
                            <path d="M59.1956794,7.42118518 C54.2547971,5.58249204 47.866607,7.43793102 45.9044566,14.115753 C45.3181786,16.1076706 45.1579772,18.3323553 45.5291034,20.3816274 C45.8647233,22.2408342 46.8732736,23.8333635 47.7871403,25.4602218 C49.0340907,27.6790455 49.6588339,29.880286 49.5586552,32.4043026 C49.4990552,33.8800297 49.3616793,35.3561754 49.1849928,36.821855 C49.1849928,36.821855 49.5176538,37.1509108 50.7798212,38.138078 C53.3050013,40.1781398 56.5605985,40.5076142 56.5605985,40.5076142 C56.5605985,40.5076142 57.1591347,38.9280629 57.0923489,36.8875824 C56.9596226,34.8475206 56.4354808,31.5917108 58.2374297,31.6967909 C59.2421759,31.7336318 60.4100822,31.998216 61.3628369,31.5586378 C63.628905,30.5404907 64.6328057,28.2400311 65.0360568,25.9044052 C65.6506553,22.7369297 65.7419575,19.4811199 65.3403972,16.3416937 C64.9696936,13.4078227 64.4151177,10.3755699 61.7470667,8.65451623 C60.962122,8.12074261 60.079112,7.77159186 59.1956794,7.42118518" id="Fill-274" fill="#F8D2B3"></path>
                            <path d="M37.0032516,108.020305 C42.9287746,108.026105 58.6061881,107.665493 71.6391005,104.938256 C72.0583351,104.850618 72.3501803,104.471556 72.3344164,104.049723 C70.9923545,68.0383655 64.8077923,49.7720813 59.2567686,40.1604985 C55.8202379,34.2095526 47.076811,34.1764266 43.7058923,40.1638531 C30.4386516,63.7328192 35.7860228,102.862637 35.7860228,102.862637 C35.7860228,102.862637 35.9803022,104.443042 36.128142,107.195858 C36.152853,107.65501 36.5362993,108.020305 37.0032516,108.020305" id="Fill-276" fill="#019DF4"></path>
                            <path d="M52.6334576,53.5702402 L40.1726423,50.1522843 C32.848337,73.3013007 36.694557,102.881389 36.694557,102.881389 C36.694557,102.881389 36.8788264,104.456047 37.019049,107.199269 C37.0424868,107.656333 37.4061764,108.020305 37.8490696,108.020305 C42.8514186,108.025661 55.1813056,107.739891 66.5482234,105.761229 C56.7160759,86.3067464 52.6334576,53.5702402 52.6334576,53.5702402" id="Fill-278" fill-opacity="0.1" fill="#000000"></path>
                            <path d="M55.6518677,37.4330791 L56.674676,38.5786802 C56.7411769,38.0794315 56.782383,37.5053983 56.7627999,36.8878092 C56.7069065,36.0117613 56.5783925,34.9072507 56.5971596,33.9506655 C56.6187826,32.8572493 56.8329726,31.957369 57.5669304,31.811498 C57.6330233,31.798349 57.7084997,31.7987599 57.7827523,31.798349 C57.8121269,31.798349 57.8370138,31.7913637 57.8680203,31.7934182 C57.8680203,31.7934182 56.5579934,31.7100046 52.0812183,27.9695431 L55.6518677,37.4330791 Z" id="Fill-280" fill-opacity="0.1" fill="#000000"></path>
                            <path d="M55.9390863,37.71672 C55.9390863,37.71672 38.6501507,25.3020163 32.7305285,36.5223682 C26.8109063,47.7427201 51.9293712,41.8594947 51.9293712,41.8594947 L55.9390863,37.71672 Z" id="Fill-282" fill="#019DF4"></path>
                            <path d="M71.5657886,148.066453 C66.4427116,144.239132 57.6004096,148.046506 48.7067013,157.758685 C40.9723514,166.204427 34.9975181,174.987149 26.6467105,186.621902 C24.2515111,189.959031 21.8023978,192.665063 19.2893401,194.822335 C35.4844152,189.839347 58.2770503,182.210593 72.0083843,164.503395 C72.9675507,163.265818 73.8347708,162.01466 74.6188214,160.75374 C75.8609314,155.166818 75.3752881,150.911692 71.5657886,148.066453" id="Fill-284" fill-opacity="0.2" fill="#FFFFFF"></path>
                            <path d="M49.0033265,28.9340102 L49.9053281,22.5465631 L49.0033265,18.9624464 L50.7181809,17.9853048 C50.7181809,17.9853048 56.7134429,18.3329296 58.5838873,14.9295778 C58.5838873,14.9295778 62.6552998,16.7549238 65.5837563,13.7080454 L64.8428114,9.86816117 L51.7497007,4.82233503 L44.3654822,12.6794975 L44.3654822,18.9624464 L45.922644,24.9335865 L49.0033265,28.9340102 Z" id="Fill-286" fill="#EC624B"></path>
                            <path d="M51.1167513,17.6481244 L51.1080321,17.610533 C50.220342,17.2417997 49.1877482,17.1885805 48.5628775,18.0937299 C47.8885983,19.0711054 48.2929997,20.3454104 49.1242232,21.2011419 C49.4285622,21.5145441 49.9189093,21.9022842 50.3058725,22.1827411 L51.1167513,17.6481244 Z" id="Fill-288" fill="#F8D2B3"></path>
                            <path d="M51.6701546,17.3604061 L52.0812183,18.8079125 C52.0812183,18.8079125 51.255312,19.3602943 51.255312,19.2816797 C51.255312,19.2034811 51.1167513,17.6149676 51.1167513,17.6149676 L51.6701546,17.3604061 Z" id="Fill-290" fill="#F8D2B3"></path>
                            <path d="M39.7105914,45.7542526 C41.2659958,44.3058764 43.0261029,43.01726 45.0571893,42.2125598 C46.0706351,41.8163218 47.1499382,41.5414844 48.2594432,41.4845779 C48.8127276,41.4571785 49.3714651,41.4720812 49.9197158,41.5579241 C50.4771949,41.6017632 51.0082473,41.7535139 51.5464306,41.8837666 C53.6714789,42.5067875 55.5549109,43.6925507 57.238674,45.0498764 C58.9165644,46.4278571 60.3872354,48.028827 61.6980873,49.7393947 C64.2963007,53.1824495 66.2711778,57.0710613 67.5971307,61.1670657 C68.2607364,63.2152786 68.7666203,65.3174474 69.0841611,67.4520739 C69.3907956,69.5879651 69.5099258,71.7550494 69.4033798,73.9166539 C69.2976727,76.0774153 68.9637725,78.2326968 68.3710577,80.3209551 C67.784635,82.4100564 66.9058398,84.4232824 65.769908,86.2695827 C65.2413725,87.2205537 64.5614074,88.0669854 63.9200338,88.9382874 C63.5899088,89.3665616 63.2086082,89.7522613 62.8554123,90.1607236 L62.3151316,90.7647757 C62.131822,90.9628947 61.9262804,91.1386726 61.7329036,91.3262533 L60.554605,92.434455 L59.2919924,93.4402249 C59.0805782,93.6067291 58.8729393,93.7778702 58.6577498,93.9393161 L57.988691,94.3882453 C57.5415332,94.6854237 57.100248,94.9922974 56.6480565,95.2806237 L55.247018,96.070992 C55.0125328,96.1999801 54.7830813,96.3395064 54.5439819,96.4600639 L53.8174554,96.8019245 L52.3623049,97.4801658 L50.8656266,98.0547109 L50.1172874,98.3417726 L49.3517499,98.5769862 L47.818158,99.0368751 C47.3026262,99.1713431 46.7795438,99.2767256 46.2602367,99.3977046 C45.7400907,99.5110961 45.2245589,99.6485148 44.6951844,99.7151165 C40.4983609,100.437197 36.2021224,100.494946 32.0078158,99.8934236 C31.8928803,99.8769839 31.8131805,99.7703369 31.8295399,99.6548377 C31.8454799,99.5427108 31.9490896,99.4638848 32.0606693,99.4752661 C36.2323245,99.907334 40.4564137,99.7534757 44.548369,98.935708 C45.0647398,98.8573035 45.5660096,98.708925 46.0718935,98.5849953 C46.5760996,98.4530565 47.0845004,98.3367143 47.5845118,98.1925511 L49.0686059,97.7061058 L49.8106529,97.4654123 L50.5346627,97.1737137 L51.9814237,96.5920027 L53.3833012,95.9099676 L54.0829815,95.568107 C54.3128525,95.4475495 54.5322367,95.3088662 54.7574935,95.1798781 L56.1006448,94.3937252 C56.533121,94.107928 56.9538521,93.8044266 57.3812947,93.5114634 L58.0193125,93.0684357 C58.2240152,92.909519 58.4207478,92.7409071 58.6220947,92.5781966 L59.8209474,91.591817 L60.9333888,90.5105933 C61.1154399,90.3276494 61.3109141,90.1569298 61.4824784,89.9642907 L61.9892013,89.3783644 C62.3197458,88.9821265 62.6796533,88.6094942 62.9871267,88.195552 C63.5840362,87.3541787 64.2207956,86.5402047 64.7061254,85.6280144 C66.85802,82.105712 67.9184467,77.9835727 68.0942057,73.8555321 C68.1848118,71.7866642 68.0606479,69.7068365 67.7548524,67.6523006 C67.4377311,65.5990292 66.9389782,63.5731574 66.2879567,61.5987121 C64.9733295,57.6574091 63.0987064,53.8834534 60.6271738,50.552947 C59.3964411,48.8874831 58.0075673,47.3375182 56.4467097,46.0029551 C54.8913052,44.6721858 53.1500744,43.533634 51.2385377,42.8996532 C50.7569832,42.7656068 50.277526,42.6054255 49.7817093,42.5502051 C49.2909264,42.4524102 48.7930124,42.421217 48.2934205,42.4266969 C47.2942367,42.4473518 46.2916972,42.6286096 45.3252323,42.9548736 C43.3843325,43.6048725 41.6187723,44.7699807 39.9853459,46.0725075 L39.983668,46.0741936 C39.893062,46.1466968 39.7609281,46.1315217 39.6887788,46.0400497 C39.6204048,45.9532146 39.6317305,45.8284418 39.7105914,45.7542526" id="Fill-292" fill="#0B2739"></path>
                            <path d="M55.9390863,87.5245698 L60.7569857,81.9796954 L67.8804134,85.172949 C69.2317299,85.7922386 69.8369207,87.5024681 69.1674802,88.8992955 C68.624052,90.0326706 67.8194798,91.3623088 66.6663011,92.5513803 C65.4314631,93.8253222 63.4820025,93.8783663 62.132344,92.7449912 L55.9390863,87.5245698 Z" id="Fill-294" fill="#F8D2B3"></path>
                            <path d="M61.7258883,84.1236039 C61.7258883,84.1236039 65.9477184,80.6390296 66.5482234,85.6487659 C66.5482234,85.6487659 64.823957,86.6286754 61.7258883,84.1236039" id="Fill-296" fill="#F8D2B3"></path>
                            <path d="M41.3857656,46.2944162 L28.3104227,70.5396886 C25.1208944,76.4834481 28.0104196,83.9127295 34.4323336,86.0540713 C38.865572,87.5324875 43.4538539,88.6113091 48.986263,89.531296 C53.8783296,90.3442786 58.7733373,88.0888267 61.29101,83.8379101 L61.7258883,83.1039268 L48.6152509,70.8602837 C48.6152509,70.8602837 56.4611289,59.1621123 51.1245201,49.3891839" id="Fill-298" fill="#019DF4"></path>
                        </g>
                    </g>
                    <g id="Group-83" mask="url(#mask-2)">
                        <g transform="translate(82.944162, 113.807107)">
                            <path d="M100.388981,68.2711401 C101.677766,68.7990267 103.261298,68.2653687 104.145149,67.2065175 C105.028606,66.1480509 105.274951,64.6767401 105.046708,63.3285516 C104.818465,61.9807478 104.16089,60.7368284 103.397063,59.5921763 C102.491569,58.2366774 101.351536,56.9331206 99.8042072,56.3563699 C98.9416069,56.0354825 98.0050244,55.9608397 97.0822152,55.9412171 C96.4592698,55.9281353 95.7694256,55.963533 95.3208105,56.3867657 C95.00009,56.690339 94.8698342,57.1343486 94.7738149,57.5610441 C94.151263,60.3324488 94.6408044,60.7356741 96.4970479,62.5778907 C98.1435441,64.2115689 99.3496892,66.2307737 100.388981,68.2711401" id="Fill-186" fill="#FFFFFF"></path>
                            <g id="Group-82" stroke-width="1" fill="none" transform="translate(27.005076, 0.000000)">
                                <path d="M6.23973661,23.5906998 C9.11181548,17.3135811 6.90236996,10.8206055 11.5424059,4.32723747 C16.0494344,-1.98010118 25.5566605,-0.628444509 27.4147581,3.5195402 C30.5873055,3.4300577 34.6252024,4.97834038 36.3987682,11.4155856 C38.2772977,18.2339164 36.2885964,23.32029 44.3527721,27.4325602 C52.0499756,31.358016 50.207903,36.8478457 49.3241247,38.6881239 C48.4403465,40.5272247 48.7716632,40.2030469 51.201853,44.3153171 C53.6324434,48.4275873 49.99437,51.4456593 47.7773126,51.5661467 C45.7886113,51.67486 43.910883,49.5100116 36.1776234,50.5920433 C28.5998061,51.6528819 28.7051704,47.1293062 18.7600615,45.7760796 C13.4577928,45.0547251 14.262648,40.8714184 10.1065668,40.148494 C6.44645898,39.5123048 3.91451053,36.5197432 3.5888026,33.0059854 C3.30516027,29.9451345 4.90245117,26.5134022 6.23973661,23.5906998" id="Fill-188" fill="#0B2739"></path>
                                <path d="M18.3918873,2.8999524 C23.483828,1.02552956 30.066894,2.91682848 32.0884465,9.72377774 C32.6925886,11.7536175 32.857646,14.0216849 32.47545,16.1100023 C32.1297108,18.0048334 31.0900896,19.6284698 30.149022,21.2866432 C28.8638178,23.5480386 28.2196132,25.791773 28.323375,28.3643948 C28.3846706,29.8683287 28.7035679,33.5818523 28.8858522,35.0759745 C28.8858522,35.0759745 28.5188799,34.7902585 27.2180513,35.7965441 C24.6159935,37.8762273 21.5660373,36.6234723 21.5660373,36.6234723 C21.5660373,36.6234723 21.1341638,36.5410542 21.2026706,34.4609786 C21.3392837,32.381688 21.5536179,27.5276549 19.3794274,27.6434327 C18.3450142,27.6983781 17.1411368,27.9507345 16.1592056,27.5025371 C13.8239639,26.4644616 12.7895507,24.1202556 12.3737022,21.7391578 C11.7399139,18.5107235 11.6461677,15.1920217 12.0600131,11.9922375 C12.4418085,9.00163829 13.0139006,5.9113524 15.7629877,4.1570245 C16.5718491,3.6130651 17.4820685,3.25670498 18.3918873,2.8999524" id="Fill-190" fill="#E05D4F"></path>
                                <path d="M21.7455572,33.5001014 L21.2531894,33.559364 C21.3293081,31.8305464 21.301665,29.3477996 20.4996142,28.2308382 C20.4655611,28.1790326 20.4295049,28.1299742 20.3910449,28.084448 C20.3734174,28.0644322 20.3553893,28.0455938 20.3373612,28.0267554 C20.2656494,27.9502243 20.1867263,27.8842898 20.1013932,27.8293444 C20.0933807,27.8242423 20.0853682,27.8183553 20.0773557,27.8132533 C19.9872152,27.7590928 19.8906646,27.7167063 19.7848997,27.6888412 C19.7732816,27.6857014 19.7620641,27.6802069 19.7500453,27.6770672 C19.6378704,27.6515568 19.5188848,27.6370355 19.3882812,27.6437075 C19.3850762,27.6440999 19.383073,27.6429225 19.379868,27.643315 C19.379868,27.643315 20.7784491,27.5569722 25.5579024,23.6727254 L21.7455572,33.5001014 Z" id="Fill-192" fill-opacity="0.1" fill="#000000"></path>
                                <path d="M17.4767803,8.89111956 L23.7453558,7.03357281 L24.1203406,10.4154617 C24.1203406,10.4154617 18.155038,12.6552714 16.8205569,10.8354015 C16.8205569,10.8354015 9.83686617,11.2510242 10.5768201,7.31104704 C10.5768201,7.31104704 16.194781,8.57047394 17.4767803,8.89111956" id="Fill-194" fill="#0B2739"></path>
                                <path d="M25.4724892,22.25223 C24.7918277,19.0650048 24.2113225,14.1889936 23.8972327,10.7305736 C23.773039,9.35772368 23.6584603,8.03039998 23.5482885,6.72269962 L31.7442698,4.57629709 C33.644433,5.71719893 35.3887532,7.88283235 36.3987282,11.7007522 C37.2913201,15.0755768 37.3121526,18.042628 37.9515497,20.6874637 C38.4387094,24.226732 39.2752139,27.2816958 42.5543276,29.986579 C41.399727,33.0015112 39.5925087,35.2417134 36.9087235,35.8331613 C31.5211218,37.0207667 27.1987813,30.3339124 25.4724892,22.25223" id="Fill-196" fill="#0B2739"></path>
                                <path d="M30.0847618,4.99345036 L27.4149985,3.51973643 L23.7997607,1.64295879 L14.2428571,3.02719023 L11.8094623,8.34590427 C11.8094623,8.34590427 17.9614561,9.80313459 18.0732304,9.80313459 C18.1846041,9.80313459 25.2127642,8.23640595 25.2127642,8.23640595 L30.0847618,4.99345036 Z" id="Fill-198" fill="#0B2739"></path>
                                <path d="M27.2064332,33.7171357 C30.0063996,33.3517489 32.8496335,32.8544931 35.1952915,33.8560691 C37.1823903,34.7041905 37.1479365,37.1618194 37.59263,39.0197586 C39.0625222,45.1661858 40.1670447,51.3875741 41.0315929,57.6423222 C41.4450377,60.632529 42.1597522,63.834668 42.1417241,66.8547023 C42.1277022,69.2781866 41.5083364,71.6341665 41.6986331,74.1043544 C41.8448612,76.0015403 42.668145,78.0502186 44.4417108,78.826126 C45.3343028,79.2166308 46.3603028,79.2346842 47.2540966,79.6208719 C48.1486917,80.0070595 48.9150869,81.0392479 48.4647846,81.8893317 C48.2504504,82.2935728 47.8221825,82.5369024 47.4163497,82.7586463 C45.2040997,83.9670524 42.9914492,85.1758511 40.7795999,86.3842573 C39.0897647,87.3069474 37.3907151,88.2343471 35.5698756,88.8752459 C32.9906534,89.7826298 30.2319514,90.0918939 27.4940818,90.22808 C20.4230548,90.580123 13.2959404,89.8140272 6.47089709,87.9690394 C2.79676746,86.9757052 -0.752767881,85.2135279 0.139022826,81.1412894 C1.05645352,76.9497408 2.83041994,72.7676115 4.74380377,68.9292833 C7.05941486,64.2828654 7.74648632,58.6839299 9.38664407,53.7808385 C11.0496374,48.8122051 12.8083801,43.8745766 14.5795422,38.9420501 C14.5863528,38.9232117 14.5931634,38.9047658 14.599974,38.8859273 C15.2473836,37.0829335 15.5129978,35.2995631 16.939222,33.8360533 C18.8914664,31.835256 19.8313321,33.4263176 22.0479889,33.8336985 C23.6568979,34.1296186 25.4232524,33.9498687 27.2064332,33.7171357" id="Fill-200" fill="#FFFFFF"></path>
                            </g>
                            <path d="M89.7602275,70.1219622 C89.7243961,69.9714978 89.6889584,69.815386 89.6964397,69.6661318 C89.7665276,68.2708067 90.6182134,67.5866578 91.0568532,66.2687835 C91.252548,65.6810447 90.2866741,64.4277128 91.5155744,64.1114553 C92.7877875,63.7847096 95.2503132,64.0053638 96.1114491,62.8117336 C96.4922074,62.2840998 96.9611662,61.5906729 97.5829008,61.7488017 C97.7959207,61.8024525 97.9707466,61.9545304 98.1282474,62.1106423 C103.337982,67.2724172 98.273542,73.489863 92.5960302,73.2950257 C92.1144714,73.2784868 91.7880509,73.2692088 91.3958738,73.0388733 C90.7579954,72.6645276 90.4811876,71.9908668 90.1823298,71.3329381 C90.0059288,70.9432637 89.8590593,70.5374536 89.7602275,70.1219622" id="Fill-216" fill="#E05D4F"></path>
                            <g id="Group-81" stroke-width="1" fill="none" transform="translate(0.000000, 35.685279)">
                                <path d="M94.7085845,5.21430086 C94.3998586,4.71731293 93.9956505,4.38189557 93.5194329,4.1328076 L93.5194329,4.13241159 C93.5194329,4.13241159 93.5174437,4.13161958 93.5154544,4.13082757 C93.2910712,4.0136097 93.0507742,3.91540013 92.7961549,3.82827874 C91.4076841,3.35425917 89.9499887,3.05448239 88.4572831,2.87113146 C84.4573732,2.28900217 77.3491188,2.01932187 67.6636397,3.52889796 C65.1102857,3.86629534 62.5748345,4.33041475 60.0755871,4.95689675 C60.0660388,4.95927279 60.0537057,4.96244084 60.0397812,4.96521288 C59.9769221,4.97946911 59.9136651,4.99293332 59.8504081,5.00718955 C58.9540687,5.1984606 56.0076461,5.78573798 55.3826353,6.06215039 C55.3448402,6.07205055 55.3078409,6.08076269 55.2700458,6.09066284 C55.2807876,6.09541492 55.2919272,6.09977099 55.3026689,6.10412706 C55.2803897,6.1191753 55.2672609,6.13303552 55.2652717,6.14491571 C55.2589062,6.19006043 55.2437882,6.23441314 55.221509,6.27836984 C54.829634,6.87911143 53.3297673,7.31669841 51.3186727,7.31669841 C49.209311,7.31669841 47.4830718,6.74407327 47.353773,6.16511203 C47.3525794,6.15837992 47.3501924,6.15164782 47.3489989,6.14491571 L47.3489989,6.1441237 C47.346214,6.12630341 47.3446226,6.10848313 47.3450204,6.09066284 L47.3450204,6.13461955 C47.3394506,6.12511539 47.3279132,6.11481923 47.3119995,6.10412706 C47.3231391,6.09977099 47.3342787,6.09541492 47.3450204,6.09066284 C47.3072254,6.08076269 47.2698282,6.07205055 47.232431,6.06215039 C46.6074202,5.78573798 43.6602019,5.1984606 42.7646581,5.00718955 C42.7010033,4.99293332 42.6381442,4.97946911 42.5748872,4.96521288 C42.5613605,4.96244084 42.5490274,4.95927279 42.5390813,4.95689675 C40.0398339,4.33041475 37.5043827,3.86629534 34.9514265,3.52889796 C25.2651518,2.01932187 18.1568973,2.28900217 14.1569874,2.87113146 C12.6650775,3.05448239 11.2069843,3.35425917 9.81851345,3.82827874 C9.56389416,3.91540013 9.3235972,4.0136097 9.09881611,4.13082757 C9.09722474,4.13161958 9.09603121,4.13241159 9.09603121,4.13241159 L9.09603121,4.1328076 C8.61901789,4.38189557 8.21480977,4.71731293 7.90608388,5.21430086 C7.49113401,5.88236352 7.47084403,6.53616995 7.47084403,7.29016599 L7.47084403,8.15741983 C7.47084403,7.40302779 7.49113401,6.74961736 7.90608388,6.08115869 C8.21480977,5.58456677 8.61901789,5.24875341 9.09603121,4.99966543 L9.09603121,4.99926943 C9.09603121,4.99926943 9.09722474,4.99847741 9.09881611,4.99808141 C9.3235972,4.88046753 9.56389416,4.78225796 9.81851345,4.69553258 C11.2069843,4.22111701 12.6650775,3.92134022 14.1569874,3.7379893 C18.1568973,3.15586001 25.2651518,2.8861797 34.9514265,4.3961518 C37.5043827,4.73354919 40.0398339,5.19766859 42.5390813,5.82415059 C42.5490274,5.82613062 42.5613605,5.82929867 42.5748872,5.83246672 C42.6381442,5.84632694 42.7010033,5.85979116 42.7646581,5.87404739 C43.6602019,6.06531844 46.6074202,6.65259581 47.232431,6.92980024 C47.2698282,6.93890838 47.3072254,6.94841253 47.3450204,6.95752068 C47.3446226,6.97573697 47.346214,6.99316125 47.3489989,7.01098153 L47.3489989,7.01177354 C47.3501924,7.01890166 47.3525794,7.02523776 47.353773,7.03196987 C47.4830718,7.61132711 49.209311,8.18355624 51.3186727,8.18355624 C53.3297673,8.18355624 54.829634,7.74596926 55.221509,7.14522767 C55.2437882,7.10127097 55.2589062,7.05691826 55.2652717,7.01177354 C55.2672609,6.99989335 55.2803897,6.98603313 55.3026689,6.9713809 C55.2919272,6.96702483 55.2807876,6.96227275 55.2700458,6.95752068 C55.3078409,6.94841253 55.3448402,6.93890838 55.3826353,6.92980024 C56.0076461,6.65259581 58.9540687,6.06531844 59.8504081,5.87404739 C59.9136651,5.85979116 59.9769221,5.84632694 60.0397812,5.83246672 C60.0537057,5.82929867 60.0660388,5.82613062 60.0755871,5.82415059 C62.5748345,5.19766859 65.1102857,4.73354919 67.6636397,4.3961518 C77.3491188,2.8861797 84.4573732,3.15586001 88.4572831,3.7379893 C89.9499887,3.92134022 91.4076841,4.22111701 92.7961549,4.69553258 C93.0507742,4.78225796 93.2910712,4.88046753 93.5154544,4.99808141 C93.5174437,4.99847741 93.5194329,4.99926943 93.5194329,4.99926943 L93.5194329,4.99966543 C93.9956505,5.24875341 94.3998586,5.58456677 94.7085845,6.08115869 C95.1235344,6.74961736 95.1442222,7.40302779 95.1442222,8.15741983 L95.1442222,7.29016599 C95.1442222,6.53616995 95.1235344,5.88236352 94.7085845,5.21430086" id="Fill-218" fill="#232020"></path>
                                <path d="M13.5214736,4.59823383 L13.5214736,0.21919594 C13.5214736,0.21919594 37.1123486,-1.96279888 51.299815,7.44195521 L13.5214736,4.59823383 Z" id="Fill-221" fill="#E0D7C6"></path>
                                <path d="M8.68911776,4.13078797 L11.8479883,1.70683328 C11.8479883,1.70683328 31.1409693,-1.96295729 51.2996558,7.44179681 L51.2996558,59.646518 C51.2996558,59.646518 37.6305784,49.8643698 8.68911776,53.7056311 L8.68911776,4.13078797 Z" id="Fill-223" fill="#FFFFFF"></path>
                                <path d="M89.0774004,4.59823383 L89.0774004,0.21919594 C89.0774004,0.21919594 65.4865254,-1.96279888 51.2994569,7.44195521 L89.0774004,4.59823383 Z" id="Fill-225" fill="#E0D7C6"></path>
                                <path d="M93.9101939,4.13078797 L90.7509255,1.70683328 C90.7509255,1.70683328 71.4579445,-1.96295729 51.2996558,7.44179681 L51.2996558,59.646518 C51.2996558,59.646518 64.9683354,49.8643698 93.9101939,53.7056311 L93.9101939,4.13078797 Z" id="Fill-227" fill="#FFFFFF"></path>
                                <path d="M51.3037138,7.416096 C53.5017944,7.29650209 55.1743249,6.77654579 55.2654308,6.14531172 C55.26742,6.13263951 55.280151,6.1191753 55.302828,6.10412706 C55.2916884,6.09977099 55.2809467,6.09541492 55.2702049,6.09066284 L55.3823966,6.0625464 C56.0074074,5.78573798 58.9538299,5.1980646 59.8501694,5.00679355 C59.9134264,4.99332933 59.9766834,4.9790731 60.0399404,4.96521288 C60.053467,4.96244084 60.0658001,4.95927279 60.0757462,4.95689675 C62.5749937,4.33041475 65.1100469,3.86629534 67.663401,3.52889796 C77.3492779,2.01932187 84.4575324,2.28860617 88.4574423,2.87073546 C89.94975,3.05448239 91.4078433,3.35425917 92.7963141,3.82827874 C93.0505355,3.91540013 93.2912303,4.0136097 93.5156136,4.13082757 C93.5172049,4.13201559 93.5191942,4.13241159 93.5191942,4.13241159 L93.5187963,4.13241159 C93.9958096,4.38189557 94.4000178,4.71731293 94.7087437,5.21430086 C95.1236935,5.88236352 95.1439835,6.53616995 95.1439835,7.29016599 L95.1439835,53.3975778 C95.1439835,54.6984586 94.0634429,55.9882512 92.7776155,55.7526274 C84.8685038,54.3020563 78.4266358,54.351161 73.4715057,54.7008346 C68.2486275,55.0691205 63.0388782,55.8587571 57.9834917,57.230523 C56.3372189,57.6772181 54.2752005,58.0264957 52.7637963,58.8359326 C52.6197773,58.9131539 52.4622316,58.9693867 52.2963312,59.0010673 C52.1936878,59.0212636 52.0878617,59.0319557 51.9792506,59.0319557 C51.8515431,59.0319557 51.7274162,59.0169075 51.6084613,58.9899791 C51.490302,58.9456264 51.3673687,58.9020657 51.240059,58.858901 C50.6946167,58.5880327 50.3202468,58.0276837 50.3202468,57.3802134 L50.3202468,8.53996193 C50.3202468,8.14870769 50.6643807,7.77131367 51.3037138,7.416096" id="Fill-229" fill="#0B2739"></path>
                                <path d="M51.3111137,7.416096 C49.1130331,7.29650209 47.4405027,6.77654579 47.3489989,6.14531172 C47.3474075,6.13263951 47.3346765,6.1191753 47.3119995,6.10412706 C47.3231391,6.09977099 47.3338808,6.09541492 47.3446226,6.09066284 C47.3076232,6.08115869 47.270226,6.07205055 47.2320331,6.0625464 C46.6074202,5.78573798 43.6605997,5.1980646 42.7646581,5.00679355 C42.7010033,4.99332933 42.6377463,4.9790731 42.5748872,4.96521288 C42.5613605,4.96244084 42.5490274,4.95927279 42.5390813,4.95689675 C40.039436,4.33041475 37.5043827,3.86629534 34.9514265,3.52889796 C25.2655496,2.01932187 18.1568973,2.28860617 14.1569874,2.87073546 C12.6646797,3.05448239 11.2069843,3.35425917 9.81851345,3.82827874 C9.56389416,3.91540013 9.3235972,4.0136097 9.09921395,4.13082757 C9.09722474,4.13201559 9.09563337,4.13241159 9.09563337,4.13241159 L9.09603121,4.13241159 C8.61901789,4.38189557 8.21480977,4.71731293 7.90608388,5.21430086 C7.49113401,5.88236352 7.47084403,6.53616995 7.47084403,7.29016599 L7.47084403,53.3975778 C7.47084403,54.6984586 8.55138464,55.9882512 9.83721205,55.7526274 C17.7463237,54.3020563 24.1881917,54.351161 29.1433218,54.7008346 C34.3662,55.0691205 39.5759494,55.8587571 44.6313358,57.230523 C46.2776086,57.6772181 48.339627,58.0264957 49.8510312,58.8359326 C49.9950502,58.9131539 50.1525959,58.9693867 50.3180985,59.0010673 C50.4211397,59.0212636 50.526568,59.0319557 50.6355769,59.0319557 C50.7632844,59.0319557 50.8874113,59.0169075 51.0063662,58.9899791 C51.1245255,58.9456264 51.2474589,58.9020657 51.3747685,58.858901 C51.9202108,58.5880327 52.2945807,58.0276837 52.2945807,57.3802134 L52.2945807,8.53996193 C52.2945807,8.14870769 51.950049,7.77131367 51.3111137,7.416096" id="Fill-231" fill="#0B2739"></path>
                                <path d="M47.3346367,15.3793475 C47.3346367,15.3793475 42.628954,45.8552019 13.521593,55.1668945 L13.521593,55.1668945 C19.7697116,54.326173 24.9810523,54.4073543 29.143282,54.700795 C34.3661602,55.0690809 39.5759096,55.8587175 44.631296,57.2304834 C46.2775688,57.6775745 48.3395872,58.0264561 49.8505936,58.835497 C49.9950105,58.9127182 50.1525562,58.9693471 50.3180587,59.0014237 C50.4210999,59.021224 50.5269261,59.0315201 50.6355371,59.0315201 C50.7632446,59.0315201 50.8873715,59.0168679 51.0063265,58.9895435 C51.1244857,58.9455868 51.2474191,58.9020261 51.3747287,58.8584654 C51.920171,58.5879931 52.2945409,58.0280401 52.2945409,57.3801738 L52.2945409,15.3793475 L47.3346367,15.3793475 Z" id="Fill-233" fill-opacity="0.1" fill="#232020"></path>
                                <path d="M51.3188716,7.31661921 C49.1188018,7.31661921 47.3344776,6.69409727 47.3448215,6.09058364 L47.3344776,58.2921367 C47.3344776,59.0401927 49.118404,59.6464784 51.3188716,59.6464784 C53.5197371,59.6464784 55.3036635,59.0401927 55.3036635,58.2921367 L55.3028678,6.10404786 C55.1087206,6.79270285 53.5193393,7.31661921 51.3188716,7.31661921" id="Fill-236" fill="#4095D1"></path>
                                <path d="M47.3451,6.09062324 L47.3347561,58.2917803 C47.3347561,58.9226184 48.6030784,59.4524749 50.3201673,59.6033533 L50.3201673,7.27309811 C48.6030784,7.1218237 47.3363475,6.59949136 47.3451,6.09062324" id="Fill-238" fill-opacity="0.1" fill="#232020"></path>
                                <path d="M87.9724721,8.62886535 C84.1193661,8.0681204 77.2720964,7.80834026 67.9426865,9.26287147 C66.1687062,9.49730721 63.0790603,10.1253732 61.4741631,10.4615826 C60.8714315,10.5879086 60.4405679,11.1165771 60.4405679,11.7291988 L60.4405679,22.2728671 C60.4405679,23.1013123 61.2099956,23.7139341 62.0231859,23.5373153 C65.8130349,22.7152062 69.8869435,21.5667878 74.5814867,21.2824553 C78.5977081,21.0393074 82.5769302,20.9212975 88.6042462,21.7342985 C89.386007,21.8392402 90.0814359,21.2357265 90.0814359,20.450842 L90.0814359,10.0533001 C90.0814359,9.42048199 89.6219277,8.87834933 88.9945298,8.77538769 C88.6563636,8.7195508 88.3150146,8.67123803 87.9724721,8.62886535" id="Fill-241" fill="#4095D1"></path>
                                <path d="M4.78994162,30.7955567 C3.48660913,31.3388774 1.88608819,30.7896166 0.992533625,29.6998072 C0.0993768989,28.6103938 -0.149672593,27.0960657 0.0810761375,25.7084595 C0.311824868,24.3212494 0.976619919,23.040565 1.74883248,21.8628422 C2.6642684,20.4677119 3.81681852,19.1260425 5.38073794,18.532429 C6.25320685,18.2021597 7.20007233,18.1257305 8.13301332,18.1051382 C8.76279822,18.091674 9.45981852,18.1281066 9.91335913,18.5637135 C10.2379987,18.8761625 10.3696846,19.3331538 10.4667582,19.7723248 C11.0957475,22.6247583 10.6012291,23.0393769 8.72420748,24.9358512 C7.05963388,26.617294 5.84064403,28.6955352 4.78994162,30.7955567" id="Fill-245" fill="#FFFFFF"></path>
                            </g>
                            <path d="M15.3666838,66.2641753 C15.4021221,66.1137148 15.4379541,65.9576069 15.4304727,65.8083565 C15.3603836,64.4130671 14.5086832,63.7289356 14.0700358,62.411095 C13.8743377,61.8229678 14.8402282,60.5700713 13.6113068,60.2534185 C12.3390718,59.9270845 9.87650389,60.1477331 9.01495948,58.9541333 C8.63458842,58.426513 8.16522785,57.7331038 7.54348259,57.8908252 C7.3308528,57.944878 7.15602387,58.0969521 6.99852032,58.2530599 C1.78909049,63.414703 6.8532233,69.6319901 12.5308324,69.4371578 C13.0127933,69.4206193 13.3388256,69.4113416 13.7310094,69.1810119 C14.3692926,68.8066758 14.6461051,68.1330322 14.9441805,67.4751203 C15.1209783,67.0850524 15.2678503,66.6796561 15.3666838,66.2641753" id="Fill-243" fill="#E05D4F"></path>
                        </g>
                    </g>
                </g>
                <line x1="-6.48439635e-15" y1="190" x2="534" y2="190" id="Path-7" stroke="#0F2638" stroke-width="2" stroke-linecap="round" stroke-linejoin="round"></line>
            </g>
        </g>
    </g>
</svg>