<?xml version="1.0" encoding="UTF-8"?>
<svg width="536px" height="190px" viewBox="0 0 536 190" version="1.1" xmlns="http://www.w3.org/2000/svg" xmlns:xlink="http://www.w3.org/1999/xlink">
    <!-- Generator: Sketch 64 (93537) - https://sketch.com -->
    <title>Group 2</title>
    <desc>Created with Sketch.</desc>
    <defs>
        <rect id="path-1" x="0" y="0" width="395.431472" height="190"></rect>
    </defs>
    <g id="ATC-ESCRITORIO-curva" stroke="none" stroke-width="1" fill="none" fill-rule="evenodd">
        <g id="Derechos" transform="translate(-452.000000, -188.000000)">
            <g id="Group-2" transform="translate(453.000000, 187.000000)">
                <g id="Group-14-Copy" transform="translate(69.000000, 0.000000)">
                    <mask id="mask-2" fill="white">
                        <use xlink:href="#path-1"></use>
                    </mask>
                    <g id="Rectangle"></g>
                    <g id="Group-107" mask="url(#mask-2)">
                        <g transform="translate(67.000000, 1.000000)">
                            <polygon id="Fill-3" fill="#D4D5D4" points="0 167 277 167 277 10 0 10"></polygon>
                            <path d="M277,10 L0,10 L0,3.76222515 C0,1.68481654 1.63782838,0 3.65729976,0 L273.3427,0 C275.362172,0 277,1.68481654 277,3.76222515 L277,10 Z" id="Fill-5" fill="#E9EBE9"></path>
                            <path d="M6,4.9991327 C6,5.55143105 5.55096628,6 5,6 C4.44713907,6 4,5.55143105 4,4.9991327 C4,4.44648742 4.44713907,4 5,4 C5.55096628,4 6,4.44648742 6,4.9991327" id="Fill-6" fill="#01C301"></path>
                            <path d="M12,4.9991327 C12,5.55143105 11.552482,6 11,6 C10.447518,6 10,5.55143105 10,4.9991327 C10,4.44648742 10.447518,4 11,4 C11.552482,4 12,4.44648742 12,4.9991327" id="Fill-7" fill="#FF9F19"></path>
                            <path d="M17,4.9991327 C17,5.55143105 16.5526066,6 16.0001896,6 C15.4473934,6 15,5.55143105 15,4.9991327 C15,4.44648742 15.4473934,4 16.0001896,4 C16.5526066,4 17,4.44648742 17,4.9991327" id="Fill-8" fill="#02AAE0"></path>
                            <rect id="Rectangle" fill="#FFFFFF" x="9" y="22" width="258" height="134" rx="4"></rect>
                            <polygon id="Fill-10" fill="#D9E1E4" points="26 40 83 40 83 38 26 38"></polygon>
                            <polygon id="Fill-10-Copy-2" fill="#D9E1E4" points="152 40 209 40 209 38 152 38"></polygon>
                            <polygon id="Fill-11" fill="#FFC40E" points="26 129 28 129 28 127 26 127"></polygon>
                            <polygon id="Fill-11-Copy" fill="#D9E1E4" points="152 129 154 129 154 127 152 127"></polygon>
                            <polygon id="Fill-12" fill="#D9E1E4" points="26 134 73 134 73 132 26 132"></polygon>
                            <polygon id="Fill-12-Copy-2" fill="#D9E1E4" points="152 134 199 134 199 132 152 132"></polygon>
                            <polygon id="Fill-13" fill="#3BB6D5" points="89 129 91 129 91 127 89 127"></polygon>
                            <polygon id="Fill-13-Copy" fill="#D9E1E4" points="215 129 217 129 217 127 215 127"></polygon>
                            <polygon id="Fill-14" fill="#D9E1E4" points="89 134 136 134 136 132 89 132"></polygon>
                            <polygon id="Fill-14-Copy-2" fill="#D9E1E4" points="215 134 262 134 262 132 215 132"></polygon>
                            <polygon id="Fill-15" fill="#D9E1E4" points="26 35 44 35 44 33 26 33"></polygon>
                            <polygon id="Fill-15-Copy" fill="#D9E1E4" points="153 35 171 35 171 33 153 33"></polygon>
                            <path d="M73.6483225,53 L28,53 L28,51 L73.6483225,51 C74.3945167,51 75,51.4478083 75,51.9996846 L75,52.0003154 C75,52.5521917 74.3945167,53 73.6483225,53" id="Fill-132" fill="#F28D15"></path>
                            <path d="M198.648323,53 L153,53 L153,51 L198.648323,51 C199.394517,51 200,51.4478083 200,51.9996846 L200,52.0003154 C200,52.5521917 199.394517,53 198.648323,53" id="Fill-132-Copy" fill="#D9E1E4"></path>
                            <path d="M106.627184,58 L26,58 L26,56 L106.627184,56 C107.385048,56 108,56.4476671 108,56.9993695 L108,57.0006305 C108,57.5523329 107.385048,58 106.627184,58" id="Fill-133" fill="#5CB615"></path>
                            <path d="M232.627184,58 L152,58 L152,56 L232.627184,56 C233.385048,56 234,56.4476671 234,56.9993695 L234,57.0006305 C234,57.5523329 233.385048,58 232.627184,58" id="Fill-133-Copy" fill="#D9E1E4"></path>
                            <path d="M53.6847253,64 L27,64 L27,62 L53.6847253,62 C54.4108233,62 55,62.4478083 55,62.9996846 L55,63.0003154 C55,63.5521917 54.4108233,64 53.6847253,64" id="Fill-134" fill="#019DF4"></path>
                            <path d="M179.684725,64 L153,64 L153,62 L179.684725,62 C180.410823,62 181,62.4478083 181,62.9996846 L181,63.0003154 C181,63.5521917 180.410823,64 179.684725,64" id="Fill-134-Copy" fill="#D9E1E4"></path>
                            <path d="M110.629857,78 L26,78 L26,76 L110.629857,76 C111.386245,76 112,76.4476671 112,77 L112,77.0006305 C112,77.5523329 111.386245,78 110.629857,78" id="Fill-135" fill="#D9E1E4"></path>
                            <path d="M236.629857,78 L152,78 L152,76 L236.629857,76 C237.386245,76 238,76.4476671 238,77 L238,77.0006305 C238,77.5523329 237.386245,78 236.629857,78" id="Fill-135-Copy-2" fill="#F28D15"></path>
                            <path d="M60.6042416,84 L26,84 L26,82 L60.6042416,82 C61.3747707,82 62,82.4476671 62,82.9993695 L62,83.0006305 C62,83.5523329 61.3747707,84 60.6042416,84" id="Fill-136" fill="#D9E1E4"></path>
                            <path d="M186.604242,84 L152,84 L152,82 L186.604242,82 C187.374771,82 188,82.4476671 188,82.9993695 L188,83.0006305 C188,83.5523329 187.374771,84 186.604242,84" id="Fill-136-Copy-2" fill="#5CB615"></path>
                            <path d="M96.6042757,91 L26,91 L26,89 L96.6042757,89 C97.374786,89 98,89.4473186 98,90 C98,90.5520505 97.374786,91 96.6042757,91" id="Fill-137" fill="#D9E1E4"></path>
                            <path d="M222.604276,91 L152,91 L152,89 L222.604276,89 C223.374786,89 224,89.4473186 224,90 C224,90.5520505 223.374786,91 222.604276,91" id="Fill-137-Copy-2" fill="#019DF4"></path>
                            <path d="M60.6042416,106 L26,106 L26,104 L60.6042416,104 C61.3747707,104 62,104.447526 62,104.999055 L62,105.000315 C62,105.552474 61.3747707,106 60.6042416,106" id="Fill-138" fill="#F28D15"></path>
                            <path d="M186.604242,106 L152,106 L152,104 L186.604242,104 C187.374771,104 188,104.447526 188,104.999055 L188,105.000315 C188,105.552474 187.374771,106 186.604242,106" id="Fill-138-Copy" fill="#D9E1E4"></path>
                            <path d="M96.6042757,112 L26,112 L26,110 L96.6042757,110 C97.374786,110 98,110.447667 98,111 L98,111.000631 C98,111.552333 97.374786,112 96.6042757,112" id="Fill-139" fill="#5CB615"></path>
                            <path d="M222.604276,112 L152,112 L152,110 L222.604276,110 C223.374786,110 224,110.447667 224,111 L224,111.000631 C224,111.552333 223.374786,112 222.604276,112" id="Fill-139-Copy" fill="#D9E1E4"></path>
                            <path d="M26,118 L85,118 C85.5522847,118 86,117.552285 86,117 C86,116.447715 85.5522847,116 85,116 L26,116 L26,116 L26,118 Z" id="Fill-140" fill="#019DF4"></path>
                            <path d="M152,118 L211,118 C211.552285,118 212,117.552285 212,117 C212,116.447715 211.552285,116 211,116 L152,116 L152,116 L152,118 Z" id="Fill-140-Copy" fill="#D9E1E4"></path>
                        </g>
                    </g>
                    <g id="Group-64" mask="url(#mask-2)">
                        <g transform="translate(-17.000000, 1.000000)">
                            <path d="M54.2474756,102.639635 L51.9969684,111.781844 C51.8992214,112.176832 51.523943,112.445469 51.1096821,112.415874 C50.6983303,112.387416 50.3678525,112.073816 50.3253791,111.672568 L49.7726434,106.423894 L43.2329069,112.630442 C42.2583465,113.555875 40.6641403,112.601416 41.0626919,111.33108 L42.5859152,106.475117 C42.9751575,105.235515 43.8385889,104.190561 44.9975885,103.559377 L51.0776816,100.244664 L56.5695475,92 L60,94.5788053 L54.2474756,102.639635 Z" id="Fill-1" fill="#F8CCCC"></path>
                            <path d="M51,99.5878345 C51,99.5878345 55.9188355,90.6763503 60.1792173,80.6361699 C64.4384649,70.5965628 72.3115508,49 72.3115508,49 L78,58.7283415 C78,58.7283415 71.1880396,80.7794782 54.0897977,102 L51,99.5878345 Z" id="Fill-3" fill="#F8CCCC"></path>
                            <path d="M71.341849,65 C68.1988185,81.0375407 54,102 54,102 C62.2237266,92.05677 68.0953537,81.9329805 72,74.0347718 L71.341849,65 Z" id="Fill-5" fill="#000000" opacity="0.1"></path>
                            <path d="M105.01924,144.824935 C105.01924,144.824935 111.557812,171.944259 116,244 L111.922125,244 C111.922125,244 107.642752,226.848256 103.445941,217.472929 C99.2497071,208.097026 99.3357333,194.624274 97.6538912,187.568461 C96.4408633,182.474739 88.8226324,159.950125 84.6789383,147.812101 C83.0813904,143.13451 82,140 82,140 L105.01924,144.824935 Z" id="Fill-10" fill="#F8CCCC"></path>
                            <path d="M76.6259868,105.418907 C82.3368589,102.411558 82.8166623,103.905168 88.7856236,112.603994 C94.7545848,121.303395 87.3202314,143.628177 82.2121447,154.476261 C77.104058,165.324919 69.3198119,175.24877 61.6060063,179.224061 C53.8922006,183.198203 28.550386,204.31924 20.0790569,213.342439 C15.8445471,217.854326 12.7411261,221.416675 11.4818588,220.960598 C10.2214369,220.50452 11.662579,216.432032 13.1770485,213.613325 C17.4825761,205.603503 18.9883848,198.765219 26.508768,189.49529 C38.2105418,175.071055 51.289946,175.922821 55.9061044,165.046556 C55.9061044,165.046556 68.1148185,139.04785 65.0824152,120.180168" id="Fill-12" fill="#F8CCCC"></path>
                            <path d="M73,169 C70.5830405,171.554348 64.8818728,177.236842 60.9679175,178.391304 C55.8845936,179.89016 48.8831198,183.746568 41.4355515,191.319222 C35.6856365,197.165904 28.3038204,203.935927 23,211 C33.0408117,201.070366 54.2305861,183.377574 61.1152931,179.783181 C65.1992971,177.65103 69.2991724,173.788902 73,169" id="Fill-20" fill-opacity="0.1" fill="#000000"></path>
                            <path d="M103.219825,154.427424 L106,154.046194 C104.913958,147.616415 104.22237,144.709533 104.22237,144.709533 L86.7892679,141.01055 C90.0353006,130.452906 91.9833809,118.534803 88.0279083,112.693723 C82.0742571,103.903919 81.5963066,102.395269 75.9012093,105.43349 L64.3877841,120.349135 C65.4813119,127.243247 64.5870261,135.078232 63,142.273377 C69.0964606,145.072166 75.3650985,147.210196 80.9985805,147.725089 C80.9985805,147.725089 71.1568304,154.299572 81.1264178,155.734998 C81.2421625,155.491499 81.358483,155.248581 81.4719243,155.003919 C82.3397212,153.136703 83.2748919,150.927774 84.1996973,148.51254 C84.954053,150.750525 85.8109089,153.300005 86.7138323,156 C90.6583638,155.932587 96.0148648,155.465347 103.219825,154.427424" id="Fill-32" fill-opacity="0.1" fill="#000000"></path>
                            <path d="M101.506749,22.4149631 C98.8391387,16.4506585 100.891414,10.281369 96.5823314,4.11149885 C92.3960842,-1.88125974 83.5664342,-0.59734605 81.8403678,3.34440253 C78.8940609,3.25904056 75.1441105,4.7299376 73.4962645,10.8463839 C71.7516569,17.3251831 73.5988204,22.1577158 66.1087695,26.0652034 C58.959992,29.7949988 60.6709938,35.01137 61.4920197,36.7598386 C62.3124662,38.5077265 62.0047987,38.1993782 59.7479914,42.1068658 C57.4906047,46.0143535 60.8691524,48.8818188 62.9289599,48.9962154 C64.7755439,49.0995789 66.5189928,47.042762 73.7019556,48.0705897 C80.7394861,49.0786739 80.642145,44.7809601 89.8785418,43.4947237 C94.8035385,42.8095052 94.0560978,38.834657 97.915557,38.1476964 C101.315543,37.5431943 103.666794,34.6995375 103.969247,31.3611296 C104.232879,28.4530158 102.749586,25.1918402 101.506749,22.4149631" id="Fill-34" fill="#019DF4"></path>
                            <path d="M95.3376724,9.41538372 C96.0335559,10.726602 99.7394208,18.0158601 97.0100744,26.7917853 C94.6725903,34.3064544 89.1283381,38.0489746 87.6167878,39 C86.0778585,37.9356881 84.5389293,36.8713763 83,35.8070644 L90.0786183,9 L95.3376724,9.41538372 Z" id="Fill-36" fill-opacity="0.1" fill="#000000"></path>
                            <path d="M90.0076585,2.64796993 C85.3723092,0.869536305 79.3796351,2.66420604 77.5390118,9.12211779 C76.9886989,11.048416 76.8387685,13.2002801 77.1869024,15.181665 C77.5015292,16.9798139 78.4476811,18.5199247 79.3046698,20.0930876 C80.4751495,22.239153 81.0606733,24.3678227 80.9669668,26.8090374 C80.9101749,28.2360753 80.6205366,31.7593106 80.4547044,33.1764909 C80.4547044,33.1764909 80.7886404,32.9056958 81.9727501,33.8607268 C84.3415374,35.8334139 87.1180901,34.6452787 87.1180901,34.6452787 C87.1180901,34.6452787 87.5110895,34.5664176 87.4486185,32.5937306 C87.3236765,30.6204637 87.1300164,26.0152078 89.1086438,26.1248015 C90.0502524,26.176989 91.1463347,26.4158917 92.0402381,25.9908536 C94.1659564,25.0062496 95.107565,22.7819029 95.4857986,20.5227645 C96.0628036,17.459359 96.1485593,14.3107138 95.7714615,11.2745618 C95.4238955,8.43730197 94.9031144,5.50494499 92.4008663,3.84074397 C91.6642762,3.3246677 90.8356834,2.98660875 90.0076585,2.64796993" id="Fill-38" fill="#F8CCCC"></path>
                            <path d="M90.8494657,8.62311423 L85.3301276,7 L85,9.95514678 C85,9.95514678 92.8675835,12.2816639 93.7623886,9.99146523 C93.7623886,9.99146523 97.5761589,10.6852544 96.9252418,7.24194496 C96.9252418,7.24194496 91.9782714,8.34271444 90.8494657,8.62311423" id="Fill-40" fill="#019DF4"></path>
                            <path d="M83.2790743,21.3281021 C83.8878713,18.3840419 84.4068275,13.8801662 84.6875103,10.684887 C84.7991137,9.41693706 84.9012309,8.19076282 85,6.98321829 L77.6687674,5 C75.9690464,6.05399048 74.4088298,8.05470941 73.5053996,11.5813717 C72.7074348,14.6987447 72.6884622,17.4395716 72.1164943,19.8828875 C71.6806828,23.1521209 70.9323814,25.9742411 68,28.4728817 C69.0328902,31.2577424 70.6489086,33.3267703 73.0494994,33.8732421 C77.8685377,34.9701374 81.7344822,28.7935386 83.2790743,21.3281021" id="Fill-42" fill="#019DF4"></path>
                            <path d="M79,4.87402636 L81.48312,3.61002097 L84.8465608,2 L93.7362349,3.18746255 L96,7.74962552 C96,7.74962552 90.2776242,9 90.1731695,9 C90.0692951,9 83.5321727,7.65630617 83.5321727,7.65630617 L79,4.87402636 Z" id="Fill-44" fill="#019DF4"></path>
                            <path d="M84.492075,143.110399 C84.492075,143.110399 67.8635895,155.255622 109,149.408325 C105.466864,135.151562 103.00202,122.14693 101.423483,112.723259 C99.979706,104.099944 99.2690476,95.3745775 99.2460117,86.6325848 C99.1458054,48.9103816 94.4447482,41.3872685 89.539247,33.9535934 C86.7472924,29.7230606 80.6410435,30.1736906 77.9112859,34.4323161 C70.6313564,45.7903708 70.6566959,62.1374615 68.8414647,75.1615859 C66.2136411,94.0175276 56.2241104,109.492598 42,123.412249 C51.0980402,129.793881 69.9195462,141.795201 84.492075,143.110399" id="Fill-46" fill="#0B2739"></path>
                            <path d="M79.8660426,105.515396 C64.2826525,88.2562205 77.8235566,43.1970388 77.8235566,43.1970388 L74.0627979,42 C70.3660814,52.3990235 70.0853253,64.8832484 68.6512394,75.2627518 C66.0415234,94.1449625 56.123573,109.641592 42,123.580061 C51.0333687,129.971157 69.7216576,141.989197 84.1900288,143.306227 C84.1900288,143.306227 75.4334135,149.759328 86.4692418,151 C88.5826315,150.127339 90.4827381,149.182912 92.0826473,148.159832 C106.976441,138.640359 95.4494326,122.774571 79.8660426,105.515396" id="Fill-48" fill="#000000" opacity="0.3"></path>
                            <path d="M100,100 C99.5962757,95.3927752 99.3854867,90.7689095 99.3733922,86.1393055 C99.3693607,84.7443418 99.358994,83.395284 99.3422922,82.0806555 L80.1622192,57 L79,57.6243194 C79,57.6243194 91.9905932,96.0813628 100,100" id="Fill-50" fill="#000000" opacity="0.3"></path>
                            <path d="M90.6917632,44 C71.4985422,45.4724006 107,93 107,93 C107,93 91.8235474,70.0038646 91.1258568,48.4282725 C91.1258568,48.4282725 91.0955712,46.3935978 90.6917632,44" id="Fill-52" fill="#FFFFFF"></path>
                            <path d="M122.384322,113.031572 L126.538256,122.459383 C126.717529,122.867069 127.161664,123.082937 127.586715,122.970311 C128.010031,122.85827 128.292242,122.45469 128.256387,122.012982 L127.793168,116.237919 L135.83097,121.653983 C137.029209,122.461143 138.499827,121.117832 137.833625,119.824969 L135.285632,114.881117 C134.635044,113.618757 133.528755,112.660842 132.197506,112.206814 L125.210477,109.822878 L117.85854,102 L115,105.230985 L122.384322,113.031572 Z" id="Fill-54" fill="#F8CCCC"></path>
                            <path d="M125,109.836486 L122.214496,113 C101.512163,93.8610271 85.7059802,67.0324587 78.9482683,54.5056357 C76.8969015,50.7036351 78.2848087,45.9398566 82.0404231,43.8751863 C86.3415106,41.5103581 91.1094138,44.1845977 92.5121406,48.9391227 C95.0212033,57.4441762 99.6198217,70.6835129 102.791204,77.1198477 L125,109.836486 Z" id="Fill-56" fill="#F8CCCC"></path>
                            <polygon id="Fill-58" fill="#0B2739" points="77.0944823 58 94 49.2680116 88.2279375 39 75.832807 39 73 42.7511949"></polygon>
                            <path d="M86.8446083,17.1890083 C86.8399745,17.1563257 86.8029039,16.996998 85.0988158,10 L73.1562978,12.0916874 C71.9746732,17.8881829 73.0323431,22.317261 66.1065168,25.9497004 C58.9600046,29.6982797 60.6704642,34.9409216 61.49123,36.6981958 C62.3119957,38.4548864 62.0038465,38.1449852 59.7477544,42.0721517 C57.491083,45.9993182 60.8685601,48.8812246 62.9277148,48.9961974 C64.7737137,49.1000814 66.5171892,47.0323223 73.6978758,48.0659101 C74.6883553,48.2083129 76.4022902,48.0863367 77.7646339,47.9882889 C79.6529164,47.8517222 84.3145414,47.5149746 88.0262329,44.5723719 C90.564409,42.5594729 93.9476783,38.3060638 92.7521522,35.5239561 C91.4743758,32.5492544 86.2572713,34.2755969 84.4894682,31.1188063 C82.599448,27.7449098 87.8298747,24.470812 86.8446083,17.1890083" id="Fill-60" fill="#019DF4"></path>
                            <path d="M71.120768,41.2270682 C80.1606392,35.9940388 76.3829575,29.7705658 75.9576962,17.6073559 C75.532435,5.44414589 81,3.00343058 81,3.00343058 L80.9994419,3.00343058 C78.1610183,2.91801725 74.5502042,4.39988011 72.9630087,10.5619257 C72.2308003,13.4063068 72.1554588,15.9353606 71.7061998,18.2099294 C71.7034094,18.22631 71.7000609,18.2426907 71.6967124,18.2590713 C71.6688081,18.3977217 71.6397876,18.5352021 71.6085348,18.6720974 C71.6023959,18.6984235 71.596815,18.7259195 71.5906761,18.7522456 C71.5610976,18.8803656 71.5292867,19.0067305 71.4969177,19.1325104 C71.4885464,19.1646867 71.4812913,19.1962779 71.4723619,19.2278691 C71.4394349,19.351309 71.4042755,19.4735787 71.3679999,19.5952635 C71.3585125,19.6274397 71.3495831,19.659616 71.3400956,19.6912072 C71.3004716,19.8187422 71.2586151,19.9451071 71.2150845,20.070302 C71.2067132,20.094288 71.1994581,20.1188589 71.1905287,20.1428449 C71.1380686,20.2902706 71.0833762,20.4365263 71.0236611,20.582197 C71.023103,20.5833671 71.0225449,20.5851221 71.0219868,20.5868772 C70.9014403,20.8823137 70.7658255,21.1724851 70.6129101,21.4591463 C70.5933771,21.4960027 70.5710536,21.5328591 70.5504045,21.5703006 C70.4934797,21.6726796 70.4359969,21.7750586 70.3746075,21.8762676 C70.3444709,21.9259945 70.3121019,21.9745514 70.2808491,22.0236933 C70.2250405,22.1120318 70.1686739,22.1997852 70.1089587,22.2869536 C70.0710089,22.3419457 70.0313848,22.3963529 69.9923188,22.45076 C69.9337198,22.5314931 69.8756789,22.6122263 69.8131733,22.6923744 C69.7690846,22.7497067 69.7233215,22.8058689 69.6770004,22.8632011 C69.6150529,22.9398391 69.5508731,23.0164771 69.4855771,23.09253 C69.4353494,23.1498623 69.3840055,23.2071945 69.3321035,23.2645268 C69.2640171,23.3394097 69.1948144,23.4131226 69.1233795,23.4868354 C69.0675709,23.5447527 69.0106462,23.6020849 68.9526053,23.6594172 C68.8783799,23.73196 68.8024802,23.8045028 68.7243482,23.8764607 C68.6635169,23.9332079 68.6015694,23.9899551 68.5379476,24.0467023 C68.4564671,24.1186601 68.37108,24.1906179 68.2851348,24.2619907 C68.2192807,24.3175679 68.1534266,24.37256 68.0847821,24.4275522 C67.9938141,24.500095 67.8989396,24.5720528 67.8035069,24.6440106 C67.7331881,24.6966627 67.6639855,24.7498998 67.5914344,24.8025518 C67.4876305,24.8774347 67.3788038,24.9517326 67.2699771,25.0254455 C67.1985421,25.0740024 67.1298976,25.1231443 67.0556722,25.1717012 C66.9295448,25.2541895 66.7961624,25.3366777 66.663338,25.4185809 C66.5997162,25.4571924 66.5405591,25.4963889 66.4758212,25.5350004 C66.2737942,25.6555151 66.0650702,25.7754448 65.8474168,25.8942044 C65.1297186,26.2861698 64.5091274,26.6945157 63.9666682,27.1133921 C63.1669314,27.7294211 62.5441079,28.3682661 62.0663866,29.0129612 C61.9547694,29.1633121 61.8520817,29.314833 61.7555328,29.4657689 C61.4876517,29.8846453 61.2772535,30.3035216 61.1154086,30.7183028 C60.9931879,31.0324601 60.8944067,31.3448623 60.8224137,31.6514143 C60.7928351,31.7783642 60.7671632,31.9047292 60.7453978,32.029924 C60.4903527,33.4907261 60.7453978,34.8169729 61.0556935,35.7711451 C61.0741103,35.8284774 61.0930852,35.8840545 61.111502,35.9390467 C61.1751238,36.1204038 61.2387455,36.2865503 61.300135,36.4351461 C61.3347363,36.5176343 61.3682214,36.5971974 61.4005904,36.6685702 C62.1908396,38.4294889 61.8944962,38.1188418 59.7201945,42.0554605 C59.2497283,42.9078388 59.0343073,43.7110752 59.0041706,44.4476189 C59.0041706,44.4552242 59.0030545,44.4628295 59.0024964,44.4704348 C58.9918928,44.7886873 59.0153324,45.0946542 59.0677924,45.3865806 C59.1208105,45.677922 59.2034072,45.9558078 59.3094435,46.2184831 C59.3797623,46.3934049 59.4606847,46.5618915 59.5516527,46.7227728 C60.3184623,48.0905562 61.730419,48.9347442 62.7840847,48.9961716 C62.8957018,49.0026068 63.0062028,49.0008517 63.1178199,48.9914914 C63.7785933,48.9370843 64.4722937,48.6305323 65.4662443,48.3386059 C65.2608688,46.6391145 66.1493411,44.1053806 71.120768,41.2270682" id="Fill-62" fill-opacity="0.1" fill="#000000"></path>
                            <path d="M78,7 C81.9577389,0.236533343 87.6244056,-0.808873161 95,3.86378049 C94.725114,4.86902085 93.3564631,5.63526167 90.8940475,6.16250296 L78.9917855,7 L78,7 Z" id="Path-6" fill="#019DF4"></path>
                        </g>
                    </g>
                    <g id="Group-87" mask="url(#mask-2)">
                        <g transform="translate(285.915493, 126.000000)">
                            <path d="M76.5992458,18.4519297 C81.5885532,19.7654554 90.7821462,24.4485764 92.7082033,32.44902 C95.5960083,44.4677798 89.8165564,62.106553 98.9691695,79.3646718 C101.88899,84.8627149 48.4024871,92.2586686 48.4024871,92.2586686 L38.084507,31.5389344 C38.084507,31.5389344 50.9752588,18.3567661 53.6120617,17.4721468 C59.0713579,15.6318705 66.6295952,15.827559 76.5992458,18.4519297" id="Fill-168" fill="#02AAE0"></path>
                            <path d="M38.0848949,33.3789531 C36.0852882,38.1474676 31.0311097,66.5174944 36.6644846,73.2039528 C37.314012,73.9785071 33.7409216,75.1785393 34.3849329,78.7088208 C34.495256,79.3002747 35.5750437,82.1113271 35.5750437,82.1113271 L40.1782763,83.2586686 L54.084507,75.6949089 L51.4215825,72.5993262 L50.1611407,72.6230371 C50.1611407,72.6230371 48.9724089,71.5652699 49.3006203,70.2598561 C49.6288316,68.9610287 46.1081447,66.8415426 40.7891907,44.8260224 C39.2253603,38.350327 38.5248084,32.326455 38.0848949,33.3789531" id="Fill-169" fill="#068ACC"></path>
                            <path d="M70.793204,68.5971411 C70.793204,68.5971411 66.0510806,80.0005542 54.6497188,83.0539411 C52.6745096,83.580785 51.4639846,85.6061214 52.4151113,86.2521781 C53.6350935,87.0853861 55.3063205,87.2661281 58.1664559,87.258437 C64.1258595,87.2481821 72.2388086,85.4881904 77.8523479,80.3338374 C86.1584946,72.7093432 88.7754442,69.2419159 87.9351021,65.4065954 C87.097462,61.5648655 70.793204,68.5971411 70.793204,68.5971411" id="Fill-173" fill="#E9D6B8"></path>
                            <path d="M90.1346312,30.2431016 C92.6482239,34.1044139 94.1012408,40.3080276 94.084507,49.182733 C94.0660758,56.0544484 87.7279401,67.3043343 86.7545735,70.7632073 C86.5885948,71.3379326 86.2059998,73.8156956 86.2059998,73.8156956 L79.1800371,80.2586686 L65.084507,71.3313568 L69.3704146,65.1803495 L70.6462001,65.3079201 C70.6462001,65.3079201 71.4564012,61.9187506 71.2397849,60.5956988 C71.0189488,59.2752773 75.1430975,41.5534849 77.1798531,30.1931255 C78.3543634,23.6488851 87.6435441,26.4133532 90.1346312,30.2431016" id="Fill-174" fill="#068ACC"></path>
                            <path d="M77.5421321,65.5671002 L74.2845319,64.5808617 L72.9578164,64.2586686 C72.8718256,65.1498875 72.084507,65.7527708 72.084507,65.7527708 L74.6519472,66.0443829 L77.6158385,66.9268643 L81.084507,69.2586686 L77.5421321,65.5671002 Z" id="Fill-175" fill="#3BB6D5"></path>
                            <path d="M63.4998748,34.8740492 C63.1986773,35.276539 62.7252189,35.5124367 62.2537606,35.6922543 C61.0357841,36.1570651 59.7100005,36.340992 58.4101621,36.2247803 C57.8756866,36.1772751 57.3313733,36.0741447 56.8752884,35.7927683 C56.3366218,35.4600857 56.2268088,35.0601257 56.0858897,34.5050855 C55.9205181,33.8549462 55.6449952,33.217029 55.416581,32.5703868 C54.9170647,31.1563902 54.5186794,29.7091594 54.1633815,28.2536441 C51.9191272,28.3418711 49.8995894,28.1464035 48.67701,26.0474429 C48.291926,25.3860187 48.2398113,23.2520207 48.0084865,22.5336857 C46.9997683,19.4013047 46.6577144,17.5684344 45.6628951,14.5297165 C45.3277274,13.5059323 44.9648884,12.3458764 45.1224661,11.2640969 C45.3990213,9.36651793 46.591501,7.96689408 48.0773469,6.96298943 C51.8702064,4.40150174 56.7247219,3.4462737 61.0694852,5.03211741 C62.2256459,5.45410644 63.3642088,6.07093121 64.1897565,7.06000289 C65.4624138,8.58485193 65.8014756,10.7284659 66.0848236,12.7385682 C66.3455267,14.5946674 66.6069337,16.4502086 66.8683406,18.3057498 C67.1684471,20.4404056 67.3682421,22.9277434 65.9633338,24.385181 C65.2180437,25.1589635 64.1142933,25.505515 63.5261946,26.4273834 C62.4993555,28.0361699 63.5501849,29.8939476 63.5070882,31.5899641 C63.5014574,31.8272886 63.5339537,32.0639244 63.5812953,32.3006977 C63.7553721,33.1724461 64.127063,34.0368211 63.4998748,34.8740492 Z" id="Fill-156-Copy" fill="#FABDA4"></path>
                            <path d="M46.2619944,15.2586686 C46.2619944,15.2586686 43.9369028,13.8979367 43.2798117,12.8550507 C42.9535637,12.332143 42.9106767,10.0237324 44.1574649,8.80361434 C45.4042531,7.5834963 47.084507,8.79336125 47.084507,8.79336125 C47.084507,8.79336125 45.0764734,10.6857892 45.0871952,11.1955144 C45.102512,11.6964512 46.2619944,15.2586686 46.2619944,15.2586686" id="Fill-179" fill="#163F59"></path>
                            <path d="M67.084507,12.6954739 C67.084507,12.6954739 67.0138848,5.96959147 66.100033,4.22355795 C65.1932435,2.4712256 64.5703553,1.25303338 61.994056,1.67253494 C58.1409067,2.29107928 58.3146374,3.01418408 56.1705462,2.44477055 C54.0278675,1.87661678 49.9826256,0.228844885 48.7749853,0.259079232 C46.7664888,0.315768632 43.9853851,1.6032479 44.8526262,4.78919218 C45.483989,7.13991264 44.0150464,8.11874962 44.0870811,8.19307572 C44.3201345,8.44250908 45.0913293,8.54203047 46.4501012,8.78138572 C50.3484488,9.46669757 52.5024271,9.2638755 54.9374819,8.00789035 C57.3795989,6.75190519 61.8626987,4.22355795 62.9672305,5.81464044 C64.0745872,7.4069827 65.4813822,12.7635011 65.8387307,13.1137156 C66.1932544,13.4664497 66.7186838,13.1162352 67.084507,12.6954739" id="Fill-180" fill="#4F525A"></path>
                            <ellipse id="Oval" fill="#FABDA4" cx="66.084507" cy="13.7586686" rx="1" ry="2.5"></ellipse>
                            <path d="M48.3454639,22.2375416 C49.2027924,22.0596099 49.3332448,20.8055385 48.6368376,19.4364948 C47.9404303,18.067451 46.6808786,17.1018639 45.8235501,17.2797956 C44.9662217,17.4577274 44.8357693,18.7117987 45.5321765,20.0808425 C46.2285838,21.4498862 47.4881355,22.4154733 48.3454639,22.2375416 Z" id="Oval-Copy" fill="#FABDA4"></path>
                            <path d="M65.2947731,13.9117935 C65.2947731,13.9117935 67.3866395,20.8483889 68.0864091,23.1614952 C68.7147138,25.2486002 69.1840434,30.0694153 56.2742814,33.3234506 C48.6302251,35.2437511 47.3630917,30.0416709 46.8524084,28.3493867 C46.4667897,27.0641766 46.8950038,22.8138722 47.481324,21.8731841 C47.5006697,21.8432346 48.3433819,24.7363164 48.3433819,24.7363164 C48.3433819,24.7363164 49.0887268,21.5452211 52.7276903,20.6293011 C58.5887287,19.156753 60.861752,21.9560203 63.4291132,21.2537504 C65.4041201,20.706631 66.0065659,17.3603219 65.2947731,13.9117935" id="Fill-183" fill="#4F525A" transform="translate(57.521994, 23.827286) rotate(6.000000) translate(-57.521994, -23.827286) "></path>
                            <path d="M50.084507,87.2586686 L44.1200695,63.9900568 C43.9596089,63.3781831 43.3151574,62.869532 42.6720105,62.8583392 L7.99556377,62.2586686 C7.35502596,62.2464655 6.96235411,62.732731 7.11890103,63.3483356 L13.0859477,86.6132165 L50.084507,87.2586686 Z" id="Fill-189" fill="#FFFFFF"></path>
                            <path d="M45.084507,102.867299 C45.084507,102.867299 87.7570499,63.3103804 90.6358369,62.1282227 C100.375161,58.1294341 106.412434,69.0076868 106.070727,72.766308 C105.627431,77.6403736 62.2714726,117.258669 62.2714726,117.258669 L45.084507,102.867299 Z" id="Fill-200" fill="#3C463B"></path>
                            <path d="M58.9340718,24.8877535 C57.7824671,26.8346305 56.2701575,27.4321874 54.6112697,27.2171617 C53.9064416,27.125587 53.9098953,25.2834941 54.61581,25.3755086 C55.9899653,25.5529146 57.1945633,25.1275611 58.1532675,23.5071075 C58.635579,22.6914327 59.4136052,24.0770613 58.9340718,24.8877535" id="Path" fill="#FABDA4"></path>
                        </g>
                    </g>
                </g>
                <line x1="-6.48439635e-15" y1="189.5" x2="534" y2="189.5" id="Path-7-Copy" stroke="#0F2638" stroke-width="2" stroke-linecap="round" stroke-linejoin="round"></line>
            </g>
        </g>
    </g>
</svg>