<?xml version="1.0" encoding="UTF-8"?>
<svg width="17px" height="11px" viewBox="0 0 17 11" version="1.1" xmlns="http://www.w3.org/2000/svg" xmlns:xlink="http://www.w3.org/1999/xlink">
    <!-- Generator: Sketch 64 (93537) - https://sketch.com -->
    <title>Fill 1 Copy</title>
    <desc>Created with Sketch.</desc>
    <g id="ATC-ESCRITORIO-curva" stroke="none" stroke-width="1" fill="none" fill-rule="evenodd">
        <g id="FAQs" transform="translate(-1163.000000, -570.000000)" fill="#B6B7B7">
            <g id="Group-4" transform="translate(240.000000, 400.000000)">
                <polygon id="Fill-1-Copy" points="938.007861 170 931.5 176.822867 924.992139 170 923 172.088567 931.5 181 940 172.088567"></polygon>
            </g>
        </g>
    </g>
</svg>