<?xml version="1.0" encoding="UTF-8"?>
<svg width="17px" height="11px" viewBox="0 0 17 11" version="1.1" xmlns="http://www.w3.org/2000/svg" xmlns:xlink="http://www.w3.org/1999/xlink">
    <!-- Generator: Sketch 64 (93537) - https://sketch.com -->
    <title>Fill 1 Copy</title>
    <desc>Created with Sketch.</desc>
    <g id="ATC-ESCRITORIO-curva" stroke="none" stroke-width="1" fill="none" fill-rule="evenodd">
        <g id="FAQs" transform="translate(-1165.000000, -432.000000)" fill="#B6B7B7">
            <g id="Group-4" transform="translate(240.000000, 400.000000)">
                <g id="Group">
                    <polygon id="Fill-1-Copy" transform="translate(933.500000, 37.500000) rotate(-180.000000) translate(-933.500000, -37.500000) " points="940.007861 32 933.5 38.822867 926.992139 32 925 34.0885665 933.5 43 942 34.0885665"></polygon>
                </g>
            </g>
        </g>
    </g>
</svg>