<?xml version="1.0" encoding="UTF-8"?>
<svg width="1440px" height="675px" viewBox="0 0 1440 675" version="1.1" xmlns="http://www.w3.org/2000/svg" xmlns:xlink="http://www.w3.org/1999/xlink">
    <!-- Generator: Sketch 64 (93537) - https://sketch.com -->
    <title>Group 14</title>
    <desc>Created with Sketch.</desc>
    <defs>
        <rect id="path-1" x="0" y="0" width="1440" height="699"></rect>
    </defs>
    <g id="ATC-ESCRITORIO-curva" stroke="none" stroke-width="1" fill="none" fill-rule="evenodd">
        <g id="Centro-de-privacidad">
            <g id="Group-14">
                <mask id="mask-2" fill="white">
                    <use xlink:href="#path-1"></use>
                </mask>
                <g id="Rectangle"></g>
                <path d="M554,674.676143 C1516.99836,693.668458 2348,-129 2348,-129 L1843,-110.007653 L-407,-129 C-407,-92.5867157 -404,128.896076 -194,348.807458 C-194,348.807458 72.7963253,665.185814 554,674.676143 Z" id="Forma-MOVISTAR" fill="#F1F1F1" opacity="0.920000017" mask="url(#mask-2)"></path>
            </g>
        </g>
    </g>
</svg>