<?xml version="1.0" encoding="UTF-8"?>
<svg width="53px" height="53px" viewBox="0 0 53 53" version="1.1" xmlns="http://www.w3.org/2000/svg" xmlns:xlink="http://www.w3.org/1999/xlink">
    <!-- Generator: Sketch 64 (93537) - https://sketch.com -->
    <title>Fill 8 Copy</title>
    <desc>Created with Sketch.</desc>
    <g id="ATC-ESCRITORIO-curva" stroke="none" stroke-width="1" fill="none" fill-rule="evenodd">
        <g id="Manejo-de-datos" transform="translate(-275.000000, -637.000000)" fill="#25A1E1">
            <g id="Group-14" transform="translate(239.000000, 617.000000)">
                <g id="Group-2">
                    <path d="M62.4979331,20 C70.9061696,20 77.4562437,22.2012714 81.9579986,26.5376726 C86.631308,31.0435613 89,37.7589892 89,46.4979331 C89,55.2410108 86.631308,61.9564387 81.9579986,66.4623274 C77.4562437,70.7987286 70.9061696,73 62.4979331,73 C54.0917635,73 47.5437563,70.7987286 43.0399345,66.4623274 C38.368692,61.9564387 36,55.2410108 36,46.4979331 C36,37.7589892 38.368692,31.0435613 43.0399345,26.5376726 C47.5437563,22.2012714 54.0917635,20 62.4979331,20 Z M62.4977999,21.5020669 C54.4079468,21.5020669 48.1881985,23.5415811 44.0145648,27.5634064 C39.6935228,31.7304397 37.5022001,38.0997964 37.5022001,46.4976667 C37.5022001,54.8999372 39.6935228,61.2648936 44.0145648,65.4385274 C48.1881985,69.4603526 54.4079468,71.5020669 62.4977999,71.5020669 C70.5920532,71.5020669 76.8096013,69.4603526 80.9832351,65.4385274 C85.3064772,61.271494 87.4977999,54.9021373 87.4977999,46.4976667 C87.4977999,38.0975963 85.3064772,31.73484 80.9832351,27.5612062 C76.8096013,23.5415811 70.5920532,21.5020669 62.4977999,21.5020669 Z M62.4754282,54 C63.0640335,54 63.5515193,54.1937193 63.9371312,54.5804011 C64.3227431,54.9670829 64.5159263,55.4347333 64.5159263,55.9848657 C64.5159263,56.5145668 64.3227431,56.9822172 63.9371312,57.3893303 C63.5515193,57.7972002 63.0640335,58 62.4754282,58 C61.9064432,58 61.4249943,57.8017404 61.0288178,57.4052213 C60.6326412,57.0079455 60.4349302,56.5448354 60.4349302,56.0151343 C60.4349302,55.4650019 60.6281134,54.9920545 61.0137253,54.5955354 C61.3993372,54.1990163 61.886823,54 62.4754282,54 Z M62.43,31 C66.6958785,31 70.3007081,34.4988855 70.3007081,38.641227 C70.3007081,41.8079822 68.4737681,43.3876446 67.1395963,44.5415561 L66.9999912,44.6619255 C66.7139894,44.9100945 66.405349,45.1486042 66.0785977,45.4004883 C65.5865841,45.780915 64.5746359,46.563316 64.4108829,46.9504299 L64.4108829,50.0495701 C64.4108829,51.1269504 63.5234474,52 62.43,52 C61.335798,52 60.4491171,51.1269504 60.4491171,50.0495701 L60.4491171,46.8947033 C60.4491171,44.7926972 62.2896403,43.3705551 63.6336222,42.3318119 C63.9143416,42.1148498 64.1799686,41.9105191 64.3814526,41.7359091 L64.5255855,41.6110816 C65.7503371,40.5515338 66.3389423,39.9831228 66.3389423,38.641227 C66.3389423,36.437427 64.278824,34.9001168 62.43,34.9001168 C60.2008464,34.9001168 58.5203031,36.508757 58.5203031,38.641227 C58.5203031,39.7186074 57.6343768,40.5916569 56.5401748,40.5916569 C55.4459728,40.5916569 54.5592919,39.7186074 54.5592919,38.641227 C54.5592919,34.3569685 58.0162156,31 62.43,31 Z" id="Fill-8-Copy"></path>
                </g>
            </g>
        </g>
    </g>
</svg>