<?xml version="1.0" encoding="UTF-8"?>
<svg width="536px" height="191px" viewBox="0 0 536 191" version="1.1" xmlns="http://www.w3.org/2000/svg" xmlns:xlink="http://www.w3.org/1999/xlink">
    <!-- Generator: Sketch 64 (93537) - https://sketch.com -->
    <title>Group</title>
    <desc>Created with Sketch.</desc>
    <defs>
        <rect id="path-1" x="0" y="0" width="395.431472" height="190"></rect>
        <polygon id="path-3" points="0 0.210489723 20.5218305 0.210489723 20.5218305 14.7170738 0 14.7170738"></polygon>
    </defs>
    <g id="ATC-ESCRITORIO-curva" stroke="none" stroke-width="1" fill="none" fill-rule="evenodd">
        <g id="Politica-de-Privacidad" transform="translate(-452.000000, -187.000000)">
            <g id="Group" transform="translate(453.000000, 187.000000)">
                <g id="Group-14-Copy" transform="translate(69.000000, 0.000000)">
                    <mask id="mask-2" fill="white">
                        <use xlink:href="#path-1"></use>
                    </mask>
                    <g id="Rectangle"></g>
                    <g id="Group-73" mask="url(#mask-2)">
                        <g transform="translate(85.000000, 0.000000)">
                            <g id="Group-62" transform="translate(3.000000, 0.000000)">
                                <path d="M15.4003012,207.811006 L92.1056476,207.811006 C100.399503,207.811006 107.123193,201.115683 107.123193,192.856393 L107.123193,17.6821041 C107.123193,7.9164524 99.1732982,3.44941956e-05 89.3667771,3.44941956e-05 L17.9299548,3.44941956e-05 C8.02748494,3.44941956e-05 -2.75656338e-13,7.99406434 -2.75656338e-13,17.855265 L-2.75656338e-13,192.474887 C-2.75656338e-13,200.944937 6.89480422,207.811006 15.4003012,207.811006" id="Fill-4" fill="#0B2739"></path>
                                <path d="M15.4003012,207.811006 L92.1056476,207.811006 C100.399503,207.811006 107.123193,201.115683 107.123193,192.856393 L107.123193,17.6821041 C107.123193,7.9164524 99.1732982,3.44941956e-05 89.3667771,3.44941956e-05 L17.9299548,3.44941956e-05 C8.02748494,3.44941956e-05 -2.75656338e-13,7.99406434 -2.75656338e-13,17.855265 L-2.75656338e-13,192.474887 C-2.75656338e-13,200.944937 6.89480422,207.811006 15.4003012,207.811006" id="Fill-6" fill="#000000"></path>
                                <path d="M22.9615858,207.811006 L99.6665858,207.811006 C107.960788,207.811006 114.684131,201.115683 114.684131,192.856393 L114.684131,17.6821041 C114.684131,7.9164524 106.734583,3.44941956e-05 96.9280617,3.44941956e-05 L25.4912395,3.44941956e-05 C15.5887696,3.44941956e-05 7.56128464,7.99406434 7.56128464,17.855265 L7.56128464,192.474887 C7.56128464,200.944937 14.4560889,207.811006 22.9615858,207.811006" id="Fill-8" fill="#F5F5F5"></path>
                                <path d="M67.0807816,138.144528 C51.8931611,130.156362 46.4271973,111.447055 47.1140798,90.4511284 C47.7140196,72.1457486 48.2467605,36.8906109 45.3433569,22.9787569 C43.9910678,16.5031615 42.6748027,9.36010348 39.4187786,2.32915158 L26.6659021,2.32915158 C16.6889593,2.32915158 8.60120331,10.5774036 8.60120331,20.7521566 L8.60120331,197.305868 C11.5548328,200.275128 15.6089292,202.10953 20.0842304,202.10953 L96.3132967,204.729364 C105.34911,204.729364 112.674125,197.258956 112.674125,188.043487 L112.674125,128.162943 C109.737815,130.235699 107.09039,132.077689 104.793161,133.61613 C91.8563539,142.277278 79.501128,144.676349 67.0807816,138.144528" id="Fill-10" fill-opacity="0.07" fill="#000000"></path>
                                <path d="M100.346991,202.109357 L25.2644608,202.109357 C15.0904247,202.109357 10.7903946,193.431997 10.7903946,184.961948 L10.7903946,192.474783 C10.7903946,200.944833 17.2705753,207.810903 25.2644608,207.810903 L97.3580301,207.810903 C105.15309,207.810903 111.472548,201.115579 111.472548,192.856289 L111.472548,185.343453 C111.472548,193.602399 110.808527,202.109357 100.346991,202.109357" id="Fill-12" fill="#0B2739"></path>
                                <path d="M96.9280964,-7.84307206e-14 L25.4909277,-7.84307206e-14 C15.5884578,-7.84307206e-14 7.56131928,7.99402985 7.56131928,17.8548856 L7.56131928,192.474852 C7.56131928,200.944902 14.4557771,207.811317 22.9612741,207.811317 L99.6666205,207.811317 C107.960476,207.811317 114.684166,201.115648 114.684166,192.856358 L114.684166,17.6820697 C114.684166,7.91641791 106.734617,-7.84307206e-14 96.9280964,-7.84307206e-14 M96.9280964,3.21623881 C104.937569,3.21623881 111.45412,9.70563184 111.45412,17.6820697 L111.45412,192.856358 C111.45412,199.328849 106.166199,204.594733 99.6666205,204.594733 L22.9612741,204.594733 C16.250747,204.594733 10.7910181,199.157758 10.7910181,192.474852 L10.7910181,17.8548856 C10.7910181,9.78289884 17.3851596,3.21623881 25.4909277,3.21623881 L96.9280964,3.21623881" id="Fill-14" fill="#0B2739"></path>
                                <path d="M96.9280964,3.92153603e-14 L28.3053102,3.92153603e-14 C26.9228855,3.92153603e-14 25.583759,0.170401327 24.291741,0.4653267 L48.68525,10.6597413 C61.6352199,16.0722255 76.4276145,14.8121526 88.2670723,7.28931343 L99.453247,0.180749585 C98.6281566,0.064159204 97.785747,3.92153603e-14 96.9280964,3.92153603e-14" id="Fill-16" fill="#0B2739"></path>
                                <path d="M2.71968072,52.6656345 L2.71968072,52.6656345 C3.33209036,52.6656345 3.82811446,52.1713327 3.82811446,51.5621652 L3.82811446,39.8631138 C3.82811446,39.2536013 3.33209036,38.7596444 2.71968072,38.7596444 C2.10761747,38.7596444 1.61159337,39.2536013 1.61159337,39.8631138 L1.61159337,51.5621652 C1.61159337,52.1713327 2.10761747,52.6656345 2.71968072,52.6656345" id="Fill-18" fill="#019DF4"></path>
                                <path d="M2.71968072,71.980004 L2.71968072,71.980004 C3.33209036,71.980004 3.82811446,71.4860471 3.82811446,70.8765347 L3.82811446,59.1774833 C3.82811446,58.5679708 3.33209036,58.0740139 2.71968072,58.0740139 C2.10761747,58.0740139 1.61159337,58.5679708 1.61159337,59.1774833 L1.61159337,70.8765347 C1.61159337,71.4860471 2.10761747,71.980004 2.71968072,71.980004" id="Fill-20" fill="#019DF4"></path>
                                <path d="M63.6784789,6.99011078 C63.6784789,7.67033632 64.2323494,8.22155357 64.9154217,8.22155357 C65.598494,8.22155357 66.1523645,7.67033632 66.1523645,6.99011078 C66.1523645,6.30988524 65.598494,5.75832305 64.9154217,5.75832305 C64.2323494,5.75832305 63.6784789,6.30988524 63.6784789,6.99011078" id="Fill-22" fill="#019DF4"></path>
                            </g>
                            <g id="Group-72" transform="translate(0.000000, 52.000000)">
                                <path d="M23.6989017,50.1323475 C23.6989017,50.1323475 38.7708554,102.101839 98.5954322,118.763102 C101.981931,119.70638 105.499847,117.762331 106.465644,114.387872 L106.470128,114.373069 C107.363835,111.251298 105.754058,107.971856 102.74698,106.732856 C91.5806409,102.131446 66.1863858,87.4362656 57.1924003,46.8019541 L23.6989017,50.1323475 Z" id="Fill-25" fill="#0B2739"></path>
                                <path d="M107.071302,118.631146 L101.746311,116.836507 C101.746311,116.836507 101.531766,111.516277 104.408806,109.865539 L110.359496,112.212031 L107.071302,118.631146 Z" id="Fill-28" fill="#EC624B"></path>
                                <path d="M110.674519,134.00528 C110.674519,134.00528 107.328721,130.781952 106.292559,123.13933 C106.292559,123.13933 105.367463,120.270248 104.4334,117.33851 C103.499681,114.407116 104.813855,111.089461 108.897452,110.120362 C108.897452,110.120362 111.115336,109.759575 114.338339,111.139034 C114.338339,111.139034 113.806806,133.554985 113.556043,133.591821 C113.305626,133.628657 110.674519,134.00528 110.674519,134.00528" id="Fill-31" fill="#019DF4"></path>
                                <path d="M113.189385,111.303798 C113.189385,111.303798 108.079629,113.076405 109.353101,120.25393 C110.626919,127.431454 108.500785,134.376257 112.293608,135.11229 C116.086777,135.848323 118.619579,132.284864 117.063266,122.588028 C115.507298,112.891192 116.393417,111.324454 113.189385,111.303798" id="Fill-34" fill="#FFFFFF"></path>
                                <path d="M114.338373,111.139069 C114.338373,111.139069 109.228272,112.911675 110.502089,120.0892 C111.775562,127.266725 109.649428,134.211528 113.442597,134.947216 C117.23542,135.683593 119.768568,132.120134 118.212254,122.423298 C116.655941,112.726462 117.542405,111.159725 114.338373,111.139069" id="Fill-37" fill="#86888C"></path>
                                <path d="M98.5953287,118.763274 C100.5421,119.305143 102.528882,118.889962 104.052772,117.801061 C42.8074388,86.9317492 57.1647026,47.0888967 57.1647026,47.0888967 L54.3080128,47.0888967 L23.6987983,50.1325197 C23.6987983,50.1325197 38.7710968,102.102011 98.5953287,118.763274" id="Fill-40" fill-opacity="0.2" fill="#000000"></path>
                                <path d="M57.1645991,47.0887934 C57.1645991,47.0887934 56.9638513,61.8163344 43.7472629,80.0494984 C23.7162861,107.682744 19.3639904,146.731728 19.3639904,146.731728 L14.7022948,144.435154 C14.7022948,144.435154 7.39224551,107.513023 25.2677701,56.4114164 L57.1645991,47.0887934 Z" id="Fill-43" fill="#0B2739"></path>
                                <path d="M43.7471249,80.0495672 C49.4249771,72.2165672 52.6990293,65.0321574 54.5888872,59.3831574 C48.4605597,59.2423541 39.5697075,62.5204197 30.2418322,78.0903705 C25.0003133,86.8394525 20.87498,96.4102885 18.6491626,108.710436 C16.595809,120.055256 16.2870988,130.341469 16.467151,136.128518 C16.5295829,138.122485 16.9296988,140.315436 17.338093,141.719682 C17.7816699,143.247174 18.6119104,144.349157 19.5746032,145.112043 C20.6428438,137.475616 26.1320206,104.350698 43.7471249,80.0495672" id="Fill-46" fill-opacity="0.4" fill="#000000"></path>
                                <path d="M58.2893388,32.9192328 L64.2238171,38.4597902 C64.4800983,38.6990525 64.8726258,38.7186754 65.1513272,38.5052328 C65.4279591,38.2935115 65.5124664,37.9141344 65.3517301,37.6053312 L63.2473272,33.5681672 L70.8143475,35.0040852 C71.9422606,35.2182164 72.6138345,33.7912492 71.7287504,33.0610689 L68.3446664,30.2704787 C67.4809678,29.5575115 66.3744403,29.2060197 65.2568751,29.2886426 L59.3889678,29.7231016 L51.5918809,26.3328066 L50.253562,30.1957738 L58.2893388,32.9192328 Z" id="Fill-49" fill="#EC624B"></path>
                                <path d="M23.8474275,5.99248197 L57.2681464,27.0874984 L57.1001667,27.932318 C56.494129,30.9811049 53.304929,32.7698918 50.3809783,31.7013016 L37.6190043,27.0372361 L23.8474275,5.99248197 Z" id="Fill-52" fill="#F8D2B3"></path>
                                <path d="M40.4359586,28.0666148 L31.404031,13.0388771 L56.2091499,29.9528279 C54.9198107,31.6951393 52.5756832,32.5034672 50.3809093,31.7013361 L40.4359586,28.0666148 Z" id="Fill-55" fill-opacity="0.1" fill="#000000"></path>
                                <path d="M24.1167814,56.7162262 C24.1167814,56.7162262 20.3689837,45.2703634 14.6929543,34.1365657 C14.6583387,32.0123819 14.6583387,2.47451638 14.6583387,0 C23.7571096,4.64556558 47.2728848,18.7139948 56.0850104,43.7268656 C56.0850104,43.7268656 66.9802365,67.6117836 24.1167814,56.7162262 Z" id="Fill-58" fill="#F8D2B3"></path>
                                <path d="M42.0228322,49.6946525 C36.330493,50.2922918 31.4273481,46.168718 27.8352728,40.2897508 C24.7036757,35.1636852 18.4977394,25.4055705 15.177122,22.1264721 C13.9267597,20.8922918 12.6046525,19.5338328 10.9921162,18.3561115 L10.9921162,27.4587508 C18.6833104,40.1217508 24.1169539,56.7162262 24.1169539,56.7162262 C66.9800641,67.6117836 56.0851829,43.7268656 56.0851829,43.7268656 C55.3159945,41.5438984 54.4319452,39.4476852 53.4578699,37.4309967 C52.8221684,39.0149475 52.2551075,40.4061115 51.7653104,41.534259 C49.7043684,46.2812918 46.6776293,49.2054557 42.0228322,49.6946525" id="Fill-61" fill-opacity="0.15" fill="#000000"></path>
                                <g id="Group-67" transform="translate(0.000000, 8.621062)">
                                    <mask id="mask-4" fill="white">
                                        <use xlink:href="#path-3"></use>
                                    </mask>
                                    <g id="Clip-66"></g>
                                    <path d="M20.1233139,7.57222131 C19.7739023,6.80486066 19.242369,6.16763115 18.6197748,5.68945082 C14.5627371,2.57490984 14.3868241,-0.353040984 13.6790328,0.303467213 C13.258911,0.693516393 13.4179226,2.54013934 13.8239023,4.25146721 C9.40641536,3.74264754 0.420018261,4.05764754 1.59863565,5.18097541 C2.19536029,5.75004098 5.30039797,6.28433607 8.0139429,6.65407377 C4.26009652,6.81484426 -0.559575942,7.19456557 0.0530153623,8.08310656 C0.53349942,8.77989344 3.76547043,9.19645082 6.96087913,9.44053279 C4.04175739,10.0698443 1.5717313,10.8069098 2.60892841,11.3539426 C3.84480377,12.0056311 7.56829652,11.637959 10.6178009,11.1855984 C7.19025594,12.2982541 4.01761246,13.7551721 4.52982986,14.3720902 C5.41146464,15.4337951 10.4708617,13.695959 14.1488241,13.8044016 L14.149169,13.8044016 C21.1056675,12.4363033 20.9556241,9.40094262 20.1233139,7.57222131" id="Fill-65" fill="#EC624B" mask="url(#mask-4)"></path>
                                </g>
                            </g>
                        </g>
                    </g>
                    <g id="Group-95" mask="url(#mask-2)">
                        <g transform="translate(240.000000, 179.500000) rotate(-14.000000) translate(-240.000000, -179.500000) translate(200.000000, 45.000000)">
                            <path d="M48.1960676,19.2678121 C48.1960676,19.2678121 46.4875746,12.3914095 48.8431997,9.33107318 L51.9202595,11.057256 L48.1960676,19.2678121 Z" id="Fill-71" fill="#0B2739" transform="translate(49.758851, 14.299443) rotate(25.000000) translate(-49.758851, -14.299443) "></path>
                            <path d="M68.0133101,18.3252667 C68.7208231,20.761856 68.9097475,23.4857344 68.453256,25.9951311 C68.0402046,28.2718899 66.8093176,30.2245748 65.6940475,32.2189233 C64.1713348,34.9383704 55.160233,39.7478926 52.9682956,39.8814971 C51.7464918,39.9291913 50.325666,40.2562766 49.1683983,39.7206684 C46.4153563,38.4800425 45.2006318,35.6664339 44.7159522,32.8075406 C43.9767442,28.931137 45.3504382,25.3769526 44.4996128,20.5741014 C43.6487874,15.7712501 45.512697,13.7944214 48.7615688,11.6805646 C49.7175654,11.0245903 50.792397,10.5945955 51.8672305,10.1636994 C57.8811864,7.89923213 65.6444926,10.154352 68.0133101,18.3252667 Z" id="Fill-73" fill="#F8CCCC" transform="translate(56.497757, 24.678727) rotate(25.000000) translate(-56.497757, -24.678727) "></path>
                            <path d="M69.7366043,13.6799584 C69.7366043,13.6799584 52.2194833,23.1759336 47.3115653,15.3695613 C47.3115653,15.3695613 44.2561991,12.4104157 50.6840383,7.18684418 C57.1118775,1.96327262 67.4438782,4.3475672 69.3867865,8.7344179 C69.3867865,8.7344179 77.7392001,15.3447481 71.8609151,27.8715279 L65.6636277,38.3788225 C65.6636277,38.3788225 65.6086072,32.2304173 67.4664823,28.8684968 L69.7366043,13.6799584 Z" id="Fill-77" fill="#0B2739" transform="translate(60.271393, 21.295127) rotate(25.000000) translate(-60.271393, -21.295127) "></path>
                            <g id="Group-94" stroke-width="1" fill="none" transform="translate(47.000000, 195.000000) scale(-1, 1) translate(-47.000000, -195.000000) translate(21.000000, 121.000000)">
                                <path d="M1.01491463,5.17741129 C1.01491463,5.17741129 -5.08620037,45.583051 12.6293283,129.583208 L21.9955189,129.427863 C21.9955189,129.427863 28.9550731,48.6092474 28.5858086,6.00932026 L1.01491463,5.17741129 Z" id="Fill-40" fill="#0B2739"></path>
                                <path d="M11.44,11.131755 C11.44,11.131755 12.7595811,103.323712 16.911362,129.435282 L19.3460666,129.361518 C21.4599014,106.217517 20.5153436,7.10044978 20.5153436,7.10044978 L11.44,11.131755 Z" id="Fill-42" fill-opacity="0.3" fill="#000000"></path>
                                <path d="M42.5502798,0 C42.5502798,0 51.6975479,62.0444486 37.9766457,127.512244 L29.5044771,127.512244 L21.5428571,19.7063477 L23.5872554,3.80733609 L42.5502798,0 Z" id="Fill-44" fill="#0B2739"></path>
                                <path d="M45.3142857,15.651078 L22.6571429,5.17741129 L28.1426406,127.512244 L37.3731803,127.512244 C37.5120485,126.41934 37.6449139,125.328726 37.77938,124.236968 C33.1338954,115.384901 29.582949,103.601238 29.6898015,88.3005771 C29.9035066,57.6156264 39.4790159,34.947026 45.09938,24.2528309 C45.1818206,21.3544577 45.2534558,18.4870158 45.3142857,15.651078" id="Fill-46" fill-opacity="0.3" fill="#000000"></path>
                            </g>
                            <path d="M56.6806572,46.4885226 L55.4433974,48 C55.3626782,47.3415299 55.3127712,46.5838839 55.3366398,45.7690212 C55.4043397,44.6127648 55.5597024,43.1551665 55.5371358,41.8930591 C55.5106634,40.449765 55.2520149,39.2620394 54.3636702,39.0694094 C54.283819,39.0522444 54.1926844,39.053198 54.1028518,39.0522444 C54.067266,39.0522444 54.0373218,39.0431851 54,39.0455691 C54,39.0455691 55.5848729,38.9359035 61,34 L56.6806572,46.4885226 Z" id="Fill-75" fill="#000000"></path>
                            <path d="M67.7209568,21.001147 C69.6680401,20.9289115 69.0580241,24.2863814 68.085535,26.0007394 C67.1130458,27.7141078 65.8976449,29 65.2901549,29 C64.6822439,29 65.1621736,26.4786816 65.5267518,24.9073105 C65.89133,23.3359393 66.6112246,21.0422125 67.7209568,21.001147" id="Fill-79" fill="#E05D4E"></path>
                            <path d="M22.0496918,45.5152902 C17.9468822,50.3864807 26.9387285,54.9794532 30.6862678,52.1154591 C35.4364103,48.485447 26.0800198,40.7300292 22.0496918,45.5152902" id="Fill-1-Copy-3" fill-opacity="0.3" fill="#000000"></path>
                            <path d="M21,48.1326092 C21,48.1326092 29.0013539,39.678801 32.6427206,33.2244798 C36.2841779,26.7702033 40.8952313,26 40.8952313,26 L41.168957,31.4673697 L39.1942803,36.3350364 L42.8503756,32.7250105 L44.5502843,33.1154794 C44.5502843,33.1154794 40.9163952,37.1929946 39.9235053,41.1722439 C39.9235053,41.1722439 41.6691407,39.7568053 42.4969342,38.679952 C43.3246823,37.603054 45.2627414,37.3822356 45.9116162,37.9011164 C46.560491,38.4199972 43.4375262,40.5823809 43.0236747,41.1722439 C42.609778,41.7621069 40.7349387,44.4508856 36.3139524,45.4575618 C31.8929661,46.464238 27.7724889,51.5274076 27.7724889,51.5274076 C27.7724889,51.5274076 24.4429609,53.8676715 21,48.1326092" id="Fill-3-Copy" fill="#F8CCCC"></path>
                            <path d="M42,31.0766393 L41.727028,25 C41.727028,25 41.5847572,25.0266456 41.331309,25.1089686 C40.6470713,26.6105179 38.9437531,31.0163884 40.9359515,34 L42,31.0766393 Z" id="Fill-10-Copy" fill-opacity="0.1" fill="#000000"></path>
                            <path d="M40.4326637,43.6172447 C38.3062076,44.7444802 35.7000223,44.6526739 33.8536551,45.5860537 C32.0073349,46.5193856 28,51.9434707 28,51.9434707 L28.2428503,52 C28.7961163,51.3216005 32.7828571,46.5856316 37.0386374,45.5860537 C41.6254276,44.5086941 43.5705806,41.6312519 44,41 C44,41 42.5591198,42.490057 40.4326637,43.6172447" id="Fill-12-Copy" fill-opacity="0.1" fill="#000000"></path>
                            <path d="M70.4631701,50.6446801 C63.9809736,48.3439551 57.5954434,47.7425316 49.5178016,48.0922184 C45.6491631,48.2597279 40.8749332,48.8156184 37.8271901,51.4929811 C36.3319345,52.8065113 35.4702947,54.6169909 34.9675397,56.5104828 C34.2382966,59.2566851 33.2623737,62.1630629 33.5074724,65.0369108 C33.5530953,65.5725093 33.6316479,66.1122022 33.5583803,66.6447412 C33.4087734,67.7340255 32.6520211,68.6419874 32.3252077,69.6920376 C31.6394644,71.8955324 32.9263907,74.3562981 32.223392,76.5544387 C31.9918898,77.2783336 31.5558074,77.9247053 31.3301323,78.6503549 C30.9855216,79.7597061 31.1579851,80.9582338 31.0060745,82.1095636 C30.9460922,82.5641745 31.3686458,88.6298251 31.0060745,93.260262 C30.896781,94.6560606 30.040616,95.0777459 29.8854323,96.4361842 C29.1799025,102.612212 28.8520087,108.946074 28.6898018,109.553297 C28.3736037,110.737337 25.455533,135.003794 26.0899618,136.053395 C26.4321334,136.619498 26.9561639,137.050983 27.4856151,137.449217 C31.6943021,140.614846 35.5123079,139.943325 40.5940179,140.840849 C42.5815036,141.19193 47.5504623,140.854662 49.5178016,140.840849 C55.2988063,140.80067 69.7694148,138.370092 72.1969127,137.449217 C77.2535527,135.531069 67.6747546,84.3007303 69.2078636,80.8313081 C69.3917102,80.4149864 69.5832811,80.0083833 69.7902102,79.6166279 C70.8581918,77.5956703 71.6714533,76.0421466 72.3371858,74.6016908 C73.5679643,71.9372861 74.2927355,69.6596875 75.1815684,65.528506 C75.9159611,62.1138404 76.6994096,57.5617479 74.9001069,54.3716432 C73.9702135,52.723004 72.4514689,51.4130732 70.6834698,50.7264777 C70.610428,50.697997 70.5370249,50.6707762 70.4631701,50.6446801 Z" id="Fill-14-Copy" fill="#019DF4"></path>
                            <path d="M62.2043999,98.3339555 C62.2043999,98.3339555 48.1335096,62.2220106 59.3207789,60 L71.6905609,94.8066924 C72.2633323,98.1932574 72.0409544,100.190125 71.0234271,100.797296 C64.7410141,104.546085 62.2043999,98.3339555 62.2043999,98.3339555 Z" id="Fill-16-Copy" fill-opacity="0.1" fill="#000000"></path>
                            <path d="M50.1030985,36.1280932 C50.1030985,36.1280932 50.7971373,44.5831878 48.7093458,49.1867792 C46.6215983,53.790416 49.7112499,56.7198216 50.6928731,57.3965014 C52.513625,58.651585 59.4346998,58.0729997 61.1461283,54.48284 C63.1091987,50.3646395 60.9346964,39.7626722 61.9099405,34.8378462 L60.9582328,31 L50.1030985,36.1280932 Z" id="Fill-20-Copy" fill="#F8CCCC"></path>
                            <path d="M56.8077309,47.7309004 C56.3250888,49.3299843 56.2381725,51.0100657 56.1900271,52.6653102 C56.1611399,53.6599846 56.191936,53.4848028 56.1585523,54.4580116 C56.0996749,56.1759886 54.8429307,57.2380046 53,57.9626301 C55.6903327,58.2054522 59.9109265,57.2819601 61.1766211,54.6919999 C62.4570775,52.0717403 61.9119524,46.6609468 61.7162741,42 C61.4333402,42.1285378 61.1412862,42.2806324 60.8581401,42.462941 C59.0418061,43.6321998 57.4630177,45.5586028 56.8077309,47.7309004" id="Fill-22-Copy" fill-opacity="0.1" fill="#000000"></path>
                            <path d="M61.9338722,33.9669131 C61.946263,33.9514787 61.969523,33.9222274 62,33.8812384 L61.3066798,31 L50.5790639,36.2228743 C50.5790639,36.2228743 51.061436,42.2798521 50,47 C51.0996953,46.4616451 52.1133071,40.9039741 56.5305223,38.4524954 C56.5305223,38.4524954 59.773567,36.652634 61.9338722,33.9669131" id="Fill-24-Copy" fill-opacity="0.1" fill="#000000"></path>
                            <path d="M10.189861,77.8733915 C10.3973787,77.8247246 10.5963099,77.7582417 10.780855,77.6672224 C11.5649359,77.281315 12.3590869,76.9659498 13.1827293,76.6522986 C14.9915864,75.9635197 16.7885302,75.2431231 18.5624564,74.4677 C22.1376872,72.9049465 25.6110922,71.1083301 28.8967601,68.9966192 C32.7784572,66.501662 36.1490025,63.299253 39.914308,60.6433206 C41.878309,59.2581855 43.8992694,57.8122957 45.1339911,55.7471318 C46.0192234,54.2663317 46.2271908,52.4789616 45.7514644,50.7974048 C45.5225025,49.988199 44.9306543,49.2274797 44.112137,49.0460726 C43.7180061,48.9587969 43.3074662,49.01017 42.9096489,49.0792238 C40.1796844,49.5536247 37.6621828,50.8269928 35.1912558,52.0844845 C32.2260356,53.5934744 29.2603658,55.1015172 26.2956401,56.6113641 C23.8593294,57.8520771 21.2233233,58.6618693 18.7084292,59.8067369 C18.0054043,60.1268831 17.3016152,60.4449996 16.5983655,60.7642888 C13.2012512,62.3067006 9.80521581,63.8797378 6.60743721,65.8131989 C3.96635108,67.4099607 -0.34885853,69.6033093 0.0224795819,73.2780444 C0.145434756,74.4939955 0.799817027,75.6464406 1.77936741,76.3727908 C2.40870908,76.8395241 3.15057609,77.1287291 3.90013062,77.3542477 C5.26045991,77.7636992 6.67860285,77.9776262 8.09863396,77.992781 C8.75418509,78 9.51722647,78.0310741 10.189861,77.8733915" id="Fill-26-Copy" fill="#019DF4"></path>
                            <path d="M44.1782871,22.5921969 C43.796498,22.9642263 40.3087531,26.4724078 41.1227039,31.0656036 C42.0211993,36.1362094 47.3741424,38.083768 48.5880346,38.4717396 C53.9059891,40.1713387 60.3526105,37.6862492 64.7993889,32.2196557 L70.7236314,28.9252977 C70.7236314,28.9252977 76.9507911,21.3368624 72.2351766,16.4935904 L64.0921738,13 C64.0921738,13 65.6043089,20.46378 63.1073186,25.3969407 C60.6103737,30.3300564 58.1622132,29.9521726 58.1622132,29.9521726 C58.1622132,29.9521726 52.445225,20.7389854 44.1782871,22.5921969" id="Fill-30-Copy" fill="#0B2739"></path>
                            <path d="M60.0214663,35.1087271 C57.0300329,37.0255018 54.4935604,37.3333087 52.5569968,37.0451123 C50.5513802,36.7466328 49.231898,34.8221687 49.5970087,32.8193991 C49.862346,31.364221 49.3890796,29.5746186 46.7417781,28.4641933 C44.5093833,27.5278051 42.5012747,28.1535654 41.0163644,29.0569206 C40.9777147,29.6724434 41.0053993,30.3166311 41.1222094,30.9836143 C42.0193087,36.1065401 47.3639343,38.0743202 48.5759404,38.4663019 C53.885677,40.183423 60.3222363,37.672647 64.7621505,32.149595 L65.9674507,31.4712823 C66.5129418,29.375875 60.0214663,35.1087271 60.0214663,35.1087271 Z" id="Fill-34-Copy" fill-opacity="0.1" fill="#000000"></path>
                            <path d="M67.8885095,57.6745142 C66.8752038,54.647889 57.8135847,55.9045302 59.1304764,59.9938164 C60.4475886,64.082939 69.0737429,61.2144006 67.8885095,57.6745142" id="Fill-48-Copy" fill-opacity="0.3" fill="#000000"></path>
                            <path d="M75.8228006,74.7955796 C74.0055423,71.0190628 70.2952505,62.4879602 68.6467318,58.6651115 L68.6467318,58.6651558 C68.2041391,57.6244833 67.9417152,57 67.9417152,57 C68.5479629,59.6770981 61.1216195,62.196845 59,59.8346266 C59,59.8346266 61.944124,71.1090665 63.0051137,82.6051901 C63.9818687,93.1915677 69.6646593,97.6675857 74.4455703,95.4436093 C74.8418609,95.2744645 75.474432,94.9469489 75.6712499,94.8445309 C81.0602986,92.0408514 79.0054099,81.4099153 75.8228006,74.7955796" id="Fill-50-Copy" fill="#019DF4"></path>
                            <path d="M73,68 C71.3927521,64.5380312 69.6889977,60.7795003 68.7092677,58.6038864 L68.7092677,58.6039291 C68.2639894,57.6015375 68,57 68,57 C68.0193737,57.0818706 68.0305091,57.1635704 68.0339945,57.2449712 C68.2000742,58.4752082 68.9004699,64.0896861 68.4220571,68 L73,68 Z" id="Fill-53-Copy" fill="#FFFFFF" opacity="0.2"></path>
                            <path d="M30.2201461,69.192908 C30.7119416,68.8969492 31.196244,68.591439 31.6744285,68.2780941 C28.7276392,62.3797805 31.6984729,55.6519546 32,55 C30.4323722,55.7378724 28.864697,56.4758329 27.2973063,57.2142334 C27.2206677,57.250326 27.143223,57.284922 27.0662051,57.3203103 L18,71 L30.2201461,69.192908 Z" id="Fill-55-Copy" fill-opacity="0.1" fill="#000000"></path>
                            <path d="M32,50.2528904 C29.7057263,52.8794273 19.9164742,47.1630169 21.9049416,45 C21.9049416,45 19.4577194,47.9354279 16.0927151,51.4888214 C10.9057248,56.9663389 4.57489003,61.6094287 1.17183021,68.53489 C0.610080345,69.6782088 0.121126356,70.8853791 0.0184037855,72.1572725 C-0.207068171,74.9467868 1.663736,77.7468513 4.28316156,78.6591211 C7.89906872,79.9184001 11.133649,77.4663082 13.4688845,74.9380715 C16.4033805,71.7613196 19.1713042,68.4283791 21.8112561,64.998698 C25.2596373,60.5180352 28.5310924,55.8748078 31.5072314,51.0591996 C31.67285,50.7912708 31.8388772,50.5235714 32,50.2528904" id="Fill-57-Copy" fill="#019DF4"></path>
                            <path d="M65.1618173,50.0957032 C65.1618173,50.0957032 72.4155393,45.8261383 74,38.7358744 L71.2336781,32.3990951 C71.2336781,32.3990951 70.5878663,32.0344897 70.6647137,33.5658686 C70.7415611,35.0972927 71.8190311,37.5734484 71.8190311,37.5734484 C71.8190311,37.5734484 71.1363105,38.7392709 70.6951038,39.3578003 C70.6951038,39.3578003 69.8252686,32.953951 69.8260031,30.8735129 C69.826554,29.1526533 68.3912433,30.1760483 68.3883971,32.1932205 C68.3869281,33.2175665 68.3030112,39.51241 68.3030112,39.51241 C68.3030112,39.51241 67.9141836,32.8631959 67.9888734,31.1840456 C68.0586053,29.6168448 66.4706098,31.133279 66.5921701,32.8060891 C66.5921701,32.8060891 65.7688381,32.4990887 65.5578521,35.1823417 L65.1618173,39.3390515 C65.1618173,39.3390515 60.3230952,42.2680316 58.5280158,46.4034113 C56.7329823,50.5387909 60.0904414,60.9092354 60.0904414,60.9092354 C60.0904414,60.9092354 64.0561148,61.6756268 67.1713716,58.7544361 L65.1618173,50.0957032 Z" id="Fill-60-Copy" fill="#F8CCCC"></path>
                            <path d="M21.9276272,46.0700862 C21.5282065,46.5317105 19.181517,49.2253289 16.0603015,52.4254032 C10.849028,57.768626 4.50567652,62.3100134 1,69 L14.421074,69 C15.0353038,59.1424159 19.7212259,50.8399011 21.9391596,47.417168 C21.6645579,46.909622 21.6299142,46.4420928 21.9276272,46.0700862 M22.0276272,46 C22.0276272,46 21.993324,46.0344135 21.9276272,46.1 C21.9589442,46.0661698 21.991716,46.0326636 22.0276272,46" id="Fill-62-Copy" fill-opacity="0.2" fill="#FFFFFF"></path>
                            <path d="M31,68.1660808 C31,68.1660808 40.7001358,55.4023284 33.0787667,70 L31,68.1660808 Z" id="Fill-64-Copy" fill-opacity="0.1" fill="#000000"></path>
                        </g>
                    </g>
                </g>
                <line x1="-6.48439635e-15" y1="190" x2="534" y2="190" id="Path-7-Copy" stroke="#0F2638" stroke-width="2" stroke-linecap="round" stroke-linejoin="round"></line>
            </g>
        </g>
    </g>
</svg>