<?xml version="1.0" encoding="UTF-8"?>
<svg width="22px" height="23px" viewBox="0 0 22 23" version="1.1" xmlns="http://www.w3.org/2000/svg" xmlns:xlink="http://www.w3.org/1999/xlink">
    <!-- Generator: Sketch 64 (93537) - https://sketch.com -->
    <title>Fill 4</title>
    <desc>Created with Sketch.</desc>
    <g id="ATC-ESCRITORIO-curva" stroke="none" stroke-width="1" fill="none" fill-rule="evenodd">
        <g id="FAQs" transform="translate(-266.000000, -428.000000)" fill="#4A90E2">
            <g id="Group-4" transform="translate(240.000000, 400.000000)">
                <g id="Group">
                    <path d="M35.7808615,44.1730037 C35.7808615,43.9404481 35.8646308,43.7377074 36.0313231,43.5698926 C36.1997077,43.4020778 36.3985538,43.3168926 36.6304,43.3168926 C36.8622462,43.3168926 37.0619385,43.4020778 37.2294769,43.5698926 C37.3970154,43.7377074 37.4807846,43.9404481 37.4807846,44.1730037 C37.4807846,44.4055593 37.3970154,44.6065963 37.2294769,44.775263 C37.0619385,44.9439296 36.8622462,45.028263 36.6304,45.028263 C36.3985538,45.028263 36.1997077,44.9439296 36.0313231,44.775263 C35.8646308,44.6065963 35.7808615,44.4055593 35.7808615,44.1730037 L35.7808615,44.1730037 Z M36.6377615,28.851937 C40.0773769,28.8613074 42.7106077,29.7600111 44.5171462,31.5224926 C46.3930692,33.3514185 47.3390692,36.0756407 47.3298296,39.6184926 C47.3204538,43.0974556 46.3947615,45.7824926 44.5789154,47.6003444 C42.7723769,49.4079741 40.1171462,50.3245667 36.6868385,50.3245667 C33.1778385,50.3160481 30.5099154,49.3849741 28.7050692,47.5586037 C26.9010692,45.7322333 25.9906077,43.0412333 25.9998447,39.5631222 C26.0100692,36.0841593 26.9349154,33.3974185 28.7490692,31.5795667 C30.5547615,29.7693815 33.2091462,28.851937 36.6377615,28.851937 Z M36.6876846,30.105863 C33.6102231,30.105863 31.2807615,30.8725296 29.7153769,32.3854185 C28.0856846,33.9596407 27.2547615,36.3754926 27.246235,39.5656778 C27.2378385,42.755863 28.0552231,45.1742704 29.6773,46.7561593 C31.2426846,48.2835296 33.5848385,49.0621222 36.6369154,49.0706407 L36.6369154,49.0706407 L36.6851462,49.367937 L36.6851462,49.0706407 C39.7143769,49.0706407 42.0446846,48.3039741 43.6117615,46.7936407 C45.2431462,45.2194185 46.0757615,42.8052704 46.084288,39.615937 C46.0926846,36.4257519 45.2736077,34.0056407 43.6506846,32.4220481 C42.0827615,30.8938259 39.7397615,30.1143815 36.6876846,30.105863 Z M36.7970923,34.1475593 C37.2201692,34.1475593 37.6153231,34.2114481 37.9842462,34.3383741 C38.3514769,34.4653 38.6721692,34.6467444 38.9437846,34.8861148 C39.2162462,35.1237815 39.4294769,35.4185222 39.5868615,35.7694852 C39.7417077,36.1178926 39.8204,36.5174111 39.8204,36.9629296 C39.8204,37.3488185 39.7645538,37.6861519 39.6537077,37.9749296 C39.5428615,38.2637074 39.3871692,38.5354481 39.1849385,38.7901519 L38.2787077,39.7331519 L38.1272462,39.8694481 C37.9664769,40.0219296 37.8378615,40.1514111 37.7414,40.2578926 C37.6457846,40.3643741 37.5704769,40.4759667 37.5154769,40.5926704 C37.4587846,40.7093741 37.4215538,40.8397074 37.4012462,40.980263 C37.3809385,41.1225222 37.3707846,41.2997074 37.3707846,41.5126704 C37.3707846,41.5126704 37.4393231,42.2231148 36.6803231,42.2231148 C35.8164,42.2094852 35.9204769,41.4777444 35.9204769,41.4777444 C35.9204769,41.2043 35.9407846,40.7519667 35.9805538,40.5696704 C36.0211692,40.3873741 36.0812462,40.2221148 36.1624769,40.0747444 C36.2428615,39.9282259 36.3511692,39.7868185 36.4874,39.6488185 C36.6236308,39.5116704 36.7920154,39.347263 36.9934,39.1547444 C37.1550154,39.0031148 37.3157846,38.8480778 37.4774,38.6904852 C37.6381692,38.5328926 37.7845538,38.3701889 37.9157077,38.2032259 C38.0468615,38.0354111 38.1551692,37.8582259 38.2406308,37.6708185 C38.3260923,37.4825593 38.3692462,37.2721519 38.3692462,37.0395963 C38.3692462,36.8061889 38.3260923,36.5906704 38.2406308,36.391337 C38.1551692,36.1954111 38.0417846,36.0258926 37.9004769,35.8836333 C37.7591692,35.7405222 37.5907846,35.6289296 37.3944769,35.5471519 C37.1981692,35.4662259 36.9883231,35.425337 36.7666308,35.425337 C36.2733231,35.425337 35.8722462,35.5829296 35.5650923,35.897263 C35.2570923,36.2124481 35.1640154,36.2124481 35.1022462,36.7193 L35.0760154,36.8351519 C35.0066308,37.1077444 34.5911692,37.5362259 34.1240923,37.438263 C33.6730923,37.3437074 33.4708615,37.0208556 33.5157077,36.7371889 C33.5597077,36.3794111 33.6519385,35.9534852 34.1486308,35.3290778 C34.2721692,35.1740407 34.4117846,35.0309296 34.5666308,34.9005963 C35.1665538,34.3988556 35.9094769,34.1475593 36.7970923,34.1475593 Z" id="Fill-4"></path>
                </g>
            </g>
        </g>
    </g>
</svg>