<?xml version="1.0" encoding="UTF-8"?>
<svg width="22px" height="30px" viewBox="0 0 22 30" version="1.1" xmlns="http://www.w3.org/2000/svg" xmlns:xlink="http://www.w3.org/1999/xlink">
    <!-- Generator: Sketch 64 (93537) - https://sketch.com -->
    <title>Group 9</title>
    <desc>Created with Sketch.</desc>
    <g id="ATC-ESCRITORIO-curva" stroke="none" stroke-width="1" fill="none" fill-rule="evenodd">
        <g id="T&amp;C" transform="translate(-373.000000, -906.000000)">
            <g id="Group-13" transform="translate(240.000000, 511.000000)">
                <g id="Group-2">
                    <g id="Group-9" transform="translate(133.000000, 395.000000)">
                        <path d="M17.0926531,18.5294118 L4.59620408,18.5294118 C4.29,18.5294118 4.04081633,18.7742647 4.04081633,19.0751471 C4.04081633,19.3760294 4.29,19.6208824 4.59620408,19.6208824 L17.0926531,19.6208824 C17.3988571,19.6208824 17.6480408,19.3760294 17.6480408,19.0751471 C17.6480408,18.7742647 17.3988571,18.5294118 17.0926531,18.5294118" id="Fill-1" fill="#49A0DF"></path>
                        <path d="M17.0926531,14.1176471 L4.59620408,14.1176471 C4.29,14.1176471 4.04081633,14.3625 4.04081633,14.6629412 C4.04081633,14.9642647 4.29,15.2091176 4.59620408,15.2091176 L17.0926531,15.2091176 C17.3988571,15.2091176 17.6480408,14.9642647 17.6480408,14.6629412 C17.6480408,14.3625 17.3988571,14.1176471 17.0926531,14.1176471" id="Fill-3" fill="#49A0DF"></path>
                        <path d="M17.0926531,9.26470588 L4.59620408,9.26470588 C4.29,9.26470588 4.04081633,9.51 4.04081633,9.81044118 C4.04081633,10.1117647 4.29,10.3566176 4.59620408,10.3566176 L17.0926531,10.3566176 C17.3988571,10.3566176 17.6480408,10.1117647 17.6480408,9.81044118 C17.6480408,9.51 17.3988571,9.26470588 17.0926531,9.26470588" id="Fill-5" fill="#49A0DF"></path>
                        <path d="M17.0926531,4.85294118 L4.59620408,4.85294118 C4.29,4.85294118 4.04081633,5.09779412 4.04081633,5.39823529 C4.04081633,5.69955882 4.29,5.94441176 4.59620408,5.94441176 L17.0926531,5.94441176 C17.3988571,5.94441176 17.6480408,5.69955882 17.6480408,5.39823529 C17.6480408,5.09779412 17.3988571,4.85294118 17.0926531,4.85294118" id="Fill-7" fill="#49A0DF"></path>
                        <g id="Group-11">
                            <polygon id="Clip-10" points="0 0.257205882 21.9380408 0.257205882 21.9380408 29.9999559 0 29.9999559"></polygon>
                            <path d="M20.8272653,1.83701471 L20.8272653,28.6353971 C20.8272653,28.7862794 20.702449,28.9084853 20.5493469,28.9084853 L1.38869388,28.9084853 C1.23514286,28.9084853 1.11077551,28.7862794 1.11077551,28.6353971 L1.11077551,1.62172059 C1.11077551,1.47127941 1.23514286,1.34907353 1.38869388,1.34907353 L12.8744898,1.34907353 L20.3841224,1.39848529 C20.6283673,1.40025 20.8272653,1.59701471 20.8272653,1.83701471 M20.7379184,0.262897059 L1.38869388,0.257161765 C0.687836735,0.257161765 0,0.933044118 0,1.62172059 L0,28.6353971 C0,29.3880441 0.623183673,29.9999559 1.38869388,29.9999559 L20.5493469,29.9999559 C21.3148571,29.9999559 21.9380408,29.3880441 21.9380408,28.6353971 L21.9380408,1.44216176 C21.9380408,0.792308824 21.3997143,0.263338235 20.7379184,0.262897059" id="Fill-9" fill="#49A0DF"></path>
                        </g>
                        <path d="M6.77779592,26.5120588 C5.83404082,26.5120588 5.06583673,25.7391176 5.06583673,24.7892647 C5.06583673,23.8394118 5.83404082,23.0664706 6.77779592,23.0664706 C7.722,23.0664706 8.4897551,23.8394118 8.4897551,24.7892647 C8.4897551,25.7391176 7.722,26.5120588 6.77779592,26.5120588 M6.77779592,22.0588235 C5.26877551,22.0588235 4.04081633,23.2839706 4.04081633,24.7892647 C4.04081633,26.295 5.26877551,27.5197059 6.77779592,27.5197059 C8.28726531,27.5197059 9.51522449,26.295 9.51522449,24.7892647 C9.51522449,23.2839706 8.28726531,22.0588235 6.77779592,22.0588235" id="Fill-12" fill="#49A0DF"></path>
                    </g>
                </g>
            </g>
        </g>
    </g>
</svg>