<svg xmlns="http://www.w3.org/2000/svg">
<path d="M60.1702 27.5586H64.1302C66.2702 27.5586 67.0902 27.2786 67.8102 26.5186C68.2702 26.0186 68.6502 25.0386 68.6502 23.7986C68.6502 21.8586 67.7302 20.4386 65.8102 20.2586C67.0902 19.8186 67.7702 18.7586 67.7702 17.1186C67.7702 16.1786 67.4702 15.3186 67.0702 14.8986C66.4102 14.1786 65.4702 13.8786 63.7902 13.8786H60.1702V27.5586ZM61.3702 19.8986V14.9186H63.4302C64.7502 14.9186 65.4902 15.0586 65.9302 15.4786C66.3502 15.8586 66.5902 16.4386 66.5902 17.3586C66.5902 18.9586 65.7702 19.8986 63.4902 19.8986H61.3702ZM61.3702 26.5186V20.9186H63.7702C65.4302 20.9186 66.0902 21.0786 66.6502 21.6186C67.1702 22.1386 67.4302 22.8786 67.4302 23.8586C67.4302 24.7386 67.2102 25.4186 66.7302 25.8586C66.1502 26.3986 65.4102 26.5186 63.5902 26.5186H61.3702ZM71.3755 27.5586H72.5355V13.2586H71.3755V27.5586ZM79.2747 27.8386C82.1947 27.8386 83.4947 25.9586 83.4947 22.6586C83.4947 19.3586 82.1947 17.4786 79.2747 17.4786C76.3547 17.4786 75.0547 19.3586 75.0547 22.6586C75.0547 25.9586 76.3547 27.8386 79.2747 27.8386ZM79.2747 26.8386C77.0347 26.8386 76.2547 25.3586 76.2547 22.6586C76.2547 19.9586 77.0347 18.4786 79.2747 18.4786C81.5147 18.4786 82.2947 19.9586 82.2947 22.6586C82.2947 25.3586 81.5147 26.8386 79.2747 26.8386ZM89.4839 32.3386C91.2839 32.3386 92.4239 31.9986 93.1239 31.3386C93.6639 30.8186 93.9239 30.0786 93.9239 29.2386C93.9239 28.4186 93.6439 27.8186 93.2639 27.4386C92.6839 26.8386 91.7839 26.5386 90.2039 26.5386H88.2439C87.6639 26.5386 87.3639 26.4986 87.2039 26.3186C87.1039 26.1986 87.0639 26.0586 87.0639 25.8586C87.0639 25.4586 87.2639 24.8786 87.7439 24.3586C88.2239 24.5386 88.8039 24.6386 89.4639 24.6386C91.8039 24.6386 93.2039 23.3186 93.2039 21.0586C93.2039 19.5786 92.6039 18.5186 91.5239 17.9386L92.8639 15.5186C92.6439 15.3386 92.2239 15.1386 91.9039 15.0586L90.6439 17.6186C90.2839 17.5186 89.8839 17.4786 89.4639 17.4786C87.1239 17.4786 85.7239 18.7986 85.7239 21.0586C85.7239 22.3586 86.1839 23.3386 87.0039 23.9586C86.3439 24.5586 85.9639 25.4586 85.9639 26.1386C85.9639 26.5786 86.1039 26.9786 86.4439 27.2586C85.7239 27.8586 85.3039 28.7386 85.3039 29.5986C85.3039 31.3386 86.6439 32.3386 89.4839 32.3386ZM89.4639 23.6386C87.6639 23.6386 86.8439 22.7186 86.8439 21.0586C86.8439 19.3986 87.6639 18.4786 89.4639 18.4786C91.2639 18.4786 92.0839 19.3986 92.0839 21.0586C92.0839 22.7186 91.2639 23.6386 89.4639 23.6386ZM89.5639 31.3186C87.2439 31.3186 86.4239 30.5986 86.4239 29.3986C86.4239 28.7786 86.6839 28.1186 87.2639 27.5986C87.5039 27.6186 87.7839 27.6386 88.1839 27.6386H90.3039C92.1839 27.6386 92.8039 28.1186 92.8039 29.3786C92.8039 30.6386 91.9839 31.3186 89.5639 31.3186Z" fill="#019DF4"/>
<path fill-rule="evenodd" clip-rule="evenodd" d="M10.2383 5.00662C7.81576 5.04465 3.34485 6.23362 1.30227 14.5342C0.412557 18.1513 0.0686416 21.9213 0.830015 26.4088C1.53227 30.5476 2.77671 34.1203 3.61523 36.0885C3.90435 36.7673 4.35209 37.4748 4.69817 37.9096C5.69314 39.1617 7.35 39.0821 8.04576 38.7405C8.80497 38.3688 9.67738 37.4712 9.36158 35.4219C9.20873 34.4317 8.76892 32.983 8.52162 32.1779C7.76097 29.7066 6.74941 26.7253 6.66144 24.602C6.5432 21.7606 7.66868 21.3896 8.41635 21.2253C9.67305 20.9505 10.7271 22.3238 11.7279 24.0452C12.9226 26.0996 14.9702 29.7404 16.64 32.5201C18.1484 35.0308 20.9307 37.718 25.3995 37.5336C29.9554 37.3456 33.3131 35.6156 35.0428 30.1702C36.337 26.0952 37.2195 23.0507 38.6399 19.933C40.2722 16.3474 42.4503 14.4287 44.2838 15.0142C45.9868 15.5588 46.4115 17.2149 46.4324 19.6495C46.4504 21.8036 46.2002 24.178 46.0056 25.9223C45.9349 26.5552 45.8066 27.8281 45.8592 28.5356C45.9616 29.9255 46.5665 31.3132 48.139 31.5357C49.8146 31.7717 51.1585 30.44 51.695 28.8298C51.9062 28.1941 52.0872 27.2232 52.1845 26.5337C52.677 23.0536 52.8053 20.7144 52.5825 17.1532C52.3229 12.9893 51.5046 9.19206 50.0756 5.90642C48.7093 2.76358 46.5139 0.74943 43.6991 0.571479C40.5829 0.374872 37.0068 2.43279 35.1308 6.42449C33.4018 10.1041 32.0182 13.8819 31.179 15.81C30.3282 17.7653 29.0773 18.97 27.1544 19.1717C24.8032 19.4178 22.7772 17.7194 21.2934 15.2969C19.9992 13.1852 17.4353 9.16551 16.064 7.81509C14.7748 6.54647 13.3026 4.95855 10.2383 5.00662Z" fill="#019DF4"/>
</svg>