<svg width="48" height="41" viewBox="0 0 48 41" fill="none" xmlns="http://www.w3.org/2000/svg">
<path fill-rule="evenodd" clip-rule="evenodd" d="M36.0114 29.4282L34.6678 33.4183C34.6487 33.4752 34.6434 33.5358 34.6524 33.5952C34.6614 33.6545 34.6844 33.7109 34.7195 33.7596C34.7547 33.8083 34.8009 33.848 34.8545 33.8754C34.908 33.9028 34.9673 33.917 35.0275 33.917C35.0684 33.917 35.109 33.9103 35.1478 33.8974L39.1564 32.5768C39.2052 32.5608 39.2503 32.535 39.2888 32.5011C39.3077 32.4844 39.3528 32.4446 39.4207 32.3846C40.4622 31.4653 46.8896 25.7917 47.317 25.3722C47.7613 24.9333 48 24.3918 48 23.8068C47.9994 23.2239 47.7777 22.6628 47.3793 22.2361C46.9809 21.8095 46.4355 21.549 45.8525 21.507C45.3998 21.4737 44.7313 21.5634 44.1155 22.1775C43.7671 22.5252 38.733 26.9653 36.1199 29.2647C36.0699 29.3088 36.0325 29.3652 36.0114 29.4282ZM37.1964 30.0905L36.54 32.0398L38.5501 31.3776C39.0565 30.9307 40.7013 29.4787 42.3603 28.0101C43.3157 27.1642 44.2749 26.3137 45.0232 25.6471C45.3975 25.3137 45.7178 25.0274 45.9581 24.8111C46.0783 24.7029 46.1771 24.6135 46.2518 24.5452C46.2892 24.511 46.3192 24.4833 46.3423 24.4619C46.3537 24.4512 46.3627 24.4428 46.3695 24.4364C46.3737 24.4323 46.3764 24.4297 46.3779 24.4283C46.3781 24.4282 46.3782 24.428 46.3783 24.4279C46.5905 24.2173 46.6646 24.008 46.6648 23.8078C46.6645 23.5592 46.5698 23.3207 46.4009 23.1398C46.2321 22.9589 46.0015 22.8491 45.7559 22.8314L45.7549 22.8314L45.754 22.8313C45.662 22.8245 45.5571 22.831 45.4495 22.865C45.349 22.8968 45.2148 22.9618 45.0614 23.1147L45.0612 23.1148C45.0611 23.115 45.061 23.1151 45.0609 23.1152C44.6787 23.4963 39.8255 27.7765 37.1964 30.0905ZM38.7361 31.3164L38.7366 31.3162L38.7373 31.316C38.7369 31.3161 38.7365 31.3162 38.7361 31.3164Z" fill="#86888C"/>
<path fill-rule="evenodd" clip-rule="evenodd" d="M10.3857 1.4647L10.3882 1.46636L19.1611 7.264L20.66 8.68657H20.6287V38.831L9.58499 31.5994L9.57947 31.596C8.2201 30.7432 7.56153 30.1479 7.19108 29.3599C6.80548 28.5396 6.68647 27.4199 6.68647 25.3852V8.72429H5.35128V25.3852C5.35128 27.4005 5.45477 28.8016 5.98154 29.9222C6.52273 31.0735 7.46458 31.8388 8.86156 32.7156L20.6287 40.4209V40.623H6.67594C5.05421 40.623 3.37543 40.379 2.09372 39.444C0.76907 38.4777 -2.54667e-07 36.8752 0 34.4644L1.719e-06 14.8129C1.97367e-06 11.9368 1.09574 10.3345 2.49541 9.50056C3.48141 8.91312 4.55256 8.74989 5.30738 8.70434V3.99495C5.21977 2.66399 5.6913 1.48273 6.72621 0.927571C7.76246 0.371694 9.08844 0.591975 10.3857 1.4647ZM21.9638 40.623H36.4811C37.0944 40.6231 38.6349 40.6234 40.0338 39.8598C40.7543 39.4666 41.4379 38.8713 41.9365 37.9834C42.4333 37.0987 42.726 35.9602 42.726 34.5086V27.7763L38.8402 31.3774L36.5048 32.138L37.3876 29.6892L42.726 25.0562V14.8997C42.726 12.4937 41.958 10.8941 40.6351 9.92961C39.3552 8.99646 37.6789 8.75296 36.0598 8.75296H21.9638V40.623ZM25.3686 16.0565C25.3686 15.6898 25.6675 15.3926 26.0362 15.3926H36.6843C37.053 15.3926 37.3519 15.6898 37.3519 16.0565C37.3519 16.4232 37.053 16.7205 36.6843 16.7205H26.0362C25.6675 16.7205 25.3686 16.4232 25.3686 16.0565ZM26.0362 23.4265C25.6675 23.4265 25.3686 23.7237 25.3686 24.0904C25.3686 24.4571 25.6675 24.7544 26.0362 24.7544H36.6843C37.053 24.7544 37.3519 24.4571 37.3519 24.0904C37.3519 23.7237 37.053 23.4265 36.6843 23.4265H26.0362ZM25.3018 32.1243C25.3018 31.7577 25.6007 31.4604 25.9694 31.4604H32.6787C33.0474 31.4604 33.3463 31.7577 33.3463 32.1243C33.3463 32.491 33.0474 32.7883 32.6787 32.7883H25.9694C25.6007 32.7883 25.3018 32.491 25.3018 32.1243ZM10.9727 8.85645C10.6614 8.65985 10.2489 8.75141 10.0512 9.06095C9.85353 9.37049 9.94559 9.78079 10.2568 9.97739L17.6671 14.6583C17.9783 14.8549 18.3909 14.7634 18.5886 14.4538C18.7862 14.1443 18.6942 13.734 18.383 13.5374L10.9727 8.85645ZM9.92378 24.3227C10.1266 24.0165 10.5407 23.9318 10.8486 24.1336L16.6232 27.9182C16.9311 28.1199 17.0162 28.5317 16.8134 28.8379C16.6105 29.1441 16.1964 29.2288 15.8886 29.027L10.1139 25.2424C9.80602 25.0406 9.7209 24.6289 9.92378 24.3227ZM10.9727 16.0936C10.6614 15.897 10.2489 15.9886 10.0512 16.2981C9.85353 16.6076 9.94559 17.018 10.2568 17.2146L17.6671 21.8955C17.9783 22.0921 18.3909 22.0005 18.5886 21.691C18.7862 21.3814 18.6942 20.9711 18.383 20.7745L10.9727 16.0936Z" fill="#86888C"/>
</svg>
