<svg width="20" height="21" viewBox="0 0 20 21" fill="none" xmlns="http://www.w3.org/2000/svg">
<path d="M10 20.623C15.5228 20.623 20 16.1459 20 10.623C20 5.1002 15.5228 0.623047 10 0.623047C4.47715 0.623047 0 5.1002 0 10.623C0 16.1459 4.47715 20.623 10 20.623Z" fill="#86888C"/>
<path d="M16.1255 7.80986C15.697 7.99989 15.236 8.12841 14.7526 8.18581C15.2462 7.89008 15.625 7.42215 15.8038 6.86366C15.3419 7.13764 14.8301 7.3364 14.2859 7.44354C13.8499 6.97917 13.2286 6.68896 12.5407 6.68896C11.2209 6.68896 10.1505 7.75941 10.1505 9.07925C10.1505 9.2666 10.1717 9.44896 10.2127 9.62401C8.22615 9.52436 6.46476 8.57281 5.28576 7.12624C5.08004 7.47919 4.96204 7.89008 4.96204 8.32806C4.96204 9.15715 5.38433 9.88908 6.02535 10.3176C5.63372 10.3053 5.2649 10.1978 4.94278 10.0183C4.94261 10.0285 4.94261 10.0386 4.94261 10.0486C4.94261 11.2068 5.76688 12.1728 6.86014 12.3922C6.65978 12.4471 6.44819 12.4762 6.23053 12.4762C6.07616 12.4762 5.9266 12.4614 5.78078 12.4336C6.08489 13.383 6.96746 14.0741 8.01366 14.0935C7.19545 14.7347 6.16493 15.1167 5.04475 15.1167C4.85223 15.1167 4.66149 15.1055 4.47485 15.0832C5.53211 15.7617 6.78884 16.1572 8.13862 16.1572C12.5352 16.1572 14.9396 12.515 14.9396 9.35608C14.9396 9.25251 14.9373 9.1493 14.9326 9.04698C15.4 8.71007 15.8052 8.2892 16.1255 7.80986Z" fill="#F1F2F2"/>
</svg>
