<svg width="20" height="21" viewBox="0 0 20 21" fill="none" xmlns="http://www.w3.org/2000/svg">
<path d="M8.75439 12.4965L12.0073 10.623L8.75439 8.74951V12.4965Z" fill="#86888C"/>
<path d="M10 0.623047C4.478 0.623047 0 5.10104 0 10.623C0 16.1451 4.478 20.623 10 20.623C15.522 20.623 20 16.1451 20 10.623C20 5.10104 15.522 0.623047 10 0.623047ZM16.2485 10.6333C16.2485 10.6333 16.2485 12.6613 15.9912 13.6393C15.847 14.1745 15.425 14.5966 14.8897 14.7406C13.9117 14.998 10 14.998 10 14.998C10 14.998 6.09848 14.998 5.11032 14.7304C4.57504 14.5864 4.15298 14.1642 4.00879 13.6289C3.75137 12.6613 3.75137 10.623 3.75137 10.623C3.75137 10.623 3.75137 8.59515 4.00879 7.61722C4.15283 7.08194 4.58527 6.64951 5.11032 6.50546C6.08826 6.24805 10 6.24805 10 6.24805C10 6.24805 13.9117 6.24805 14.8897 6.51569C15.425 6.65973 15.847 7.08194 15.9912 7.61722C16.2589 8.59515 16.2485 10.6333 16.2485 10.6333V10.6333Z" fill="#86888C"/>
</svg>
