<?xml version="1.0" encoding="utf-8"?>
<!-- Generator: Adobe Illustrator 24.1.0, SVG Export Plug-In . SVG Version: 6.00 Build 0)  -->
<svg version="1.1" id="Capa_1" xmlns="http://www.w3.org/2000/svg" xmlns:xlink="http://www.w3.org/1999/xlink" x="0px" y="0px"
	 viewBox="0 0 258 33" style="enable-background:new 0 0 258 33;" xml:space="preserve">
<style type="text/css">
	.st0{enable-background:new    ;}
	.st1{fill:#019DF4;}
	.st2{fill-rule:evenodd;clip-rule:evenodd;fill:#019DF4;}
</style>
<desc>Created with Sketch.</desc>
<g id="ATC-ESCRITORIO-curva">
	<g id="Group-3">
		<g class="st0">
			<path class="st1" d="M69.1,17.2c0-2.5,0.6-4.4,1.8-5.7c1-1,2.4-1.5,4.1-1.5c1.2,0,2.3,0.2,3.2,0.5L78,11.9
				c-0.9-0.2-1.9-0.4-2.7-0.4c-1.4,0-2.4,0.4-3.1,1.1c-0.8,0.9-1.2,2.4-1.2,4.5c0,2.1,0.4,3.6,1.3,4.5c0.7,0.8,1.8,1.1,3.4,1.1
				c0.6,0,1.6-0.1,2.4-0.3l0.2,1.4c-0.8,0.2-2.1,0.4-3,0.4C71.1,24.3,69.1,21.9,69.1,17.2z"/>
			<path class="st1" d="M80.2,23.1c-0.9-0.9-1.3-2.2-1.3-4c0-3.5,1.7-5.2,4.2-5.2c2.7,0,4.1,1.9,4.1,5.2v0.4c0,0.2-0.1,0.2-0.2,0.2
				h-6.3c0,1.1,0.3,2,0.9,2.5c0.5,0.5,1.3,0.7,2.5,0.7c0.7,0,1.7-0.1,2.4-0.3l0.2,1.2c-0.8,0.2-2,0.4-2.9,0.4
				C82.1,24.3,81,23.9,80.2,23.1z M85.5,18.5c-0.1-1.9-0.8-3.2-2.4-3.2c-1.7,0-2.5,1.2-2.5,3.2H85.5z"/>
			<path class="st1" d="M89,14.2h1.4l0.1,0.7c1-0.6,2.2-1,3.4-1c1.1,0,1.9,0.3,2.5,0.9c0.5,0.5,0.8,1.3,0.8,2.6V24h-1.7v-6.5
				c0-0.8-0.1-1.3-0.5-1.7c-0.3-0.3-0.9-0.5-1.6-0.5c-0.9,0-1.9,0.3-2.7,0.6v8H89V14.2z"/>
			<path class="st1" d="M100.6,23.5c-0.5-0.6-0.6-1.2-0.6-2.4v-5.7h-1.8v-0.9l1.8-0.3v-2.3c0.5-0.2,1.1-0.3,1.7-0.3v2.6h2.6v1.2
				h-2.6v5.4c0,0.9,0.1,1.4,0.3,1.7c0.2,0.2,0.6,0.4,1.3,0.4c0.3,0,1-0.1,1.5-0.2l0.1,1.2c-0.5,0.1-1.3,0.3-2,0.3
				C101.8,24.3,101.1,24,100.6,23.5z"/>
			<path class="st1" d="M106.2,14.2h1.4l0.1,0.8c0.9-0.8,1.9-1.1,2.8-1.1c0.2,0,0.4,0,0.6,0.1v1.5c-0.2,0-0.6,0-0.9,0
				c-0.9,0-1.7,0.2-2.4,0.7V24h-1.7V14.2z"/>
			<path class="st1" d="M111.4,19.1c0-3.3,1.4-5.2,4.5-5.2c3,0,4.5,1.9,4.5,5.2c0,3.3-1.4,5.2-4.5,5.2
				C112.9,24.3,111.4,22.4,111.4,19.1z M118.6,19.1c0-2.5-0.7-3.8-2.7-3.8s-2.7,1.3-2.7,3.8c0,2.5,0.7,3.8,2.7,3.8
				S118.6,21.6,118.6,19.1z"/>
			<path class="st1" d="M125.2,19.2c0-3.2,1.5-5.2,4.1-5.2c0.8,0,1.8,0.3,2.6,0.7V9.7h1.7V24h-1.4l-0.1-0.6c-0.8,0.5-2,0.9-2.9,0.9
				C126.6,24.3,125.2,22.6,125.2,19.2z M131.9,22.3v-6.5c-0.7-0.3-1.6-0.5-2.3-0.5c-2,0-2.7,1.6-2.7,3.9c0,2.6,0.9,3.7,2.7,3.7
				C130.3,22.9,131.2,22.7,131.9,22.3z"/>
			<path class="st1" d="M136.6,23.1c-0.9-0.9-1.3-2.2-1.3-4c0-3.5,1.7-5.2,4.2-5.2c2.7,0,4.1,1.9,4.1,5.2v0.4c0,0.2-0.1,0.2-0.2,0.2
				H137c0,1.1,0.3,2,0.9,2.5c0.5,0.5,1.3,0.7,2.5,0.7c0.7,0,1.7-0.1,2.4-0.3l0.2,1.2c-0.8,0.2-2,0.4-2.9,0.4
				C138.6,24.3,137.4,23.9,136.6,23.1z M142,18.5c-0.1-1.9-0.8-3.2-2.4-3.2c-1.7,0-2.5,1.2-2.5,3.2H142z"/>
			<path class="st1" d="M152.4,11.7h-4.4v-1.4h10.6l-0.2,1.4h-4.3V24h-1.8V11.7z"/>
			<path class="st1" d="M158.1,14.2h1.4l0.1,0.8c0.9-0.8,1.9-1.1,2.8-1.1c0.2,0,0.4,0,0.6,0.1v1.5c-0.2,0-0.6,0-0.9,0
				c-0.9,0-1.7,0.2-2.4,0.7V24h-1.7V14.2z"/>
			<path class="st1" d="M164.1,23.3c-0.5-0.5-0.8-1.2-0.8-2.1c0-0.9,0.3-1.6,0.8-2.1c0.7-0.7,1.9-0.9,3.3-0.9h2v-0.6
				c0-0.8-0.1-1.3-0.5-1.7c-0.4-0.4-1.1-0.6-2-0.6c-0.7,0-1.7,0.1-2.6,0.2l-0.1-1.3c0.9-0.2,2-0.3,3-0.3c1.5,0,2.4,0.3,3.1,0.9
				c0.6,0.6,0.9,1.4,0.9,2.7V24h-1.3l-0.1-0.7c-0.9,0.6-1.9,0.9-3.1,0.9C165.6,24.3,164.7,24,164.1,23.3z M169.5,22.3v-2.9h-1.8
				c-1,0-1.7,0.1-2.2,0.5c-0.3,0.3-0.5,0.7-0.5,1.3c0,1.2,0.7,1.8,2,1.8C167.8,22.9,168.8,22.7,169.5,22.3z"/>
			<path class="st1" d="M173.4,14.2h1.4l0.1,0.7c1-0.6,2.2-1,3.4-1c1.1,0,1.9,0.3,2.5,0.9c0.5,0.5,0.8,1.3,0.8,2.6V24h-1.7v-6.5
				c0-0.8-0.1-1.3-0.5-1.7c-0.3-0.3-0.9-0.5-1.6-0.5c-0.9,0-1.9,0.3-2.7,0.6v8h-1.7V14.2z"/>
			<path class="st1" d="M183.5,23.9l0.1-1.3c0.8,0.2,1.9,0.4,2.7,0.4c1.6,0,2.5-0.5,2.5-1.5c0-2.2-5.5-1.1-5.5-4.7
				c0-1.9,1.5-2.8,3.6-2.8c1,0,2.1,0.2,2.9,0.4l-0.1,1.2c-0.9-0.2-1.8-0.3-2.6-0.3c-1.4,0-2.1,0.5-2.1,1.4c0,2.2,5.5,1.2,5.5,4.7
				c0,2.1-1.6,3-4,3C185.4,24.3,184.2,24.1,183.5,23.9z"/>
			<path class="st1" d="M192.2,14.2h1.4l0.1,0.7c1-0.7,2.2-1,3.1-1c2.5,0,3.8,2,3.8,5.1c0,3.7-1.5,5.2-3.8,5.2c-1,0-2.1-0.3-2.8-0.7
				v5h-1.7V14.2z M198.7,19c0-2.5-0.7-3.7-2.4-3.7c-0.8,0-1.7,0.3-2.5,0.7v6.3c0.6,0.3,1.5,0.6,2.4,0.6
				C198,22.9,198.7,21.8,198.7,19z"/>
			<path class="st1" d="M202.5,23.3c-0.5-0.5-0.8-1.2-0.8-2.1c0-0.9,0.3-1.6,0.8-2.1c0.7-0.7,1.9-0.9,3.3-0.9h2v-0.6
				c0-0.8-0.1-1.3-0.5-1.7c-0.4-0.4-1.1-0.6-2-0.6c-0.7,0-1.7,0.1-2.6,0.2l-0.1-1.3c0.9-0.2,2-0.3,3-0.3c1.5,0,2.4,0.3,3.1,0.9
				c0.6,0.6,0.9,1.4,0.9,2.7V24h-1.3l-0.1-0.7c-0.9,0.6-1.9,0.9-3.1,0.9C204,24.3,203.1,24,202.5,23.3z M207.9,22.3v-2.9h-1.8
				c-1,0-1.7,0.1-2.2,0.5c-0.3,0.3-0.5,0.7-0.5,1.3c0,1.2,0.7,1.8,2,1.8C206.2,22.9,207.2,22.7,207.9,22.3z"/>
			<path class="st1" d="M211.8,14.2h1.4l0.1,0.8c0.9-0.8,1.9-1.1,2.8-1.1c0.2,0,0.4,0,0.6,0.1v1.5c-0.2,0-0.6,0-0.9,0
				c-0.9,0-1.7,0.2-2.4,0.7V24h-1.7V14.2z"/>
			<path class="st1" d="M218.4,23.1c-0.9-0.9-1.3-2.2-1.3-4c0-3.5,1.7-5.2,4.2-5.2c2.7,0,4.1,1.9,4.1,5.2v0.4c0,0.2-0.1,0.2-0.2,0.2
				h-6.3c0,1.1,0.3,2,0.9,2.5c0.5,0.5,1.3,0.7,2.5,0.7c0.7,0,1.7-0.1,2.4-0.3l0.2,1.2c-0.8,0.2-2,0.4-2.9,0.4
				C220.3,24.3,219.2,23.9,218.4,23.1z M223.7,18.5c-0.1-1.9-0.8-3.2-2.4-3.2c-1.7,0-2.5,1.2-2.5,3.2H223.7z"/>
			<path class="st1" d="M227.2,14.2h1.4l0.1,0.7c1-0.6,2.2-1,3.4-1c1.1,0,1.9,0.3,2.5,0.9c0.5,0.5,0.8,1.3,0.8,2.6V24h-1.7v-6.5
				c0-0.8-0.1-1.3-0.5-1.7c-0.3-0.3-0.9-0.5-1.6-0.5c-0.9,0-1.9,0.3-2.7,0.6v8h-1.7V14.2z"/>
			<path class="st1" d="M238.4,23.1c-0.8-0.8-1.3-2.1-1.3-3.8c0-1.7,0.4-3.1,1.3-4c0.8-0.9,2.1-1.3,3.6-1.3c0.8,0,1.7,0.1,2.3,0.3
				l-0.1,1.3c-0.6-0.1-1.4-0.2-2-0.2c-2.3,0-3.3,1.3-3.3,3.9c0,1.2,0.3,2.2,0.8,2.8c0.6,0.6,1.4,0.9,2.6,0.9c0.7,0,1.5-0.1,2-0.2
				l0.1,1.2c-0.6,0.2-1.7,0.3-2.5,0.3C240.3,24.3,239.2,23.9,238.4,23.1z"/>
			<path class="st1" d="M245.9,11.3L245.9,11.3c0-0.8,0.4-1.1,1-1.1h0.1c0.6,0,1,0.3,1,1.1v0c0,0.8-0.4,1.1-1,1.1h-0.1
				C246.3,12.3,245.9,12,245.9,11.3z M246.1,14.2h1.7V24h-1.7V14.2z"/>
			<path class="st1" d="M250.4,23.3c-0.5-0.5-0.8-1.2-0.8-2.1c0-0.9,0.3-1.6,0.8-2.1c0.7-0.7,1.9-0.9,3.3-0.9h2v-0.6
				c0-0.8-0.1-1.3-0.5-1.7c-0.4-0.4-1.1-0.6-2-0.6c-0.7,0-1.7,0.1-2.6,0.2l-0.1-1.3c0.9-0.2,2-0.3,3-0.3c1.5,0,2.4,0.3,3.1,0.9
				c0.6,0.6,0.9,1.4,0.9,2.7V24h-1.3l-0.1-0.7c-0.9,0.6-1.9,0.9-3.1,0.9C251.9,24.3,251,24,250.4,23.3z M255.8,22.3v-2.9H254
				c-1,0-1.7,0.1-2.2,0.5c-0.3,0.3-0.5,0.7-0.5,1.3c0,1.2,0.7,1.8,2,1.8C254.1,22.9,255.1,22.7,255.8,22.3z"/>
		</g>
		<g id="Group">
			<path id="Fill-1" class="st2" d="M8.5,3.8c-2.1,0-5.9,1.1-7.7,8.2C0,15.1-0.3,18.4,0.4,22.2C1,25.8,2,28.8,2.8,30.5
				c0.2,0.6,0.6,1.2,0.9,1.6c0.9,1.1,2.3,1,2.9,0.7C7.2,32.5,8,31.7,7.7,30c-0.1-0.9-0.5-2.1-0.7-2.8c-0.7-2.1-1.5-4.7-1.6-6.5
				c-0.1-2.4,0.9-2.8,1.5-2.9c1.1-0.2,2,0.9,2.9,2.4c1,1.8,2.8,4.9,4.2,7.3c1.3,2.2,3.7,4.5,7.5,4.3c3.9-0.2,6.8-1.6,8.3-6.3
				c1.1-3.5,1.9-6.1,3.1-8.8c1.4-3.1,3.3-4.7,4.9-4.2c1.5,0.5,1.8,1.9,1.8,4c0,1.9-0.2,3.9-0.4,5.4c-0.1,0.5-0.2,1.6-0.1,2.2
				c0.1,1.2,0.6,2.4,2,2.6c1.4,0.2,2.6-0.9,3.1-2.3c0.2-0.5,0.3-1.4,0.4-2c0.4-3,0.5-5,0.3-8.1c-0.2-3.6-0.9-6.8-2.2-9.7
				c-1.2-2.7-3.1-4.4-5.5-4.6c-2.7-0.2-5.8,1.6-7.4,5c-1.5,3.2-2.7,6.4-3.4,8.1c-0.7,1.7-1.8,2.7-3.5,2.9c-2,0.2-3.8-1.2-5-3.3
				c-1.1-1.8-3.3-5.3-4.5-6.4C12.4,5.1,11.1,3.8,8.5,3.8"/>
		</g>
	</g>
</g>
</svg>