<?xml version="1.0" encoding="UTF-8"?>
<svg xmlns="http://www.w3.org/2000/svg" xmlns:xlink="http://www.w3.org/1999/xlink" width="161pt" height="39pt" viewBox="0 0 161 39" version="1.1">
<g id="surface1">
<path style=" stroke:none;fill-rule:evenodd;fill:rgb(0%,40%,100%);fill-opacity:1;" d="M 5.746094 11.523438 C 8.917969 11.523438 11.488281 8.941406 11.488281 5.757812 C 11.488281 2.582031 8.917969 0 5.746094 0 C 2.570312 0 0 2.582031 0 5.757812 C 0 8.941406 2.570312 11.523438 5.746094 11.523438 Z M 19.246094 11.523438 C 22.417969 11.523438 24.992188 8.941406 24.992188 5.757812 C 24.992188 2.582031 22.417969 0 19.246094 0 C 16.070312 0 13.5 2.582031 13.5 5.757812 C 13.5 8.941406 16.070312 11.523438 19.246094 11.523438 Z M 38.492188 5.757812 C 38.492188 8.941406 35.921875 11.523438 32.75 11.523438 C 29.574219 11.523438 27.003906 8.941406 27.003906 5.757812 C 27.003906 2.582031 29.574219 0 32.75 0 C 35.921875 0 38.492188 2.582031 38.492188 5.757812 Z M 19.246094 25.0625 C 22.417969 25.0625 24.992188 22.480469 24.992188 19.304688 C 24.992188 16.121094 22.417969 13.539062 19.246094 13.539062 C 16.070312 13.539062 13.5 16.121094 13.5 19.304688 C 13.5 22.480469 16.070312 25.0625 19.246094 25.0625 Z M 24.992188 32.84375 C 24.992188 36.023438 22.417969 38.601562 19.246094 38.601562 C 16.070312 38.601562 13.5 36.023438 13.5 32.84375 C 13.5 29.660156 16.070312 27.078125 19.246094 27.078125 C 22.417969 27.078125 24.992188 29.660156 24.992188 32.84375 Z M 50.742188 14.8125 L 45.386719 14.8125 L 45.386719 11.617188 L 59.410156 11.617188 L 59.410156 14.8125 L 54.058594 14.8125 L 54.058594 29.511719 L 50.742188 29.511719 Z M 64.609375 29.769531 C 68.71875 29.769531 70.320312 26.699219 70.605469 25.675781 L 67.289062 25.675781 C 67.035156 26.214844 66.121094 27.082031 64.609375 27.082031 C 62.800781 27.082031 61.449219 25.832031 61.171875 24.011719 L 70.855469 24.011719 L 70.910156 23.65625 C 70.914062 23.609375 70.921875 23.558594 70.925781 23.503906 C 70.953125 23.292969 70.988281 23.042969 70.988281 22.734375 C 70.988281 19.03125 68.183594 16.21875 64.609375 16.21875 C 60.792969 16.21875 57.984375 19.027344 57.984375 22.996094 C 57.984375 26.957031 60.792969 29.769531 64.609375 29.769531 Z M 64.609375 18.902344 C 66.421875 18.902344 67.519531 20.179688 67.796875 21.839844 L 61.171875 21.839844 C 61.554688 20.179688 62.671875 18.902344 64.609375 18.902344 Z M 72.902344 11.617188 L 76.085938 11.617188 L 76.085938 29.511719 L 72.902344 29.511719 Z M 84.625 29.769531 C 88.726562 29.769531 90.335938 26.699219 90.617188 25.675781 L 87.304688 25.675781 C 87.046875 26.214844 86.128906 27.082031 84.625 27.082031 C 82.816406 27.082031 81.464844 25.832031 81.183594 24.011719 L 90.871094 24.011719 L 90.921875 23.65625 C 90.929688 23.609375 90.9375 23.558594 90.941406 23.503906 C 90.964844 23.292969 90.996094 23.042969 90.996094 22.734375 C 90.996094 19.03125 88.195312 16.21875 84.625 16.21875 C 80.796875 16.21875 77.996094 19.027344 77.996094 22.996094 C 77.996094 26.957031 80.796875 29.769531 84.625 29.769531 Z M 84.625 18.902344 C 86.4375 18.902344 87.53125 20.179688 87.8125 21.839844 L 81.179688 21.839844 C 81.5625 20.179688 82.6875 18.902344 84.625 18.902344 Z M 93.925781 19.539062 L 91.761719 19.539062 L 91.761719 16.472656 L 93.925781 16.472656 L 93.925781 14.558594 C 93.925781 12.609375 95.175781 11.359375 97.117188 11.359375 L 99.921875 11.359375 L 99.921875 14.171875 L 98.011719 14.171875 C 97.5 14.171875 97.117188 14.558594 97.117188 15.066406 L 97.117188 16.46875 L 99.921875 16.46875 L 99.921875 19.539062 L 97.117188 19.539062 L 97.117188 29.511719 L 93.925781 29.511719 Z M 107.027344 29.769531 C 110.851562 29.769531 113.660156 26.957031 113.660156 22.996094 C 113.660156 19.03125 110.851562 16.21875 107.027344 16.21875 C 103.203125 16.21875 100.398438 19.027344 100.398438 22.996094 C 100.398438 26.957031 103.203125 29.769531 107.027344 29.769531 Z M 107.027344 19.160156 C 108.9375 19.160156 110.46875 20.691406 110.46875 22.996094 C 110.46875 25.296875 108.9375 26.832031 107.027344 26.828125 C 105.113281 26.828125 103.582031 25.296875 103.582031 22.996094 C 103.582031 20.695312 105.113281 19.160156 107.027344 19.160156 Z M 115.570312 16.46875 L 118.496094 16.46875 L 118.757812 17.753906 L 118.882812 17.753906 C 119.109375 17.46875 119.417969 17.210938 119.746094 16.988281 C 120.335938 16.597656 121.226562 16.21875 122.449219 16.21875 C 125.382812 16.21875 127.546875 18.390625 127.546875 21.710938 L 127.546875 29.511719 L 124.359375 29.511719 L 124.359375 21.96875 C 124.359375 20.308594 123.214844 19.160156 121.554688 19.160156 C 119.902344 19.160156 118.757812 20.308594 118.757812 21.96875 L 118.757812 29.511719 L 115.570312 29.511719 Z M 141.71875 29.769531 C 145.820312 29.769531 147.429688 26.703125 147.835938 24.65625 L 144.648438 24.65625 C 144.371094 25.546875 143.625 26.832031 141.71875 26.832031 C 139.808594 26.832031 138.273438 25.296875 138.273438 22.996094 C 138.273438 20.695312 139.808594 19.160156 141.71875 19.160156 C 143.625 19.160156 144.371094 20.464844 144.648438 21.203125 L 147.835938 21.203125 C 147.429688 19.289062 145.820312 16.222656 141.71875 16.222656 C 137.890625 16.222656 135.085938 19.03125 135.085938 22.996094 C 135.085938 26.957031 137.890625 29.769531 141.71875 29.769531 Z M 157.472656 28.234375 L 157.347656 28.234375 C 157.113281 28.515625 156.808594 28.769531 156.457031 29.003906 C 155.84375 29.382812 154.949219 29.769531 153.648438 29.769531 C 150.695312 29.769531 148.929688 27.953125 148.929688 25.804688 C 148.929688 23.246094 150.71875 21.460938 154.289062 21.460938 L 157.21875 21.460938 L 157.21875 21.203125 C 157.21875 19.773438 156.351562 18.773438 154.925781 18.773438 C 153.492188 18.773438 152.757812 19.695312 152.628906 20.4375 L 149.4375 20.4375 C 149.726562 18.289062 151.457031 16.21875 154.925781 16.21875 C 158.238281 16.21875 160.40625 18.417969 160.40625 21.203125 L 160.40625 29.511719 L 157.730469 29.511719 Z M 157.21875 23.886719 L 154.539062 23.886719 C 152.886719 23.886719 152.117188 24.527344 152.117188 25.546875 C 152.117188 26.574219 152.859375 27.210938 154.160156 27.210938 C 156.097656 27.210938 157.21875 26.089844 157.21875 24.269531 Z M 133.179688 16.46875 L 129.992188 16.46875 L 129.992188 29.511719 L 133.179688 29.511719 Z M 131.582031 14.601562 C 132.625 14.601562 133.472656 13.753906 133.472656 12.707031 C 133.472656 11.664062 132.625 10.816406 131.582031 10.816406 C 130.539062 10.816406 129.695312 11.664062 129.695312 12.707031 C 129.695312 13.753906 130.539062 14.601562 131.582031 14.601562 Z M 111.492188 10.980469 L 108.171875 10.980469 L 105.753906 14.683594 L 108.433594 14.683594 Z M 111.492188 10.980469 "/>
</g>
</svg>
