<?xml version="1.0" encoding="UTF-8"?>
<svg width="162px" height="45px" viewBox="0 0 162 45" version="1.1" xmlns="http://www.w3.org/2000/svg" xmlns:xlink="http://www.w3.org/1999/xlink">
    <!-- Generator: Sketch 64 (93537) - https://sketch.com -->
    <title>Group 14</title>
    <desc>Created with Sketch.</desc>
    <g id="Symbols" stroke="none" stroke-width="1" fill="none" fill-rule="evenodd">
        <g id="Movistar/Footer" transform="translate(-639.000000, -174.000000)">
            <g id="Group-14" transform="translate(639.000000, 174.000000)">
                <path d="M43.9148936,11.951562 C44.4255319,11.951562 44.6808511,12.4675325 44.6808511,12.983503 C44.6808511,15.5633556 41.6170213,18.6591787 37.787234,20.981046 C38.8085106,17.1112671 41.3617021,11.951562 43.9148936,11.951562 M47.4893617,20.4650755 C44.9361702,24.0768691 41.6170213,27.1701123 38.8085106,27.1701123 C37.5319149,27.1701123 37.0212766,26.3987364 37.0212766,25.1088101 C37.0212766,24.3348543 37.2765957,23.044928 37.2765957,22.5289575 C40.0851064,21.2390312 42.893617,19.4331344 45.4468085,16.8532819 C46.7234043,15.3053703 47.7446809,13.7574588 47.7446809,12.2095472 C47.7446809,10.6616357 46.9787234,9.88767989 44.9361702,9.88767989 C42.3829787,9.88767989 39.0638298,11.6935767 37.0212766,14.015444 C34.212766,17.1112671 32.1702128,21.2390312 32.1702128,24.8508249 C32.1702128,27.4306774 33.4468085,29.4945595 36.7659574,29.4945595 C40.3404255,29.4945595 43.9148936,26.6567217 45.7021277,24.5928396 L45.7021277,26.9147069 C45.7021277,29.2365742 46.9787234,31.0398912 49.2765957,31.5584416 L49.787234,31.3004563 C49.5319149,30.7844858 49.5319149,30.01053 49.5319149,29.2365742 C49.787234,26.9147069 50.5531915,24.3348543 51.8297872,20.981046 C54.3829787,14.5314145 57.9574468,7.30782731 59.7446809,2.92207792 L55.9148936,3.6960337 C55.4042553,3.95401895 54.893617,4.21200421 54.6382979,4.72797473 C52.5957447,8.85573886 50.8085106,12.983503 48.2553191,18.6591787 C48,19.1751492 47.7446809,19.9491049 47.4893617,20.4650755" id="Fill-1" fill="#003254"></path>
                <path d="M143.158631,12.2245989 C144.437095,11.7020626 145.457309,11.7020626 146.224387,11.7020626 C145.971251,12.4858671 144.437095,15.3598167 143.414323,17.7112299 C141.621917,21.8915202 139.06499,25.8105424 136.766312,26.5943468 C135.996676,26.855615 135.487848,26.5943468 135.487848,25.5492743 C135.487848,22.1527884 139.323239,14.0534759 143.158631,12.2245989 M109.148936,26.855615 C109.148936,28.684492 110.174264,29.7295646 112.475499,29.7295646 C114.774177,29.7295646 116.819719,28.4232238 118.867818,26.5943468 C119.123511,28.4232238 120.655111,29.9908327 123.470288,29.7295646 C126.280351,29.7295646 129.095529,27.6394194 131.141071,25.5492743 L131.141071,26.0718105 C131.141071,28.1619557 132.161285,29.4682964 134.465077,29.4682964 C136.766312,29.4682964 139.578932,27.6394194 141.880167,24.5042017 C141.621917,25.2880061 141.368781,26.5943468 141.368781,27.3781513 C141.368781,29.7295646 142.647245,31.0359053 144.692787,31.5584416 L145.204173,31.2971734 C144.437095,29.4682964 145.457309,25.2880061 145.971251,23.7203972 C147.502851,19.0175707 149.806643,13.5309396 151.085106,10.6569901 C150.571164,10.1344538 149.039564,9.87318564 147.502851,9.61191749 C142.388995,9.35064935 137.53339,11.4407945 133.697998,18.2337662 C133.186613,19.2788388 132.419535,20.5851795 131.908149,22.1527884 C131.394207,22.9365928 130.882821,23.4591291 130.629685,23.7203972 C129.351221,25.026738 127.305679,26.5943468 125.51583,26.5943468 C124.490502,26.5943468 123.723424,25.8105424 123.723424,24.5042017 C123.723424,19.2788388 128.325893,11.1795264 131.394207,11.1795264 C132.161285,11.1795264 132.67267,11.4407945 132.67267,12.2245989 C132.67267,13.0084034 132.161285,14.3147441 131.141071,15.0985485 L131.394207,15.3598167 C133.439749,14.5760122 135.487848,13.0084034 135.487848,11.4407945 C135.487848,9.61191749 133.439749,9.35064935 131.652456,9.35064935 C129.351221,9.35064935 126.280351,10.6569901 123.723424,13.2696715 C120.655111,16.6661574 119.123511,20.8464477 118.867818,23.7203972 C117.589354,25.2880061 116.052641,26.5943468 114.774177,26.5943468 C114.262791,26.5943468 113.753963,26.3330787 113.753963,25.5492743 C113.753963,25.026738 114.009656,23.9816654 114.521041,22.4140565 C115.799505,19.0175707 117.845047,14.8372804 120.146282,9.61191749 C120.146282,9.61191749 116.566583,10.1344538 116.052641,10.3957219 C115.541255,10.6569901 115.032427,10.9182582 114.774177,11.4407945 C113.242577,15.3598167 111.452728,19.2788388 110.4274,22.1527884 C109.660322,23.9816654 109.148936,25.8105424 109.148936,26.855615" id="Fill-3" fill="#003254"></path>
                <path d="M65.3881338,11.7055859 C65.8942731,11.7055859 66.1473428,12.2243724 66.1473428,12.7431589 C66.1473428,15.3370915 63.1105071,18.4498107 59.3144625,20.78435 C60.326741,16.8934511 63.1105071,11.7055859 65.3881338,11.7055859 M58.8083232,13.780732 C56.0245571,16.8934511 54,21.0437433 54,24.6752489 C54,27.2691815 55.2653482,29.3443276 58.8083232,29.3443276 C62.6043678,29.3443276 65.8942731,27.0071943 68.6780392,23.8970691 C67.9188303,25.9722152 67.412691,27.5285748 66.9065517,28.5661478 C65.8942731,31.4194737 65.1350642,33.4920258 63.3635767,34.7889921 L63.6166464,35.0509793 C68.4249695,35.3103726 70.196457,31.9382602 72.2210142,26.2316085 C74.2455713,20.5249568 76.0170588,15.5964848 77.282407,12.2243724 C79.3069641,12.2243724 82.3437998,12.2243724 84.1127566,11.9649792 C79.8131034,14.0401252 76.0170588,21.0437433 76.5231981,25.9722152 C76.7762677,28.0473613 78.0416159,29.6011269 80.5723123,29.6011269 C85.6337051,29.6011269 89.935889,23.3782826 91.4543069,19.4873837 C92.4665854,17.1528444 92.970194,15.0776983 92.970194,13.2619455 C94.2355422,13.0025522 95.2503515,12.7431589 96.0095604,12.7431589 C97.021839,12.4837657 97.021839,13.780732 96.5156997,14.818305 C94.4911426,20.78435 90.9481676,29.3443276 90.9481676,29.3443276 L94.9972818,29.3443276 C96.7662386,25.712822 97.7810479,23.3782826 99.0463961,20.78435 C100.562283,17.9310242 104.358328,13.0025522 105.879276,13.0025522 C106.385416,13.0025522 106.638485,13.2619455 106.385416,13.780732 C106.132346,15.8558781 101.324023,23.3782826 101.577093,27.0071943 C101.577093,29.3443276 102.842441,30.8980932 105.120067,31.4194737 L105.623676,31.1600804 C105.373137,30.6412939 105.373137,29.8631141 105.373137,29.0849344 C105.373137,26.4910017 107.397694,22.3407096 108.154372,20.5249568 C109.419721,17.9310242 111.446809,14.0401252 111.446809,11.9649792 C111.446809,10.9274061 110.685069,9.88983308 108.916112,9.88983308 C105.623676,9.88983308 102.589371,13.0025522 99.805605,17.4122376 C100.817884,14.818305 101.827631,12.4837657 101.577093,11.4461926 C101.577093,10.4086196 101.070953,9.88983308 99.805605,9.88983308 C99.0463961,9.88983308 97.7810479,10.1492263 96.7662386,10.6680129 C95.2503515,11.1867994 93.478864,11.4461926 91.7048458,11.9649792 C90.4394976,12.2243724 90.1889587,12.2243724 90.1889587,12.7431589 C90.4394976,19.2279905 86.1398444,27.0071943 83.1030087,27.0071943 C81.8376605,27.0071943 81.5845909,25.9722152 81.5845909,24.6752489 C81.5845909,20.2655635 85.1275658,12.4837657 88.6705408,11.4461926 C88.9236105,11.4461926 89.1741494,11.1867994 89.4297497,11.1867994 L89.935889,9.88983308 C89.1741494,10.1492263 87.4051926,10.1492263 86.3929141,10.1492263 L78.5477552,10.1492263 C80.5723123,5.22075439 83.609148,1.84864201 87.6582623,1.58924875 C90.1889587,1.58924875 91.9604462,2.62682179 92.2135158,3.92378809 C92.2135158,5.22075439 91.9604462,6.25832743 90.9481676,7.29590048 L91.2012372,7.55529374 C93.478864,6.51772069 94.9972818,4.44257461 95.2503515,3.14560831 C95.2503515,1.07046222 92.970194,-0.226504078 89.1741494,0.0328891826 C84.3683569,0.0328891826 78.5477552,1.07046222 74.2455713,9.88983308 C72.9802231,10.1492263 71.9679445,10.6680129 70.9556659,11.7055859 L71.2087356,11.9649792 C71.9679445,11.7055859 72.7271534,11.7055859 73.4863624,11.7055859 C72.9802231,13.2619455 71.7148749,16.3746646 70.7025963,19.4873837 C67.1596213,24.1564624 63.6166464,26.4910017 61.0859499,26.4910017 C59.5675321,26.4910017 59.0613928,25.712822 59.0613928,24.4158557 C59.0613928,23.6376759 59.3144625,22.3407096 59.3144625,21.8219231 C62.0982285,20.5249568 64.8819946,18.7092039 67.412691,16.1152713 C68.6780392,14.5589118 69.6903177,13.0025522 69.6903177,11.4461926 C69.6903177,9.88983308 68.9311088,9.1116533 66.9065517,9.1116533 C64.1227856,9.63043982 60.8328803,11.4461926 58.8083232,13.780732" id="Fill-5" fill="#003254"></path>
                <path d="M120.443309,7.01298701 C121.421495,7.01298701 122.644227,5.97402597 122.888773,4.67532468 C123.13332,3.37662338 122.399681,2.33766234 121.421495,2.33766234 C120.443309,2.33766234 119.220577,3.37662338 118.97603,4.67532468 C118.731484,6.23376623 119.220577,7.01298701 120.443309,7.01298701" id="Fill-7" fill="#003254"></path>
                <g id="Group-11" transform="translate(0.000000, 42.077922)">
                    <polygon id="Clip-10" points="0 0.262198052 161.558378 0.262198052 161.558378 2.62987013 0 2.62987013"></polygon>
                    <path d="M81.0329574,0.525185065 C40.8973856,0.525185065 -0.000254022606,1.05115909 -0.000254022606,1.57713312 C-0.000254022606,2.10573701 40.643363,2.62908117 80.7789348,2.62908117 C120.914507,2.62908117 161.559308,2.10573701 161.559308,1.57713312 C161.812146,1.05115909 121.168529,0.525185065 81.0329574,0.525185065" id="Fill-9" fill="#003254"></path>
                </g>
                <path d="M16.2822977,13.6566261 L16.2822977,13.6566261 C16.029795,12.8836096 16.029795,11.5952486 16.029795,11.0799042 C16.2822977,5.6687882 21.5848527,2.8343941 30.1699419,2.8343941 L34.9674917,2.8343941 C32.1899629,4.38042725 29.9174393,6.69947697 28.1499209,10.822232 C27.3924131,12.6259374 23.8573763,22.1598084 22.3423606,26.2825635 C20.5748422,31.4360073 19.3123291,33.755057 17.7973134,34.5280736 L18.049816,35.043418 C22.089858,35.3010902 24.6148842,33.2397127 26.1298999,29.1169576 C27.6449157,25.5095469 29.6649367,19.3254143 30.6749471,16.7486924 C33.7049786,8.24551012 35.2199944,4.63809944 37.7450206,2.8343941 L44.5625914,2.8343941 C48.3501307,2.8343941 49.8651465,1.80370534 51.1276596,0.257672191 L50.875157,0 C49.8651465,0.515344382 47.8451255,0.515344382 46.0776071,0.515344382 L29.1599314,0.515344382 C19.5648318,0.515344382 13.5047688,3.60741068 12.7472609,8.50318231 C12.2422557,10.822232 13.5047688,13.3989539 16.2822977,13.6566261" id="Fill-12" fill="#003254"></path>
            </g>
        </g>
    </g>
</svg>