<svg xmlns="http://www.w3.org/2000/svg" viewBox="0 0 45.616 45.618">
  <defs>
    <style>
      .cls-1 {
        fill: #5bc500;
      }
    </style>
  </defs>
  <path id="Path_124" data-name="Path 124" class="cls-1" d="M27.5,30.4,44.655,13.242a3.314,3.314,0,0,0-4.687-4.687L22.815,25.708,5.662,8.555A3.314,3.314,0,0,0,.975,13.242L18.128,30.4.975,47.548a3.314,3.314,0,1,0,4.687,4.687L22.815,35.082,39.968,52.235a3.314,3.314,0,1,0,4.687-4.687Z" transform="translate(-0.007 -7.588)"/>
</svg>
