<?xml version="1.0" encoding="utf-8"?>
<!-- Generator: Adobe Illustrator 22.0.1, SVG Export Plug-In . SVG Version: 6.00 Build 0)  -->
<svg version="1.1" id="Layer_1" xmlns="http://www.w3.org/2000/svg" xmlns:xlink="http://www.w3.org/1999/xlink" x="0px" y="0px"
	 viewBox="0 0 80 80" style="enable-background:new 0 0 80 80;" xml:space="preserve">
<style type="text/css">
	.st0{fill:#FFFFFF;}
</style>
<g>
	<polygon class="st0" points="27.3,4.2 11.3,20.2 23.4,20.2 23.4,47.9 31.2,47.9 31.2,20.2 43.3,20.2 	"/>
	<polygon class="st0" points="56.2,60.9 56.2,33.2 48.4,33.2 48.4,60.9 36.3,60.9 52.3,76.9 68.3,60.9 	"/>
</g>
</svg>
