<?xml version="1.0" encoding="utf-8"?>
<!-- Generator: Adobe Illustrator 22.1.0, SVG Export Plug-In . SVG Version: 6.00 Build 0)  -->
<svg version="1.1" id="Layer_1" xmlns="http://www.w3.org/2000/svg" xmlns:xlink="http://www.w3.org/1999/xlink" x="0px" y="0px"
	 viewBox="0 0 107.5 91" style="enable-background:new 0 0 107.5 91;" xml:space="preserve">
<style type="text/css">
	.st0{fill:#E9426E;}
</style>
<path class="st0" d="M65.6,9.1c-19.9-5-40.1,6.7-45.8,26.2l-3.2-4.9c-1.2-1.8-3.7-2.3-5.5-1.1S8.8,33,10,34.8l8.6,12.9
	c0.1,0.1,0.2,0.3,0.3,0.4c0.1,0.1,0.2,0.2,0.3,0.3c0,0,0,0,0.1,0.1c0.7,0.7,1.7,1,2.7,1c0.8,0,1.5-0.2,2.2-0.7l13-8.6
	c1.8-1.2,2.3-3.7,1.1-5.5s-3.7-2.3-5.5-1.1l-5.2,3.3c4.8-15,20.5-24,36-20.1c16,4.1,25.8,20.4,21.7,36.4
	c-2.1,8.4-7.8,15.5-15.5,19.4c-2.3,1.1-4.7,2-7.1,2.5c-2.4,0.5-5,0.8-7.5,0.7c-2.1-0.1-4.2-0.4-6.3-0.9c-2.7-0.7-5.3-1.8-7.8-3.2
	c-1.9-1.1-4.4-0.5-5.5,1.4c-1.1,1.9-0.5,4.4,1.4,5.5c3.1,1.8,6.4,3.1,9.8,4c2.6,0.7,5.3,1,8,1.1c0.5,0,0.9,0,1.4,0
	c2.7,0,5.4-0.3,8.1-0.9c3.1-0.7,6.2-1.8,9-3.2c9.8-5,17-13.9,19.7-24.6C98.3,34.9,85.9,14.2,65.6,9.1z"/>
</svg>
