<svg width="184" height="79" viewBox="0 0 184 79" fill="none" xmlns="http://www.w3.org/2000/svg">
<path d="M21.6253 0.5H21.6257L98.3763 0.558726L98.3767 0.558726L98.3763 1.05873C111.675 1.05873 119 8.31727 119 21.4971V57.419C119 63.8621 117.266 68.9226 113.844 72.4613L21.6253 0.5ZM21.6253 0.5C14.8871 0.5 9.58758 2.3399 5.97312 5.92159C2.35796 9.50397 0.5 14.7579 0.5 21.4384V57.367C0.5 63.8998 2.25768 69.1064 5.79046 72.776L21.6253 0.5Z" fill="#2FD7C3" stroke="#86888C"/>
<path d="M7.59254 71.0432L7.59165 71.0423C4.63214 67.9683 3 63.4592 3 57.367V21.4384C3 15.2108 4.72449 10.6784 7.73282 7.69739C10.7438 4.71368 15.3273 3.00013 21.6246 3C21.6248 3 21.6251 3 21.6253 3L98.3748 3.05873H98.3763C104.673 3.05873 109.256 4.77226 112.267 7.75608C115.275 10.7371 117 15.2695 117 21.4971V57.419C117 63.5092 115.366 68.0097 112.406 71.0711C109.329 74.246 104.711 76 98.3763 76H21.6253C15.2778 76 10.663 74.2365 7.59254 71.0432Z" fill="#92DBB7" stroke="white" stroke-width="4"/>
<path d="M113.646 26.6464C113.451 26.8417 113.451 27.1583 113.646 27.3536L116.828 30.5355C117.024 30.7308 117.34 30.7308 117.536 30.5355C117.731 30.3403 117.731 30.0237 117.536 29.8284L114.707 27L117.536 24.1716C117.731 23.9763 117.731 23.6597 117.536 23.4645C117.34 23.2692 117.024 23.2692 116.828 23.4645L113.646 26.6464ZM150 26.5L114 26.5L114 27.5L150 27.5L150 26.5Z" fill="#50535A"/>
<rect x="154" y="18" width="30" height="17" rx="3" fill="#00A9E0"/>
<path d="M163.31 30.11C162.717 30.11 162.22 30.0433 161.82 29.91C161.42 29.77 161.09 29.56 160.83 29.28C160.543 28.9733 160.333 28.6 160.2 28.16C160.067 27.7133 160 27.1867 160 26.58C160 25.46 160.27 24.5833 160.81 23.95C161.35 23.3167 162.183 23 163.31 23C163.603 23 163.92 23.03 164.26 23.09C164.6 23.15 164.88 23.2233 165.1 23.31L164.9 24.45C164.333 24.29 163.843 24.21 163.43 24.21C162.743 24.21 162.27 24.41 162.01 24.81C161.75 25.21 161.62 25.7867 161.62 26.54C161.62 27.42 161.783 28.0433 162.11 28.41C162.263 28.5833 162.457 28.71 162.69 28.79C162.923 28.8633 163.23 28.9 163.61 28.9C163.777 28.9 163.977 28.8867 164.21 28.86C164.45 28.8333 164.67 28.8 164.87 28.76L165.03 29.9C164.823 29.96 164.553 30.01 164.22 30.05C163.893 30.09 163.59 30.11 163.31 30.11Z" fill="white"/>
<path d="M165.656 23.13H167.326L168.926 28.09L170.416 23.13H171.936L169.666 29.97H168.036L165.656 23.13Z" fill="white"/>
<path d="M172.297 23.13H173.967L175.567 28.09L177.057 23.13H178.577L176.307 29.97H174.677L172.297 23.13Z" fill="white"/>
<rect x="12" y="39" width="27" height="11" rx="1" fill="#FFFFF9"/>
<rect x="81" y="39" width="27" height="11" rx="1" fill="#FFFFF9"/>
<rect x="46" y="39" width="27" height="11" rx="1" fill="#FFFFF9"/>
<path d="M91 28.1842H91.8792V24.7876H91.0379V24.1055C91.2047 24.082 91.4017 24.0633 91.6291 24.0492C91.8616 24.0305 92.0662 24.0211 92.2431 24.0211C92.5109 24.0211 92.6979 24.0563 92.804 24.1266C92.9101 24.1969 92.9631 24.3211 92.9631 24.4993V28.1842H93.706V28.9015H91V28.1842Z" fill="#50535A"/>
<path d="M95.181 28.9015C95.1608 28.85 95.1507 28.775 95.1507 28.6765C95.1507 28.5312 95.1735 28.4023 95.2189 28.2897C95.2644 28.1772 95.3427 28.06 95.4539 27.9381L96.462 26.7989C96.7753 26.4473 96.9901 26.18 97.1063 25.9972C97.2225 25.8097 97.2806 25.6221 97.2806 25.4346C97.2806 25.2283 97.2124 25.0736 97.076 24.9705C96.9244 24.8486 96.6616 24.7876 96.2877 24.7876C95.9643 24.7876 95.6257 24.8181 95.272 24.879V24.1336C95.4337 24.0961 95.6232 24.0656 95.8405 24.0422C96.0628 24.0141 96.275 24 96.4772 24C97.1897 24 97.7076 24.15 98.031 24.4501C98.2786 24.6798 98.4024 24.9916 98.4024 25.3854C98.4024 25.6807 98.3216 25.9644 98.1599 26.2363C97.9982 26.5035 97.7101 26.8481 97.2958 27.27L96.3938 28.1842H98.4858V28.9015H95.181Z" fill="#50535A"/>
<path d="M101.068 29C100.608 29 100.191 28.9625 99.8169 28.8875V28.128C100.166 28.1842 100.512 28.2124 100.855 28.2124C101.068 28.2124 101.239 28.2007 101.371 28.1772C101.507 28.1491 101.621 28.1069 101.712 28.0506C101.899 27.9334 101.992 27.7482 101.992 27.4951C101.992 27.256 101.906 27.0802 101.735 26.9677C101.644 26.9067 101.52 26.8645 101.363 26.8411C101.206 26.8129 100.994 26.7989 100.726 26.7989H100.582V26.0956H100.764C101.002 26.0956 101.189 26.0816 101.325 26.0534C101.462 26.0206 101.575 25.9667 101.666 25.8917C101.803 25.7792 101.871 25.6151 101.871 25.3994C101.871 25.2025 101.813 25.0572 101.697 24.9634C101.55 24.8415 101.277 24.7806 100.878 24.7806C100.539 24.7806 100.201 24.804 99.8623 24.8509V24.1055C100.211 24.0352 100.608 24 101.052 24C101.386 24 101.684 24.0375 101.947 24.1125C102.21 24.1828 102.419 24.2907 102.576 24.436C102.813 24.6564 102.932 24.9517 102.932 25.3221C102.932 25.8143 102.702 26.1683 102.242 26.384C102.823 26.5809 103.114 26.977 103.114 27.5724C103.114 27.9569 102.993 28.2663 102.75 28.5007C102.407 28.8336 101.846 29 101.068 29Z" fill="#50535A"/>
<path d="M106.31 27.7975H104.028C104.008 27.7318 103.998 27.6498 103.998 27.5513C103.998 27.3357 104.051 27.0919 104.157 26.82L105.233 24.0914H106.279L105.112 27.045H106.31V25.8987H107.394V27.045H108V27.7975H107.394V28.9015H106.31V27.7975Z" fill="#50535A"/>
<circle cx="99.5" cy="26.5" r="13" stroke="#E9426D"/>
</svg>
