<svg width="102" height="102" viewBox="0 0 102 102" fill="none" xmlns="http://www.w3.org/2000/svg">
<path d="M52.1013 1C89.326 1 101 15.8459 101 50.2997C101 84.7535 88.2247 101 52.1013 101C15.978 101 1 88.395 1 50.2997C1 12.2045 14.8767 1 52.1013 1Z" fill="#5BC500" stroke="#5BC500"/>
</svg>
