<svg width="91" height="91" viewBox="0 0 91 91" fill="none" xmlns="http://www.w3.org/2000/svg">
<path fill-rule="evenodd" clip-rule="evenodd" d="M45.5 0C58.0738 0 68.8005 4.45027 77.6803 13.3509C86.5602 22.2516 91 32.9679 91 45.5C91 58.0321 86.5602 68.7484 77.6803 77.6491C68.8005 86.5497 58.0738 91 45.5 91C32.9262 91 22.1995 86.5497 13.3197 77.6491C4.43985 68.7484 0 58.0321 0 45.5C0 32.9679 4.43985 22.2516 13.3197 13.3509C22.1995 4.45027 32.9262 0 45.5 0ZM36.4414 68.3566L77.3594 27.3426L70.966 20.7205L36.4414 55.3261L20.0316 39.0914L13.6381 45.4998L36.4414 68.3566Z" fill="#5BC500"/>
</svg>
