<svg width="34" height="23" viewBox="0 0 34 23" fill="none" xmlns="http://www.w3.org/2000/svg">
<path d="M34 21.0284C34 22.1172 33.1002 22.9999 31.9902 22.9999H2.01024C0.90028 22.9999 0.000488281 22.1172 0.000488281 21.0284V1.97145C0.000488281 0.882614 0.90028 0 2.01024 0H31.9902C33.1003 0 34 0.882679 34 1.97145V21.0284Z" fill="white"/>
<path d="M7.54626 11.6325L6.74793 7.8759C6.61147 7.35785 6.21437 7.20374 5.71819 7.18335H2.05806L2.02545 7.35499C4.87617 8.03288 6.76241 9.66824 7.54626 11.6325Z" fill="#F79F1A"/>
<path d="M16.0272 7.25903H13.6623L12.1853 15.7612H14.5463L16.0272 7.25903Z" fill="#059BBF"/>
<path d="M8.98765 15.7527L12.707 7.26489H10.2041L7.89037 13.0639L7.64341 12.1884C7.18986 11.135 5.89363 9.61895 4.37189 8.66456L6.48689 15.7556L8.98765 15.7527Z" fill="#059BBF"/>
<path d="M22.7724 12.9819C22.7812 12.0166 22.1493 11.2803 20.7877 10.6722C19.9603 10.2794 19.4559 10.0175 19.462 9.61892C19.462 9.26679 19.8891 8.88853 20.8145 8.88853C21.5889 8.87687 22.1464 9.04271 22.5825 9.21442L22.7962 9.31049L23.1166 7.46859C22.6479 7.29682 21.9151 7.11353 20.9986 7.11353C18.664 7.11353 17.0207 8.26588 17.0058 9.91862C16.991 11.1408 18.1807 11.8217 19.0764 12.229C19.9959 12.6442 20.3044 12.9099 20.2985 13.2823C20.2926 13.8518 19.5658 14.1115 18.8865 14.1115C17.9402 14.1115 17.4389 13.9835 16.6613 13.6658L16.3592 13.5297L16.0273 15.4349C16.5786 15.6713 17.599 15.8779 18.6581 15.8865C21.1408 15.8865 22.7546 14.7488 22.7724 12.9819Z" fill="#059BBF"/>
<path d="M25.5815 14.4869C25.8515 14.4869 28.2631 14.4898 28.6074 14.4898C28.6785 14.7859 28.8951 15.7643 28.8951 15.7643H31.0872L29.1739 7.26782H27.3496C26.7829 7.26782 26.3619 7.41914 26.1126 7.9719L22.6034 15.7643H25.0864C25.0862 15.7643 25.4896 14.7169 25.5815 14.4869ZM27.2011 10.3696C27.1894 10.3928 27.397 9.87783 27.5157 9.55774L27.6758 10.2909C27.6758 10.2909 28.1268 12.3221 28.2216 12.7469H26.2608C26.4566 12.2581 27.2011 10.3696 27.2011 10.3696Z" fill="#059BBF"/>
<path d="M31.9902 0H2.01024C0.90028 0 0.000488281 0.882601 0.000488281 1.97142V4.01749H34V1.97142C34 0.882601 33.1003 0 31.9902 0Z" fill="#059BBF"/>
<path d="M31.9897 22.9999H2.00976C0.899791 22.9999 0 22.1172 0 21.0285V18.9824H33.9995V21.0285C33.9995 22.1172 33.0998 22.9999 31.9897 22.9999Z" fill="#F79F1A"/>
</svg>
