<svg width="34" height="16" viewBox="0 0 34 16" fill="none" xmlns="http://www.w3.org/2000/svg">
<path d="M33.3326 8.68636C33.3331 8.66786 33.3333 8.64998 33.3333 8.63146V2C33.3333 0.89543 32.4379 0 31.3333 0H2C0.895429 0 0 0.895431 0 2V14C0 15.1046 0.895431 16 2 16H31.3333C32.4379 16 33.3333 15.1046 33.3333 14V13.3318C33.3333 12.2273 33.294 10.4395 33.3172 9.33514C33.3238 9.01771 33.3304 8.76669 33.3326 8.68636Z" fill="#006FCF"/>
<path d="M27.6274 7.24933H29.7087V2.85706H27.4437V3.46864L27.0152 2.85706H25.0563V3.63543L24.6891 2.85706H21.0774C20.955 2.85706 20.8325 2.91265 20.7101 2.91265C20.5877 2.91265 20.5265 2.96825 20.404 3.02385C20.2816 3.07945 20.2204 3.07945 20.098 3.13505V2.85706H9.75268L9.44661 3.57984L9.14054 2.85706H6.69195V3.63543L6.32466 2.85706H4.36579L3.50879 4.7474V7.24933H4.91673L5.16158 6.63775H5.6513L5.89616 7.24933H16.6699V6.69335L17.0984 7.24933H20.098V6.91574C20.1592 6.97134 20.2816 6.97134 20.3428 7.02694C20.404 7.08254 20.5265 7.08254 20.5877 7.13814C20.7101 7.19373 20.8325 7.19373 20.955 7.19373H23.1587L23.4036 6.58215H23.8933L24.1381 7.19373H27.1376V6.63775L27.6274 7.24933ZM30.9942 12.8092V8.69489H14.1601L13.7316 9.25088L13.3031 8.69489H8.40596V13.0872H13.3031L13.7316 12.5312L14.1601 13.0872H17.2209V12.142H17.0984C17.5269 12.142 17.8942 12.0864 18.2003 11.9752V13.1428H20.404V12.5868L20.8325 13.1428H29.9535C30.3208 13.0316 30.6881 12.976 30.9942 12.8092Z" fill="white"/>
<path d="M28.7719 11.9542H27.193V12.5828H28.7135C29.3567 12.5828 29.7661 12.1828 29.7661 11.6113C29.7661 11.0399 29.4152 10.7542 28.8304 10.7542H28.1287C27.9532 10.7542 27.8363 10.6399 27.8363 10.4685C27.8363 10.297 27.9532 10.1828 28.1287 10.1828H29.4737L29.7661 9.55419H28.1872C27.5439 9.55419 27.1345 9.95419 27.1345 10.4685C27.1345 11.0399 27.4854 11.3256 28.0702 11.3256H28.7719C28.9474 11.3256 29.0643 11.4399 29.0643 11.6113C29.1228 11.8399 29.0059 11.9542 28.7719 11.9542ZM25.9064 11.9542H24.3275V12.5828H25.848C26.4912 12.5828 26.9006 12.1828 26.9006 11.6113C26.9006 11.0399 26.5497 10.7542 25.9649 10.7542H25.2632C25.0877 10.7542 24.9708 10.6399 24.9708 10.4685C24.9708 10.297 25.0877 10.1828 25.2632 10.1828H26.6082L26.9006 9.55419H25.3217C24.6784 9.55419 24.269 9.95419 24.269 10.4685C24.269 11.0399 24.6199 11.3256 25.2047 11.3256H25.9064C26.0819 11.3256 26.1988 11.4399 26.1988 11.6113C26.2573 11.8399 26.0819 11.9542 25.9064 11.9542ZM23.8597 10.1256V9.49705H21.4035V12.5256H23.8597V11.897H22.1053V11.2685H23.8012V10.6399H22.1053V10.0685H23.8597V10.1256ZM19.8831 10.1256C20.1755 10.1256 20.2924 10.297 20.2924 10.4685C20.2924 10.6399 20.1755 10.8113 19.8831 10.8113H19.0059V10.0685L19.8831 10.1256ZM19.0059 11.4399H19.3567L20.2924 12.5256H21.1696L20.117 11.3828C20.6433 11.2685 20.9357 10.9256 20.9357 10.4685C20.9357 9.89705 20.5263 9.49705 19.8831 9.49705H18.2456V12.5256H18.9474L19.0059 11.4399ZM17.1345 10.5256C17.1345 10.7542 17.0176 10.9256 16.7252 10.9256H15.7895V10.1256H16.6667C16.9591 10.1256 17.1345 10.297 17.1345 10.5256ZM15.0877 9.49705V12.5256H15.7895V11.497H16.7252C17.3684 11.497 17.8363 11.097 17.8363 10.4685C17.8363 9.89705 17.4269 9.43991 16.7836 9.43991L15.0877 9.49705ZM14.0351 12.5256H14.9123L13.6842 10.9828L14.9123 9.49705H14.0351L13.2749 10.4685L12.5146 9.49705H11.6374L12.8655 10.9828L11.6374 12.4685H12.5146L13.2749 11.497L14.0351 12.5256ZM11.4035 10.1256V9.49705H8.94739V12.5256H11.4035V11.897H9.64914V11.2685H11.345V10.6399H9.64914V10.0685H11.4035V10.1256ZM25.614 4.7542L26.8421 6.58277H27.7193V3.5542H27.0176V5.5542L26.8421 5.26848L25.731 3.5542H24.7953V6.58277H25.4971V4.52563L25.614 4.7542ZM22.5731 4.69705L22.807 4.06848L23.041 4.69705L23.3334 5.38277H22.2807L22.5731 4.69705ZM23.8012 6.58277H24.5614L23.2164 3.5542H22.2807L20.9357 6.58277H21.6959L21.9883 5.9542H23.5088L23.8012 6.58277ZM20.5263 6.58277L20.8187 5.9542H20.6433C20.117 5.9542 19.8246 5.61134 19.8246 5.09705V5.03991C19.8246 4.52563 20.117 4.18277 20.6433 4.18277H21.4035V3.5542H20.5848C19.6491 3.5542 19.1228 4.18277 19.1228 5.03991V5.09705C19.1228 6.01134 19.6491 6.58277 20.5263 6.58277ZM17.8948 6.58277H18.5965V3.61134H17.8948V6.58277ZM16.3743 4.18277C16.6667 4.18277 16.7836 4.3542 16.7836 4.52563C16.7836 4.69706 16.6667 4.86848 16.3743 4.86848H15.4971V4.12563L16.3743 4.18277ZM15.4971 5.49705H15.848L16.7836 6.58277H17.6608L16.6082 5.43991C17.1345 5.32563 17.4269 4.98277 17.4269 4.52563C17.4269 3.9542 17.0176 3.5542 16.3743 3.5542H14.7369V6.58277H15.4386L15.4971 5.49705ZM14.2105 4.18277V3.5542H11.7544V6.58277H14.2105V5.9542H12.4562V5.32563H14.1521V4.69705H12.4562V4.12563H14.2105V4.18277ZM8.88891 6.58277H9.53218L10.4094 4.12563V6.58277H11.1111V3.5542H9.94154L9.23978 5.61134L8.53803 3.5542H7.36844V6.58277H8.07019V4.12563L8.88891 6.58277ZM5.08774 4.69705L5.32165 4.06848L5.55557 4.69705L5.84797 5.38277H4.79534L5.08774 4.69705ZM6.31581 6.58277H7.07604L5.73101 3.5542H4.85382L3.50879 6.58277H4.26902L4.56142 5.9542H6.08189L6.31581 6.58277Z" fill="#006FCF"/>
</svg>
